Division,WeightClassKg,Place,Name,Team,BodyweightKg,Best3SquatKg,Best3BenchKg,Best3DeadliftKg,TotalKg,Equipment,Event,Sex
Boys,51.71,1,Miguel Hernandez,Emory Rains,50.98,151.95,90.72,154.22,396.89,Single-ply,SBD,M
Boys,51.71,2,Jesse Ortiz,Sulphur Springs,51.35,149.69,68.04,136.08,353.8,Single-ply,SBD,M
Boys,51.71,3,Justin Dowdy,Wills Point,47.63,133.81,74.84,138.35,347,Single-ply,SBD,M
Boys,51.71,4,Steven Pham,Sunnyvale,51.71,131.54,65.77,147.42,344.73,Single-ply,SBD,M
Boys,55.79,5,Dylan Simmons,Emory Rains,51.94,115.67,47.63,97.52,260.82,Single-ply,SBD,M
Boys,55.79,1,Dakota Patton,Sulphur Springs,55.25,133.81,70.31,145.15,349.27,Single-ply,SBD,M
Boys,55.79,2,Garrett Weems,Emory Rains,55.43,129.27,68.04,120.2,317.51,Single-ply,SBD,M
Boys,55.79,3,Nathan Duckworth,Sunnyvale,53.61,117.93,65.77,111.13,294.84,Single-ply,SBD,M
Boys,55.79,4,James Kitchens,Commerce,55.79,113.4,63.5,117.93,294.84,Single-ply,SBD,M
Boys,59.87,5,Maverick Cunigan,Wills Point,55.97,79.38,43.09,90.72,213.19,Single-ply,SBD,M
Boys,55.79,DQ,Mauricio Cadera,Commerce,53.52,90.72,54.43,,,Single-ply,SBD,M
Boys,59.87,1,Brandon Jones #8,Cumby,59.69,174.63,122.47,174.63,471.74,Single-ply,SBD,M
Boys,59.87,2,Luis Gamez,Sulphur Springs,59.24,158.76,106.59,167.83,433.18,Single-ply,SBD,M
Boys,59.87,3,Juan Mendez,Emory Rains,59.87,161.03,97.52,174.63,433.18,Single-ply,SBD,M
Boys,59.87,4,Dalton Krodle,Commerce,59.15,136.08,88.45,147.42,371.95,Single-ply,SBD,M
Boys,59.87,5,Matt Hernandez,Wills Point,59.6,142.88,77.11,149.69,369.68,Single-ply,SBD,M
Boys,59.87,6,Kaleb Moore,Caddo Mills,59.78,124.74,68.04,149.69,342.46,Single-ply,SBD,M
Boys,59.87,7,Jack Jones #4,Cumby,58.42,129.27,81.65,129.27,340.19,Single-ply,SBD,M
Boys,59.87,8,Scott Galarza,Sulphur Springs,58.97,117.93,74.84,142.88,335.66,Single-ply,SBD,M
Boys,59.87,9,Sergio Camacho,Emory Rains,59.06,124.74,65.77,127.01,317.51,Single-ply,SBD,M
Boys,59.87,10,David Isham,Caddo Mills,58.06,106.59,49.9,115.67,272.16,Single-ply,SBD,M
Boys,74.84,1,Alex Ramsey,Royse City,67.31,204.12,124.74,192.78,521.63,Single-ply,SBD,M
Boys,67.13,2,Trevor Bell,Sunnyvale,67.13,197.31,86.18,176.9,460.4,Single-ply,SBD,M
Boys,67.13,3,Jb Peltier,Commerce,66.41,172.37,104.33,158.76,435.45,Single-ply,SBD,M
Boys,67.13,4,Colton Poyner,Wills Point,66.86,149.69,104.33,163.29,417.3,Single-ply,SBD,M
Boys,67.13,5,Garrett Ferguson,Sunnyvale,67.13,158.76,92.99,163.29,415.04,Single-ply,SBD,M
Boys,67.13,6,Rosendo Preciado,Quitman,61.33,165.56,86.18,140.61,392.36,Single-ply,SBD,M
Boys,67.13,7,Joseph Parker,Wills Point,65.14,154.22,79.38,142.88,376.48,Single-ply,SBD,M
Boys,67.13,8,Javier Gamboa,Commerce,66.22,145.15,70.31,142.88,358.34,Single-ply,SBD,M
Boys,67.13,9,Brad Curtis #1,Canton,63.68,140.61,68.04,136.08,344.73,Single-ply,SBD,M
Boys,67.13,10,Casey Cranford,Wills Point,64.59,122.47,83.91,136.08,342.46,Single-ply,SBD,M
Boys,67.13,11,Zach Lemond,Caddo Mills,63.23,104.33,70.31,113.4,288.03,Single-ply,SBD,M
Boys,67.13,12,Troy Woodson,Caddo Mills,62.14,88.45,61.23,136.08,285.76,Single-ply,SBD,M
Boys,74.84,1,Jesse Hudson #1,Emory Rains,71.67,226.8,117.93,217.72,562.45,Single-ply,SBD,M
Boys,74.84,2,James Wright #1,Wills Point,72.67,222.26,113.4,222.26,557.92,Single-ply,SBD,M
Boys,82.1,3,Christian Darter,Emory Rains,75.02,190.51,113.4,192.78,496.68,Single-ply,SBD,M
Boys,74.84,4,Mohammed Shalabi,Sunnyvale,72.94,190.51,108.86,183.7,483.08,Single-ply,SBD,M
Boys,74.84,5,Jakorien Johnson,Royse City,74.03,190.51,97.52,183.7,471.74,Single-ply,SBD,M
Boys,74.84,6,Jonny Parker #2,Wills Point,74.75,181.44,99.79,167.83,449.06,Single-ply,SBD,M
Boys,82.1,7,Chandler Tolbert,Royse City,75.07,158.76,113.4,170.1,442.25,Single-ply,SBD,M
Boys,74.84,8,Justin Blackburn,Emory Rains,73.48,151.95,99.79,170.1,421.84,Single-ply,SBD,M
Boys,82.1,9,Armando Cortes,Emory Rains,75.02,158.76,88.45,165.56,412.77,Single-ply,SBD,M
Boys,74.84,10,Anfernee Harris,Wills Point,72.67,145.15,97.52,161.03,403.7,Single-ply,SBD,M
Boys,74.84,11,Jake Glisch,Royse City,68.76,145.15,95.25,151.95,392.36,Single-ply,SBD,M
Boys,74.84,12,Payton Phillips,Hawkins,73.12,142.88,74.84,158.76,376.48,Single-ply,SBD,M
Boys,74.84,13,Jesse Harwell,Hawkins,71.03,142.88,79.38,151.95,374.21,Single-ply,SBD,M
Boys,74.84,14,Dominique Allen,Daingerfield,74.84,129.27,86.18,158.76,374.21,Single-ply,SBD,M
Boys,74.84,15,Jacob Dannenburg,Hawkins,68.13,124.74,92.99,140.61,358.34,Single-ply,SBD,M
Boys,74.84,16,Nick Dunn #2,Hawkins,72.57,115.67,74.84,136.08,326.59,Single-ply,SBD,M
Boys,89.81,1,Grant Russell,Emory Rains,82.33,188.24,120.2,265.35,573.79,Single-ply,SBD,M
Boys,82.1,2,Abdul Khalaf,Sunnyvale,80.01,217.72,131.54,197.31,546.58,Single-ply,SBD,M
Boys,82.1,3,Ryan Moss,Sunnyvale,78.47,181.44,97.52,188.24,467.2,Single-ply,SBD,M
Boys,82.1,4,Grayson Aduddel,Canton,78.93,151.95,113.4,167.83,433.18,Single-ply,SBD,M
Boys,82.1,5,Tony Ramirez,Commerce,79.83,163.29,90.72,172.37,426.38,Single-ply,SBD,M
Boys,82.1,6,Caleb Beard,Sunnyvale,79.92,154.22,97.52,161.03,412.77,Single-ply,SBD,M
Boys,82.1,7,Alex Gamez,Sulphur Springs,76.75,158.76,77.11,161.03,396.89,Single-ply,SBD,M
Boys,82.1,8,Micah Brantley,Gladewater Union Grove,77.56,136.08,90.72,156.49,383.29,Single-ply,SBD,M
Boys,82.1,9,Dillon Jarvis,Gladewater Union Grove,80.83,124.74,97.52,151.95,374.21,Single-ply,SBD,M
Boys,82.1,DQ,Justin Taylor,Daingerfield,77.93,145.15,,,,Single-ply,SBD,M
Boys,89.81,1,Isaiah Martinez,Commerce,88,249.48,163.29,235.87,648.64,Single-ply,SBD,M
Boys,89.81,2,Jarod Loftis,Royse City,89.54,249.48,129.27,242.67,621.42,Single-ply,SBD,M
Boys,89.81,3,Thomas Johnson,Royse City,89.54,249.48,138.35,204.12,591.94,Single-ply,SBD,M
Boys,99.79,4,Joel Dunn,Royse City,89.9,240.4,131.54,183.7,555.65,Single-ply,SBD,M
Boys,89.81,5,Logan Thompson,Canton,88.72,197.31,122.47,183.7,503.49,Single-ply,SBD,M
Boys,89.81,6,Elijah Huntig,Royse City,88.36,190.51,129.27,181.44,501.22,Single-ply,SBD,M
Boys,89.81,7,Cole Harwell,Hawkins,87.09,197.31,115.67,167.83,480.81,Single-ply,SBD,M
Boys,89.81,8,Kenneth Whitley,Hawkins,83.19,181.44,97.52,165.56,444.52,Single-ply,SBD,M
Boys,89.81,9,Dalton Thompson,Quitman,89.81,163.29,97.52,167.83,428.64,Single-ply,SBD,M
Boys,89.81,10,Yazen Mahmoud,Sunnyvale,87.36,158.76,86.18,167.83,412.77,Single-ply,SBD,M
Boys,89.81,11,Brandon Ramirez,Commerce,88,142.88,90.72,142.88,376.48,Single-ply,SBD,M
Boys,99.79,1,Colton Defur,Hawkins,94.89,204.12,106.59,176.9,487.61,Single-ply,SBD,M
Boys,99.79,2,Tylor Libby,Cumby,93.35,167.83,104.33,174.63,446.79,Single-ply,SBD,M
Boys,99.79,3,Matt Coker,Caddo Mills,94.44,136.08,113.4,176.9,426.38,Single-ply,SBD,M
Boys,109.77,1,Andrew Hughes,Royse City,105.05,215.46,174.63,190.51,580.6,Single-ply,SBD,M
Boys,109.77,2,Tyran Wilson,Commerce,101.6,188.24,133.81,217.72,539.77,Single-ply,SBD,M
Boys,109.77,3,Jose Reyes,Royse City,109.77,231.33,142.88,154.22,528.44,Single-ply,SBD,M
Boys,109.77,4,James Evans,Cumby,104.33,201.85,131.54,185.97,519.36,Single-ply,SBD,M
Boys,109.77,5,Seth Harred,Sulphur Springs,106.05,190.51,129.27,183.7,503.49,Single-ply,SBD,M
Boys,124.74,6,Luke Hooten,Emory Rains,110,226.8,99.79,163.29,489.88,Single-ply,SBD,M
Boys,109.77,7,Michael Sheveland,Sunnyvale,103.87,167.83,113.4,183.7,464.93,Single-ply,SBD,M
Boys,109.77,8,Alex Belteton,Royse City,104.24,192.78,102.06,165.56,460.4,Single-ply,SBD,M
Boys,109.77,9,Zach Gray,Wills Point,107.05,185.97,113.4,149.69,449.06,Single-ply,SBD,M
Boys,109.77,10,Collin Ferrell,Gladewater Union Grove,105.51,151.95,102.06,181.44,435.45,Single-ply,SBD,M
Boys,124.74,1,Cortez Crosby,Commerce,123.38,312.98,154.22,285.76,752.96,Single-ply,SBD,M
Boys,124.74,2,Ke'Adric Nelson,Canton,112.94,267.62,115.67,226.8,610.08,Single-ply,SBD,M
Boys,124.74,3,Heath Howard,Sulphur Springs,112.58,204.12,151.95,215.46,571.53,Single-ply,SBD,M
Boys,124.74,4,Glen Goode,Cumby,114.58,217.72,131.54,204.12,553.38,Single-ply,SBD,M
Boys,124.74,5,Landon Watkins,Sulphur Springs,119.93,204.12,145.15,195.04,544.31,Single-ply,SBD,M
Boys,124.74,6,Wade Cookston,Sunnyvale,118.21,176.9,122.47,181.44,480.81,Single-ply,SBD,M
Boys,124.74,DQ,Nichelas Blain,Caddo Mills,122.02,235.87,,,,Single-ply,SBD,M
Boys,124.74+,1,Jesse Luna,Wills Point,149.59,229.06,108.86,185.97,523.9,Single-ply,SBD,M
Boys,124.74+,2,Jess Jenkins,Sulphur Springs,131.45,190.51,113.4,199.58,503.49,Single-ply,SBD,M
Boys,124.74+,3,Willie Evans,Daingerfield,171.46,170.1,124.74,192.78,487.61,Single-ply,SBD,M
Boys,124.74+,4,Keenan Ivory,Canton,150.32,226.8,86.18,165.56,478.54,Single-ply,SBD,M
Boys,124.74+,DQ,Keithon Walker,Daingerfield,132.9,170.1,,,,Single-ply,SBD,M
