Tested,Equipment,Place,Name,Division,BirthYear,Country,BodyweightKg,Bench1Kg,Bench2Kg,Bench3Kg,Best3BenchKg,Bench4Kg,WeightClassKg,Sex,CyrillicName,Event,TotalKg
Yes,Raw,1,Svetlana Mikhaylova,Amateur Juniors 20-23,1990,Russia,46.6,40,45,47.5,47.5,,48,F,Светлана Михайлова,B,47.5
Yes,Raw,1,Evgeniya Kruglova,Amateur Open,1988,Russia,47.7,47.5,-52.5,-52.5,47.5,,48,F,Евгения Круглова,B,47.5
Yes,Raw,2,Natalya Royanova,Amateur Open,1979,Russia,48,40,-45,45,45,,48,F,Наталья Роянова,B,45
Yes,Raw,DQ,Kristina Shapoval,Amateur Open,1986,Russia,47.9,-30,-30,,,,48,F,Кристина Шаповал,B,
Yes,Raw,DQ,Mariya Vyzyy,Amateur Teen 18-19,1993,Russia,50.1,-55,-57.5,-57.5,,,52,F,Мария Вызый,B,
Yes,Raw,1,Natalya Blinkova,Amateur Juniors 20-23,1991,Russia,51.1,60,65,67.5,67.5,,52,F,Наталья Блинкова,B,67.5
Yes,Raw,2,Anastasiya Pletneva,Amateur Juniors 20-23,1992,Russia,52,40,45,-50,45,,52,F,Анастасия Плетнева,B,45
Yes,Raw,1,Elena Anikovskaya,Amateur Open,1986,Russia,48.8,55,57.5,60,60,,52,F,Елена Аниковская,B,60
Yes,Raw,2,Marina Gorikova,Amateur Open,1983,Russia,50.5,60,-62.5,-62.5,60,,52,F,Марина Горикова,B,60
Yes,Raw,3,Lyudmila Mikhaleva,Amateur Open,1979,Russia,51.6,52.5,-55,-55,52.5,,52,F,Людмила Михалева,B,52.5
Yes,Raw,1,Kristina Chudnova,Amateur Teen 18-19,1994,Russia,54.8,40,-45,-47.5,40,,56,F,Кристина Чуднова,B,40
Yes,Raw,1,Yuliya Arsentyeva,Amateur Juniors 20-23,1990,Russia,53,50,-55,-55,50,,56,F,Юлия Арсентьева,B,50
Yes,Raw,2,Nina Chufarova,Amateur Juniors 20-23,1989,Russia,55,42.5,-45,-45,42.5,,56,F,Нина Чуфарова,B,42.5
Yes,Raw,1,Yuliya Tarasova,Amateur Open,1973,Russia,56,70,72.5,75,75,,56,F,Юлия Тарасова,B,75
Yes,Raw,2,Natalya Zorina,Amateur Open,1970,Russia,55.2,62.5,-67.5,70,70,,56,F,Наталья Зорина,B,70
Yes,Raw,3,Evgeniya Kovalenko,Amateur Open,1982,Russia,53.2,-62.5,-62.5,62.5,62.5,,56,F,Евгения Коваленко,B,62.5
Yes,Raw,4,Ekaterina Ilinskaya,Amateur Open,1988,Russia,54.7,60,62.5,-65,62.5,,56,F,Екатерина Ильинская,B,62.5
Yes,Raw,DQ,Polina Klimova,Amateur Open,1977,Russia,55.7,-57.5,-57.5,-57.5,,,56,F,Полина Климова,B,
Yes,Raw,1,Natalya Zorina,Amateur Masters 40-44,1970,Russia,55.2,62.5,-67.5,70,70,,56,F,Наталья Зорина,B,70
Yes,Raw,2,Elena Evdokimova,Amateur Masters 40-44,1970,Russia,55.1,37.5,40,-42.5,40,,56,F,Елена Евдокимова,B,40
Yes,Raw,1,Galina Kondratyeva,Amateur Masters 60-64,1952,Russia,54.2,40,42.5,45,45,,56,F,Галина Кондратьева,B,45
Yes,Raw,1,Polina Biryukova,Amateur Teen 16-17,1996,Russia,59,60,62.5,-65,62.5,,60,F,Полина Бирюкова,B,62.5
Yes,Raw,DQ,Anastasiya Guseva,Amateur Juniors 20-23,1990,Russia,59.2,-40,,,,,60,F,Анастасия Гусева,B,
Yes,Raw,1,Nadezhda Vlasova,Amateur Open,1982,Russia,59.6,85,90,92.5,92.5,,60,F,Надежда Власова,B,92.5
Yes,Raw,2,Nataliya Zagrebina,Amateur Open,1977,Russia,60,65,67.5,70,70,,60,F,Наталия Загребина,B,70
Yes,Raw,3,Mariya Rezvykh,Amateur Open,1985,Russia,59.8,60,65,-67.5,65,,60,F,Мария Резвых,B,65
Yes,Raw,4,Elena Podorozhnaya,Amateur Open,1989,Russia,58.2,55,60,-62.5,60,,60,F,Елена Подорожная,B,60
Yes,Raw,5,Olga Yaroslavtseva,Amateur Open,1986,Russia,57.6,47.5,-52.5,,47.5,,60,F,Ольга Ярославцева,B,47.5
Yes,Raw,6,Ekaterina Korotkova,Amateur Open,1988,Russia,59.9,-40,-40,40,40,,60,F,Екатерина Короткова,B,40
Yes,Raw,1,Zoya Timofeeva,Amateur Open,1982,Russia,64,35,-40,-45,35,,67.5,F,Зоя Тимофеева,B,35
Yes,Raw,1,Mariya Semchagova,Amateur Open,1982,Russia,69.9,-60,60,-65,60,,75,F,Мария Семчагова,B,60
Yes,Raw,1,Ivan Solomichev,Amateur Open,1999,Russia,50,50,52.5,-57.5,52.5,,52,M,Иван Соломичев,B,52.5
Yes,Raw,DQ,Sergey Kotlyarov,Amateur Teen 16-17,1996,Russia,59,-90,-95,-95,,,60,M,Сергей Котляров,B,
Yes,Raw,1,Artem Abramkin,Amateur Teen 18-19,1993,Russia,59,97.5,105,-107.5,105,,60,M,Артем Абрамкин,B,105
Yes,Raw,1,Anton Kiryanov,Amateur Juniors 20-23,1989,Russia,58.8,100,107.5,112.5,112.5,,60,M,Антон Кирьянов,B,112.5
Yes,Raw,2,Nikita Fetisov,Amateur Juniors 20-23,1993,Russia,59.5,65,72.5,77.5,77.5,,60,M,Никита Фетисов,B,77.5
Yes,Raw,1,Sergey Fedulov,Amateur Open,1988,Russia,57.3,100,112.5,115,115,,60,M,Сергей Федулов,B,115
Yes,Raw,2,Vadim Kryuchkov,Amateur Open,1985,Russia,59,97.5,-102.5,-105,97.5,,60,M,Вадим Крючков,B,97.5
Yes,Raw,3,Denis Gavrilov,Amateur Open,1989,Russia,58.8,77.5,-87.5,-87.5,77.5,,60,M,Денис Гаврилов,B,77.5
Yes,Raw,DQ,Andrey Panov,Amateur Open,1976,Russia,59.5,-95,-95,-95,,,60,M,Андрей Панов,B,
Yes,Raw,1,Dmitriy Kabashov,Amateur Teen 16-17,1996,Russia,64.5,80,-90,-90,80,,67.5,M,Дмитрий Кабашов,B,80
Yes,Raw,1,Aleksandr Britkin,Amateur Teen 18-19,1993,Russia,66.8,-105,-107.5,107.5,107.5,,67.5,M,Александр Бриткин,B,107.5
Yes,Raw,DQ,Nikita Bobrov,Amateur Teen 18-19,1994,Russia,61.5,-90,-90,-90,,,67.5,M,Никита Бобров,B,
Yes,Raw,DQ,Aleksandr Dyakov,Amateur Teen 18-19,1994,Russia,66.8,-117.5,-120,-120,,,67.5,M,Александр Дьяков,B,
Yes,Raw,1,Andrey Dezhin,Amateur Juniors 20-23,1992,Russia,67.1,117.5,120,-125,120,,67.5,M,Андрей Дежин,B,120
Yes,Raw,1,Vladislav Ataev,Amateur Open,1980,Russia,66.4,130,-140,-140,130,,67.5,M,Владислав Атаев,B,130
Yes,Raw,2,Nikita Vasilyev,Amateur Open,1987,Russia,66.4,-120,125,-132.5,125,,67.5,M,Никита Васильев,B,125
Yes,Raw,3,Dmitriy Kapitulskiy,Amateur Open,1989,Russia,66.1,-120,120,-125,120,,67.5,M,Дмитрий Капитульский,B,120
Yes,Raw,4,Aleksey Semchenko,Amateur Open,1988,Russia,62.5,-97.5,97.5,107.5,107.5,,67.5,M,Алексей Семченко,B,107.5
Yes,Raw,5,Georgiy Maltabar,Amateur Open,1987,Russia,67.5,100,-107.5,-107.5,100,,67.5,M,Георгий Малтабар,B,100
Yes,Raw,6,Roman Mikheenkov,Amateur Open,1982,Russia,62.5,-97.5,-97.5,97.5,97.5,,67.5,M,,B,97.5
Yes,Raw,DQ,Roman Dubinkin,Amateur Open,1987,Russia,66.5,-125,-125,,,,67.5,M,Роман Дубинкин,B,
Yes,Raw,1,Dmitriy Kovalenko,Amateur Masters 40-44,1972,Russia,66,70,72.5,75,75,,67.5,M,Дмитрий Коваленко,B,75
Yes,Raw,1,Nikolay Obukhov,Amateur Masters 60-64,1953,Russia,66.4,85,-95,-100,85,,67.5,M,Николай Обухов,B,85
Yes,Raw,1,Daniil Krivoshein,Amateur Teen 16-17,1995,Russia,73.5,120,125,-130,125,,75,M,Даниил Кривошеин,B,125
Yes,Raw,2,Ilya Levakov,Amateur Teen 16-17,1997,Russia,73,120,-135,-135,120,,75,M,Илья Леваков,B,120
Yes,Raw,3,Dmitriy Zagrebin,Amateur Teen 16-17,1996,Russia,74.5,100,110,112.5,112.5,,75,M,Дмитрий Загребин,B,112.5
Yes,Raw,4,Dmitriy Kuzin,Amateur Teen 16-17,1995,Russia,72.9,-105,110,-117.5,110,,75,M,Дмитрий Кузин,B,110
Yes,Raw,5,Ruben Kazaryan,Amateur Teen 16-17,1995,Russia,74,-100,100,-107.5,100,,75,M,Рубен Казарян,B,100
Yes,Raw,6,Kevin Kuznetsov,Amateur Teen 16-17,1996,Russia,70,-95,95,-100,95,,75,M,Кевин Кузнецов,B,95
Yes,Raw,1,Dmitriy Dzhus,Amateur Teen 18-19,1995,Russia,70.6,117.5,122.5,-125,122.5,,75,M,Дмитрий Джус,B,122.5
Yes,Raw,2,Setrak Abraamyan,Amateur Teen 18-19,1994,Russia,68.7,-117.5,-117.5,117.5,117.5,,75,M,Сетрак Абраамян,B,117.5
Yes,Raw,3,Pavel Podkovyrov,Amateur Teen 18-19,1994,Russia,72.5,90,97.5,105,105,,75,M,Павел Подковыров,B,105
Yes,Raw,DQ,Ruslan Choloyan,Amateur Teen 18-19,1995,Russia,74,-105,-117.5,-117.5,,,75,M,Руслан Чолоян,B,
Yes,Raw,1,Anton Altukhov,Amateur Juniors 20-23,1991,Russia,74.8,140,147.5,152.5,152.5,,75,M,Антон Алтухов,B,152.5
Yes,Raw,2,Aleksey Zhizhin,Amateur Juniors 20-23,1992,Russia,72.8,125,130,-135,130,,75,M,Алексей Жижин,B,130
Yes,Raw,3,Aleksey Obydennykh,Amateur Juniors 20-23,1990,Russia,72.2,120,-125,125,125,,75,M,Алексей Обыденных,B,125
Yes,Raw,4,Nikita Korolev,Amateur Juniors 20-23,1989,Russia,72.3,120,125,-130,125,,75,M,Никита Королев,B,125
Yes,Raw,5,Pavel Ivanov,Amateur Juniors 20-23,1991,Russia,69.7,105,110,112.5,112.5,,75,M,Павел Иванов,B,112.5
Yes,Raw,6,Artem Dmitriev,Amateur Juniors 20-23,1992,Russia,74.3,105,112.5,-117.5,112.5,,75,M,Артем Дмитриев,B,112.5
Yes,Raw,7,Sergey Afanasyev,Amateur Juniors 20-23,1991,Russia,73.6,107.5,-112.5,-112.5,107.5,,75,M,Сергей Афанасьев,B,107.5
Yes,Raw,8,Denis Kosykh,Amateur Juniors 20-23,1991,Russia,73.6,100,105,-110,105,,75,M,Денис Косых,B,105
Yes,Raw,1,Andrey Petrov,Amateur Open,1979,Russia,72.8,-147.5,147.5,-152.5,147.5,,75,M,Андрей Петров,B,147.5
Yes,Raw,2,Aleksey Yushin,Amateur Open,1982,Russia,72.7,135,140,145,145,,75,M,Алексей Юшин,B,145
Yes,Raw,3,Aleksey Solovyev #2,Amateur Open,1988,Russia,73.1,135,145,-150,145,,75,M,Алексей Соловьев,B,145
Yes,Raw,4,Yuriy Altunyan,Amateur Open,1983,Russia,73.2,-135,135,-137.5,135,,75,M,Юрий Алтунян,B,135
Yes,Raw,5,Aleksey Klyushin,Amateur Open,1981,Russia,72.5,125,127.5,130,130,,75,M,Алексей Клюшин,B,130
Yes,Raw,6,Timur Tlekhas,Amateur Open,1989,Russia,71.3,112.5,117.5,127.5,127.5,,75,M,Тимур Тлехас,B,127.5
Yes,Raw,7,Aleksandr Zaytsev,Amateur Open,1987,Russia,74.5,127.5,-135,-135,127.5,,75,M,Александр Зайцев,B,127.5
Yes,Raw,8,Aleksey Kulikov,Amateur Open,1985,Russia,71.8,120,-127.5,-127.5,120,,75,M,Алексей Куликов,B,120
Yes,Raw,9,Evgeniy Alimov,Amateur Open,1989,Russia,73.3,117.5,120,-122.5,120,,75,M,Евгений Алимов,B,120
Yes,Raw,10,Vyacheslav Emelyanov,Amateur Open,1985,Russia,73.4,110,117.5,120,120,,75,M,Вячеслав Емельянов,B,120
Yes,Raw,11,Aleksandr Chapar,Amateur Open,1988,Russia,75,110,-117.5,117.5,117.5,,75,M,Александр Чапар,B,117.5
Yes,Raw,12,Dmitriy Petrov,Amateur Open,1976,Russia,73.3,105,-117.5,-117.5,105,,75,M,Дмитрий Петров,B,105
Yes,Raw,13,Aleksey Fursov,Amateur Open,1987,Russia,73.5,80,-100,-100,80,,75,M,Алексей Фурсов,B,80
Yes,Raw,DQ,Maksim Vinogradov,Amateur Open,1985,Russia,74.2,-117.5,-117.5,-117.5,,,75,M,Максим Виноградов,B,
Yes,Raw,DQ,Viktor Arapov,Amateur Open,1987,Russia,74.5,-130,-130,-135,,,75,M,Виктор Арапов,B,
Yes,Raw,DQ,Aleksandr Bolshunov,Amateur Open,1980,Russia,74.5,-120,-120,-120,,,75,M,Александр Большунов,B,
Yes,Raw,1,Gennadiy Nesterov,Amateur Masters 40-44,1970,Russia,71.8,100,110,117.5,117.5,,75,M,Геннадий Нестеров,B,117.5
Yes,Raw,2,Nikolay Lysenkov,Amateur Masters 40-44,1973,Russia,71.6,105,-112.5,-112.5,105,,75,M,Николай Лысенков,B,105
Yes,Raw,1,Vladimir Ermokhin,Amateur Masters 50-54,1961,Russia,72.8,90,95,-100,95,,75,M,Владимир Ермохин,B,95
Yes,Raw,1,Viktor Ovsyanyy,Amateur Masters 55-59,1958,Russia,74.8,110,115,120,120,,75,M,Виктор Овсяный,B,120
Yes,Raw,1,German Barabanov,Amateur Masters 70-74,1940,Russia,74.5,115,117.5,120,120,-122.5,75,M,Герман Барабанов,B,120
Yes,Raw,1,Arseniy Fedorov,Amateur Teen 16-17,1997,Russia,81.3,130,137.5,-142.5,137.5,,82.5,M,Арсений Федоров,B,137.5
Yes,Raw,2,Nikita Chernomyrdin,Amateur Teen 16-17,1997,Russia,78.6,127.5,135,-142.5,135,,82.5,M,Никита Черномырдин,B,135
Yes,Raw,3,Aleksey Kozhevnikov,Amateur Teen 16-17,1996,Russia,80,95,100,105,105,,82.5,M,Алексей Кожевников,B,105
Yes,Raw,1,Vladislav Popov,Amateur Teen 18-19,1993,Russia,80.3,127.5,135,-145,135,,82.5,M,Владислав Попов,B,135
Yes,Raw,2,Dmitriy Runov,Amateur Teen 18-19,1993,Russia,82,-115,115,-127.5,115,,82.5,M,Дмитрий Рунов,B,115
Yes,Raw,1,Ivan Sorokin,Amateur Juniors 20-23,1990,Russia,81.2,145,150,155,155,,82.5,M,Иван Сорокин,B,155
Yes,Raw,2,Dmitriy Sevostyanov,Amateur Juniors 20-23,1989,Russia,82.1,-150,-155,155,155,,82.5,M,Дмитрий Севостьянов,B,155
Yes,Raw,3,Sergey Kokorev,Amateur Juniors 20-23,1990,Russia,79.9,140,145,150,150,,82.5,M,Сергей Кокорев,B,150
Yes,Raw,4,Pavel Fokin,Amateur Juniors 20-23,1992,Russia,81,-127.5,127.5,135,135,,82.5,M,Павел Фокин,B,135
Yes,Raw,5,Roman Malafeev,Amateur Juniors 20-23,1990,Russia,79,130,-135,-135,130,,82.5,M,Роман Малафеев,B,130
Yes,Raw,6,Maksim Lukyanov,Amateur Juniors 20-23,1991,Russia,80.2,-125,125,127.5,127.5,,82.5,M,Максим Лукьянов,B,127.5
Yes,Raw,7,Georgiy Sharangiya,Amateur Juniors 20-23,1992,Russia,80.4,122.5,127.5,-132.5,127.5,,82.5,M,Георгий Шарангия,B,127.5
Yes,Raw,8,Aleksey Almazov,Amateur Juniors 20-23,1990,Russia,79,90,95,-102.5,95,,82.5,M,Алексей Алмазов,B,95
Yes,Raw,1,Yuriy Shagaev,Amateur Open,1978,Russia,78.7,150,155,160,160,,82.5,M,Юрий Шагаев,B,160
Yes,Raw,2,Mikhail Bazyukin,Amateur Open,1982,Russia,81,155,160,-165,160,,82.5,M,Михаил Базюкин,B,160
Yes,Raw,3,Vladislav Girko,Amateur Open,1987,Russia,81,145,152.5,-157.5,152.5,,82.5,M,Владислав Гирко,B,152.5
Yes,Raw,4,Roman Ilyukhin,Amateur Open,1989,Russia,77.8,135,145,147.5,147.5,,82.5,M,Роман Илюхин,B,147.5
Yes,Raw,5,Maksim Svetlov,Amateur Open,1985,Russia,76.3,135,145,-150,145,,82.5,M,Максим Светлов,B,145
Yes,Raw,6,Denis Anosov,Amateur Open,1984,Russia,79.9,145,,,145,,82.5,M,Денис Аносов,B,145
Yes,Raw,7,Aleksandr Kandalov,Amateur Open,1982,Russia,80.3,135,-145,145,145,,82.5,M,Александр Кандалов,B,145
Yes,Raw,8,Sergey Gorban,Amateur Open,1988,Russia,81,140,145,-155,145,,82.5,M,Сергей Горбань,B,145
Yes,Raw,9,Dmitriy Lyanguzov,Amateur Open,1988,Russia,80,135,-145,-145,135,,82.5,M,Дмитрий Лянгузов,B,135
Yes,Raw,10,Anatoliy Makarov,Amateur Open,1988,Russia,80.2,127.5,130,135,135,,82.5,M,Анатолий Макаров,B,135
Yes,Raw,11,Denis Saburov,Amateur Open,1985,Russia,81.9,135,-145,-145,135,,82.5,M,Денис Сабуров,B,135
Yes,Raw,12,Andrey Kolchenogov,Amateur Open,1985,Russia,82.2,127.5,132.5,-135,132.5,,82.5,M,Андрей Колченогов,B,132.5
Yes,Raw,13,Nikolay Lyude,Amateur Open,1987,Russia,80.1,130,-145,-145,130,,82.5,M,Николай Людэ,B,130
Yes,Raw,14,Sergey Korolev,Amateur Open,1972,Russia,80.5,127.5,-145,-145,127.5,,82.5,M,Сергей Королев,B,127.5
Yes,Raw,15,Ivan Pavlov,Amateur Open,1984,Russia,81,-127.5,-127.5,127.5,127.5,,82.5,M,Иван Павлов,B,127.5
Yes,Raw,16,Aleksandr Bereznev,Amateur Open,1984,Russia,81.2,115,-125,-125,115,,82.5,M,Александр Березнев,B,115
Yes,Raw,DQ,Mikhail Kulikov,Amateur Open,1987,Russia,81,-155,-165,-165,,,82.5,M,Михаил Куликов,B,
Yes,Raw,DQ,Dmitriy Popov,Amateur Open,1981,Russia,81.1,-135,-145,-145,,,82.5,M,Дмитрий Попов,B,
Yes,Raw,1,Roman Gorshkov,Amateur Masters 40-44,1970,Russia,82.5,110,115,117.5,117.5,,82.5,M,Роман Горшков,B,117.5
Yes,Raw,1,Alexander Vorobyev,Amateur Masters 45-49,1967,Russia,81.2,145,150,155,155,,82.5,M,Александр Воробьев,B,155
Yes,Raw,1,Vladyslav Ilmatov,Amateur Masters 50-54,1963,Ukraine,81.5,-120,122.5,127.5,127.5,,82.5,M,Владислав Ільматов,B,127.5
Yes,Raw,1,Vasiliy Mosin,Amateur Masters 55-59,1956,Russia,81.4,132.5,-145,-145,132.5,,82.5,M,Василий Мосин,B,132.5
Yes,Raw,2,Vladimir Kulakov,Amateur Masters 55-59,1955,Russia,79.4,87.5,95,,95,,82.5,M,Владимир Кулаков,B,95
Yes,Raw,1,Sergey Goncharov,Amateur Masters 60-64,1952,Russia,81,120,-140,-140,120,,82.5,M,Сергей Гончаров,B,120
Yes,Raw,1,Boris Grachev,Amateur Masters 65-69,1945,Russia,80,105,110,112.5,112.5,,82.5,M,Борис Грачев,B,112.5
Yes,Raw,2,Evgeniy Zhurkin,Amateur Masters 65-69,1945,Russia,81.4,85,90,95,95,,82.5,M,Евгений Журкин,B,95
Yes,Raw,1,Aleksandr Bukharin,Amateur Teen 13-15,1999,Russia,85.7,125,130,132.5,132.5,,90,M,Александр Бухарин,B,132.5
Yes,Raw,1,Artem Logunov,Amateur Juniors 20-23,1991,Russia,89.9,165,175,180,180,,90,M,Артем Логунов,B,180
Yes,Raw,2,Denis Tkachenko,Amateur Juniors 20-23,1990,Russia,87,170,-175,-175,170,,90,M,Денис Ткаченко,B,170
Yes,Raw,3,Dmitriy Pavlov,Amateur Juniors 20-23,1991,Russia,87.4,165,170,,170,,90,M,Дмитрий Павлов,B,170
Yes,Raw,4,Aleksandr Sofronov,Amateur Juniors 20-23,1989,Russia,88.5,-152.5,152.5,-160,152.5,,90,M,Александр Софронов,B,152.5
Yes,Raw,5,Oleg Kultin,Amateur Juniors 20-23,1992,Russia,89.5,152.5,-157.5,-157.5,152.5,,90,M,Олег Культин,B,152.5
Yes,Raw,6,Mikhail Nekholin,Amateur Juniors 20-23,1992,Russia,89.9,152.5,-167.5,-170,152.5,,90,M,Михаил Нехолин,B,152.5
Yes,Raw,7,Nikolay Goryaynov,Amateur Juniors 20-23,1989,Russia,90,145,150,-152.5,150,,90,M,Николай Горяйнов,B,150
Yes,Raw,8,Dmitriy Astafyev,Amateur Juniors 20-23,1993,Russia,84.5,122.5,127.5,-132.5,127.5,,90,M,Дмитрий Астафьев,B,127.5
Yes,Raw,9,Nikita Bredov,Amateur Juniors 20-23,1990,Russia,85.4,-122.5,122.5,-132.5,122.5,,90,M,Никита Бредов,B,122.5
Yes,Raw,DQ,Andrey Sokolovskiy,Amateur Juniors 20-23,1990,Russia,84.4,-132.5,-132.5,-132.5,,,90,M,Андрей Соколовский,B,
Yes,Raw,1,Maksim Matveyev,Amateur Open,1981,Russia,88.2,190,200,-210,200,,90,M,Максим Матвеев,B,200
Yes,Raw,2,Anton Orlov,Amateur Open,1984,Russia,88,170,175,-180,175,,90,M,Антон Орлов,B,175
Yes,Raw,3,Aleksey Maksyagin,Amateur Open,1982,Russia,88,162.5,170,-172.5,170,,90,M,Алексей Максягин,B,170
Yes,Raw,4,Aleksandr Petrov,Amateur Open,1986,Russia,87.2,152.5,157.5,-162.5,157.5,,90,M,Александр Петров,B,157.5
Yes,Raw,5,Sergei Zaytsev,Amateur Open,1986,,89.9,-130,145,155,155,,90,M,,B,155
Yes,Raw,6,Evgeniy Sapkov,Amateur Open,1988,Russia,88.1,135,145,152.5,152.5,,90,M,Евгений Сапков,B,152.5
Yes,Raw,7,Boris Apanasevich,Amateur Open,1982,Russia,88.2,-152.5,152.5,-157.5,152.5,,90,M,Борис Апанасевич,B,152.5
Yes,Raw,8,Dmitriy Sedov #4,Amateur Open,1982,Russia,88.9,140,-147.5,152.5,152.5,,90,M,Дмитрий Седов,B,152.5
Yes,Raw,9,Aleksey Pustovoytov,Amateur Open,1984,Russia,87.9,150,-155,,150,,90,M,Алексей Пустовойтов,B,150
Yes,Raw,10,Dmitriy Koldar,Amateur Open,1986,Russia,88.3,132.5,142.5,,142.5,,90,M,Дмитрий Колдарь,B,142.5
Yes,Raw,11,Aleksandr Lebedev,Amateur Open,1986,Russia,89.1,-127.5,135,140,140,,90,M,Александр Лебедев,B,140
Yes,Raw,12,Aleksandr Yugov,Amateur Open,1980,Russia,85.9,125,132.5,137.5,137.5,,90,M,Александр Югов,B,137.5
Yes,Raw,13,Aleksey Kalinin,Amateur Open,1977,Russia,87,125,-132.5,132.5,132.5,,90,M,Алексей Калинин,B,132.5
Yes,Raw,14,Kirill Emelyanov,Amateur Open,1986,Russia,88.3,-125,125,-130,125,,90,M,Кирилл Емельянов,B,125
Yes,Raw,15,Denis Lobanov,Amateur Open,1986,Russia,88.5,125,-132.5,-132.5,125,,90,M,Денис Лобанов,B,125
Yes,Raw,DQ,Anton Yakovlev,Amateur Open,1987,Russia,87.4,-145,-145,-145,,,90,M,Антон Яковлев,B,
Yes,Raw,1,Igor Shinov,Amateur Masters 40-44,1970,Russia,89.5,152.5,157.5,162.5,162.5,,90,M,Игорь Шинов,B,162.5
Yes,Raw,2,Sergey Yarochkin,Amateur Masters 40-44,1971,Russia,87.8,145,152.5,157.5,157.5,,90,M,Сергей Ярочкин,B,157.5
Yes,Raw,3,Igor Zakharov,Amateur Masters 40-44,1969,Russia,88.6,-132.5,132.5,140,140,,90,M,Игорь Захаров,B,140
Yes,Raw,4,Roman Samokhin,Amateur Masters 40-44,1970,Russia,88.3,120,-127.5,132.5,132.5,,90,M,Роман Самохин,B,132.5
Yes,Raw,1,Andrey Zakhartsev,Amateur Masters 45-49,1966,Russia,88.5,135,140,142.5,142.5,,90,M,Андрей Захарцев,B,142.5
Yes,Raw,2,Eduard Vladimirov,Amateur Masters 45-49,1966,Russia,89,125,-130,-130,125,,90,M,Эдуард Владимиров,B,125
Yes,Raw,1,Andrey Salov,Amateur Masters 50-54,1959,Russia,87.9,147.5,155,-157.5,155,,90,M,Андрей Салов,B,155
Yes,Raw,1,Gennadiy Obmelyukhin,Amateur Masters 65-69,1948,Russia,86.7,102.5,107.5,110,110,,90,M,Геннадий Обмелюхин,B,110
Yes,Raw,1,Nikolay Novikov,Amateur Masters 75-79,1938,Russia,89,110,115,117.5,117.5,,90,M,Николай Новиков,B,117.5
Yes,Raw,1,Arman Grigoryan,Amateur Teen 18-19,1994,Russia,92.4,205,-210,-210,205,,100,M,Арман Григорян,B,205
Yes,Raw,2,Oleg Podkopaev,Amateur Teen 18-19,1994,Russia,95.9,115,125,140,140,,100,M,Олег Подкопаев,B,140
Yes,Raw,1,Pavel Fateev,Amateur Juniors 20-23,1990,Russia,93.6,112.5,125,-130,125,,100,M,Павел Фатеев,B,125
Yes,Raw,1,Aleksandr Plaksin,Amateur Open,1987,Russia,98.2,190,200,205,205,,100,M,Александр Плаксин,B,205
Yes,Raw,2,Suleyman Babaev,Amateur Open,1983,Russia,97,-162.5,162.5,165,165,,100,M,Сулейман Бабаев,B,165
Yes,Raw,3,Aleksandr Kabanov,Amateur Open,1980,Russia,98.5,152.5,162.5,-165,162.5,,100,M,Александр Кабанов,B,162.5
Yes,Raw,4,Aleksandr Kololeev,Amateur Open,1982,Russia,99,-150,-162.5,162.5,162.5,,100,M,Александр Кололеев,B,162.5
Yes,Raw,5,Yan Zhurkin,Amateur Open,1985,Russia,99,150,155,-162.5,155,,100,M,Ян Журкин,B,155
Yes,Raw,6,Aleksandr Ovodkov,Amateur Open,1985,Russia,92.1,130,-140,-140,130,,100,M,Александр Оводков,B,130
Yes,Raw,7,Timofey Evseev,Amateur Open,1985,Russia,92.6,130,-140,-140,130,,100,M,Тимофей Евсеев,B,130
Yes,Raw,8,Ruslan Novikov,Amateur Open,1988,Russia,96.8,110,115,117.5,117.5,,100,M,Руслан Новиков,B,117.5
Yes,Raw,9,Artem Turskiy,Amateur Open,1987,Russia,95.6,-112.5,112.5,-140,112.5,,100,M,Артем Турский,B,112.5
Yes,Raw,DQ,Aleksandr Avdeev,Amateur Open,1984,Russia,90.7,-120,-120,-120,,,100,M,Александр Авдеев,B,
Yes,Raw,DQ,Aleksey Maychenkov,Amateur Open,1977,Russia,98,-162.5,-162.5,-162.5,,,100,M,Алексей Майченков,B,
Yes,Raw,DQ,Dmitriy Lifanov,Amateur Open,1988,Russia,99.9,-175,-175,-175,,,100,M,Дмитрий Лифанов,B,
Yes,Raw,1,Artur Novov,Amateur Masters 40-44,1969,Russia,93,165,172.5,177.5,177.5,-186,100,M,Артур Новов,B,177.5
Yes,Raw,2,Sergey Matveev,Amateur Masters 40-44,1973,Russia,96.5,165,-170,-170,165,,100,M,Сергей Матвеев,B,165
Yes,Raw,1,Igor Solomichev,Amateur Masters 45-49,1967,Russia,98.7,152.5,157.5,162.5,162.5,,100,M,Игорь Соломичев,B,162.5
Yes,Raw,1,Leonid Skvortsov,Amateur Masters 50-54,1962,Russia,93.7,162.5,167.5,170,170,,100,M,Леонид Скворцов,B,170
Yes,Raw,2,Roman Makov,Amateur Masters 50-54,1961,Russia,95.5,-95,100,115,115,,100,M,Роман Маков,B,115
Yes,Raw,1,Dmitriy Biryukov,Amateur Juniors 20-23,1991,Russia,107,180,190,195,195,,110,M,Дмитрий Бирюков,B,195
Yes,Raw,2,Ruslan Kulebyakin,Amateur Juniors 20-23,1991,Russia,106.5,160,170,172.5,172.5,,110,M,Руслан Кулебякин,B,172.5
Yes,Raw,3,Vilgem Nakhatakyan,Amateur Juniors 20-23,1992,Russia,104.6,140,147.5,152.5,152.5,,110,M,Вильгем Нахатакян,B,152.5
Yes,Raw,1,Ruslan Ilyukevich,Amateur Open,1983,Belarus,100.8,170,185,-195,185,,110,M,,B,185
Yes,Raw,2,Mikhail Zhuravlev,Amateur Open,1981,Russia,104,170,177.5,-182.5,177.5,,110,M,Михаил Журавлев,B,177.5
Yes,Raw,3,Ivan Regulyarnyy,Amateur Open,1984,Russia,105.5,170,177.5,-187.5,177.5,,110,M,Иван Регулярный,B,177.5
Yes,Raw,4,Ruslan Shatskiy,Amateur Open,1979,Russia,108.3,-165,170,-175,170,,110,M,Руслан Шатский,B,170
Yes,Raw,5,Roman Romanenko,Amateur Open,1983,Russia,102.4,145,150,-152.5,150,,110,M,Роман Романенко,B,150
Yes,Raw,6,Kirill Kharabadze,Amateur Open,1972,Russia,105.4,140,,-147.5,140,,110,M,Кирилл Харабадзе,B,140
Yes,Raw,DQ,Sergey Volkov,Amateur Open,1973,Russia,102.3,-140,,-147.5,,,110,M,Сергей Волков,B,
Yes,Raw,DQ,Denis Grebnev,Amateur Open,1986,Russia,103.4,-240,-240,-240,,,110,M,Денис Гребнев,B,
Yes,Raw,1,Vladimir Kosmachev,Amateur Masters 40-44,1973,Russia,110,170,180,182.5,182.5,,110,M,Владимир Космачев,B,182.5
Yes,Raw,1,Sergey Yudin,Amateur Masters 55-59,1955,Russia,100.1,120,130,135,135,,110,M,Сергей Юдин,B,135
Yes,Raw,1,Vladimir Druker,Amateur Masters 60-64,1950,Russia,109.3,127.5,137.5,140,140,142.5,110,M,Владимир Друкер,B,140
Yes,Raw,1,Petr Zezin,Amateur Juniors 20-23,1989,Russia,122.8,180,-190,-190,180,,125,M,Петр Зезин,B,180
Yes,Raw,1,Igor Golovanov,Amateur Open,1983,Russia,122.5,185,195,197.5,197.5,,125,M,Игорь Голованов,B,197.5
Yes,Raw,2,Andrey Khramtsov,Amateur Open,1984,Russia,118,190,-195,-197.5,190,,125,M,Андрей Храмцов,B,190
Yes,Raw,3,Armen Atoyan,Amateur Open,1983,Russia,110.4,150,160,-175,160,,125,M,Армен Атоян,B,160
Yes,Raw,4,Aleksandr Solovyev,Amateur Open,1977,Russia,114,160,-170,-170,160,,125,M,Александр Соловьев,B,160
Yes,Raw,5,Aleksandr Morozov,Amateur Open,1987,Russia,115,152.5,160,-165,160,,125,M,Александр Морозов,B,160
Yes,Raw,6,Pavel Poroshin,Amateur Open,1989,Russia,116,145,150,-160,150,,125,M,Павел Порошин,B,150
Yes,Raw,DQ,Kirill Rachkov,Amateur Open,1977,Belarus,115,-145,-152.5,-152.5,,,125,M,,B,
Yes,Raw,1,Dmitriy Fadeev,Amateur Masters 40-44,1972,Russia,119.3,180,-190,-190,180,,125,M,Дмитрий Фадеев,B,180
Yes,Raw,DQ,Vladimir Chubarov,Amateur Masters 45-49,1964,Russia,117.3,-150,-150,-150,,,125,M,Владимир Чубаров,B,
Yes,Raw,1,Andrey Shishkin,Amateur Masters 50-54,1962,Russia,112.5,105,125,,125,,125,M,Андрей Шишкин,B,125
Yes,Raw,1,Stanislav Karpov,Amateur Open,1971,Russia,157.8,195,205,210,210,-213,140+,M,Станислав Карпов,B,210
Yes,Raw,2,Roman Mishurenkov,Amateur Open,1982,Russia,141.8,190,200,205,205,-213,140+,M,Роман Мишуренков,B,205
Yes,Raw,3,Konstantin Bogdanov,Amateur Open,1976,Russia,142.1,192.5,200,205,205,-213,140+,M,Константин Богданов,B,205
Yes,Single-ply,DQ,Semen Titorenko,Amateur Teen 16-17,1996,Russia,65.6,-115,-115,-115,,,67.5,M,Семен Титоренко,B,
Yes,Single-ply,1,Andrey Dezhin,Amateur Juniors 20-23,1992,Russia,67.1,125,132.5,140,140,142.5,67.5,M,Андрей Дежин,B,140
Yes,Single-ply,1,Vitaliy Zhukov,Amateur Juniors 20-23,1992,Russia,74.4,150,-160,-160,150,,75,M,Виталий Жуков,B,150
Yes,Single-ply,1,Rail Albikov,Amateur Open,1989,Russia,75,130,135,-140,135,,75,M,Раиль Альбиков,B,135
Yes,Single-ply,1,Andrey Karpov,Amateur Open,1985,Russia,80.8,150,157.5,-162.5,157.5,,82.5,M,Андрей Карпов,B,157.5
Yes,Single-ply,1,Aleksey Moshkov,Amateur Teen 18-19,1993,Russia,88,90,100,110,110,,90,M,Алексей Мошков,B,110
Yes,Single-ply,DQ,Vadim Guberskiy,Amateur Juniors 20-23,1991,Russia,95.8,-195,-205,-205,,,100,M,Вадим Губерский,B,
Yes,Single-ply,1,Pavel Scheglov,Amateur Open,1978,Russia,124.4,220,227.5,235,235,,125,M,Павел Щеглов,B,235
Yes,Single-ply,2,Andrey Drozhzhin,Amateur Open,1977,Russia,115.8,162.5,182.5,,182.5,,125,M,Андрей Дрожжин,B,182.5
Yes,Multi-ply,1,Nataliya Zagrebina,Amateur Open,1977,Russia,60,75,80,85,85,,60,F,Наталия Загребина,B,85
Yes,Multi-ply,1,Semen Titorenko,Amateur Teen 16-17,1996,Russia,65.6,-90,90,102.5,102.5,,67.5,M,Семен Титоренко,B,102.5
Yes,Multi-ply,1,Ilya Fokin,Amateur Open,1982,Russia,73.4,125,137.5,142.5,142.5,,75,M,Илья Фокин,B,142.5
Yes,Multi-ply,1,Konstantin Sapunkov,Amateur Open,1981,Russia,82.5,200,-210,-210,200,,82.5,M,Константин Сапунков,B,200
Yes,Multi-ply,1,Yuri Solovyev,Amateur Open,1974,Russia,100,240,250,253,253,,100,M,Юрий Соловьев,B,253
Yes,Multi-ply,1,Ruslan Kulebyakin,Amateur Juniors 20-23,1991,Russia,106.9,215,225,232.5,232.5,,110,M,Руслан Кулебякин,B,232.5
Yes,Multi-ply,1,Vasiliy Filatov,Amateur Open,1986,Russia,114.5,240,-260,-270,240,,125,M,Василий Филатов,B,240
Yes,Multi-ply,DQ,Aleksey Voronkov,Amateur Open,1989,Russia,119.4,-250,-250,-250,,,125,M,Алексей Воронков,B,
Yes,Multi-ply,DQ,Pavel Scheglov,Amateur Open,1978,Russia,124,-230,-237.5,-237.5,,,125,M,Павел Щеглов,B,
Yes,Multi-ply,DD,Dmitriy Bubnov,Amateur Open,1973,Russia,115,260,280,-300,280,,125,M,Дмитрий Бубнов,B,
No,Raw,1,Nadezhda Pankina,Pro Open,1989,Russia,59.4,55,-62.5,-62.5,55,,60,F,Надежда Панкина,B,55
No,Raw,1,Darya Kogadeeva,Pro Open,1978,Russia,79.7,120,125,-130,125,,82.5,F,Дарья Когадеева,B,125
No,Raw,2,Ekaterina Mamicheva,Pro Open,1979,Russia,76.2,50,60,70,70,,82.5,F,Екатерина Мамичева,B,70
No,Raw,1,Irina Yaroshenko,Pro Open,1986,Russia,98.9,95,105,-110,105,,90+,F,Ирина Ярошенко,B,105
No,Raw,1,Ivan Badin,Pro Teen 16-17,1996,Russia,73,-150,150,-160,150,,75,M,Иван Бадьин,B,150
No,Raw,2,Artur Chopuryan,Pro Teen 16-17,1995,Russia,69.9,95,100,105,105,,75,M,Артур Чопурян,B,105
No,Raw,1,Petr Zabolotniy,Pro Juniors 20-23,1989,Russia,71,-100,100,-110,100,,75,M,Петр Заболотний,B,100
No,Raw,1,Nikolay Petrakovich,Pro Open,1979,Russia,74,122.5,130,-132.5,130,,75,M,Николай Петракович,B,130
No,Raw,2,Valeriy Kovalev,Pro Open,1981,Russia,74.5,-110,115,-120,115,,75,M,Валерий Ковалев,B,115
No,Raw,1,Yuriy Ermolin,Pro Masters 60-64,1952,Russia,71.7,90,100,-102.5,100,,75,M,Юрий Ермолин,B,100
No,Raw,1,Oleg Lyubimov,Pro Juniors 20-23,1991,Russia,80.9,165,172.5,177.5,177.5,,82.5,M,Олег Любимов,B,177.5
No,Raw,2,Vitaliy Kulikov,Pro Juniors 20-23,1990,Russia,79.8,-130,135,140,140,,82.5,M,Виталий Куликов,B,140
No,Raw,3,Vladislav Dolgopolov,Pro Juniors 20-23,1991,Russia,79.1,125,130,-135,130,,82.5,M,Владислав Долгополов,B,130
No,Raw,1,Arseniy Mikhaylenko,Pro Open,1987,Russia,82,162.5,-170,-170,162.5,,82.5,M,Арсений Михайленко,B,162.5
No,Raw,2,Anatoliy Lebedev,Pro Open,1989,Russia,80,150,155,-160,155,,82.5,M,Анатолий Лебедев,B,155
No,Raw,3,Semen Lyubimskiy,Pro Open,1986,Russia,80.2,147.5,152.5,-160,152.5,,82.5,M,Семен Любимский,B,152.5
No,Raw,4,Roman Chernikov,Pro Open,1986,Russia,81.3,120,-132.5,-132.5,120,,82.5,M,Роман Черников,B,120
No,Raw,5,Aleksandr Astakhov,Pro Open,1985,Russia,77.1,90,97.5,102.5,102.5,,82.5,M,Александр Астахов,B,102.5
No,Raw,1,Aleksandr Shilovskiy,Pro Masters 40-44,1971,Russia,81.5,115,120,-127.5,120,,82.5,M,Александр Шиловский,B,120
No,Raw,1,David Arutyunyan,Pro Teen 18-19,1995,Russia,88.4,115,122.5,125,125,,90,M,Давид Арутюнян,B,125
No,Raw,1,Dmitriy Sidorov,Pro Juniors 20-23,1991,Russia,88.5,140,150,-160,150,,90,M,Дмитрий Сидоров,B,150
No,Raw,2,Pavel Khalatov,Pro Juniors 20-23,1990,Russia,89.8,-120,125,-130,125,,90,M,Павел Халатов,B,125
No,Raw,1,Sergey Timchenko,Pro Open,1979,Russia,89,180,185,190,190,,90,M,Сергей Тимченко,B,190
No,Raw,2,Dmitriy Prozorov,Pro Open,1985,Russia,86.8,172.5,180,187.5,187.5,,90,M,Дмитрий Прозоров,B,187.5
No,Raw,3,Aleksey Makeev,Pro Open,1975,Russia,90,170,180,187.5,187.5,,90,M,Алексей Макеев,B,187.5
No,Raw,4,Aleksandr Ivanov,Pro Open,1975,Russia,89.1,165,-180,-180,165,,90,M,Александр Иванов,B,165
No,Raw,5,Kirill Tsaparov,Pro Open,1984,Russia,85.7,145,-157.5,-157.5,145,,90,M,Кирилл Цапаров,B,145
No,Raw,6,Sergey Shtyrlin,Pro Open,1987,Russia,89.7,110,120,127.5,127.5,,90,M,Сергей Штырлин,B,127.5
No,Raw,1,Yuriy Pavlov #1,Pro Masters 40-44,1972,Russia,84.2,150,165,170,170,,90,M,Юрий Павлов,B,170
No,Raw,1,Aleksandr Fedorov,Pro Masters 45-49,1968,Russia,90,162.5,170,-180,170,,90,M,Александр Федоров,B,170
No,Raw,2,Dmitriy Semenov,Pro Masters 45-49,1965,Russia,89,115,125,-130,125,,90,M,Дмитрий Семенов,B,125
No,Raw,1,Nikolay Kostev,Pro Masters 50-54,1959,Russia,86.4,135,145,-160,145,,90,M,Николай Костев,B,145
No,Raw,1,Aleksandr Khmel,Pro Juniors 20-23,1990,Russia,96.9,165,-172.5,,165,,100,M,Александр Хмель,B,165
No,Raw,2,Vitaliy Ryabykh,Pro Juniors 20-23,1992,Russia,99,150,155,160,160,,100,M,Виталий Рябых,B,160
No,Raw,3,Vitaliy Chudaykin,Pro Juniors 20-23,1991,Russia,94.7,150,155,-160,155,,100,M,Виталий Чудайкин,B,155
No,Raw,1,Maksim Galichenkov,Pro Open,1988,Russia,99.7,190,192.5,197.5,197.5,,100,M,Максим Галиченков,B,197.5
No,Raw,2,Evgeniy Arsentyev,Pro Open,1987,Russia,97,180,190,195,195,,100,M,Евгений Арсентьев,B,195
No,Raw,3,Andrey Latyshev,Pro Open,1973,Russia,96.6,190,,,190,,100,M,Андрей Латышев,B,190
No,Raw,4,Valeriy Kuznetsov #3,Pro Open,1983,Russia,97.9,170,190,-195,190,,100,M,Валерій Кузнєцов,B,190
No,Raw,5,Vladimir Syomochkin,Pro Open,1986,Russia,98.7,180,190,-195,190,,100,M,Владимир Сёмочкин,B,190
No,Raw,6,Sergey Khramtsov,Pro Open,1982,Russia,99.2,165,170,-175,170,,100,M,Сергей Храмцов,B,170
No,Raw,1,Andrey Latyshev,Pro Masters 40-44,1973,Russia,96.6,-180,182.5,190,190,,100,M,Андрей Латышев,B,190
No,Raw,2,Boris Karasev,Pro Masters 40-44,1972,Russia,98.3,-180,180,-190,180,,100,M,Борис Карасев,B,180
No,Raw,3,Dmitriy Postnov,Pro Masters 40-44,1971,Russia,94,135,145,152.5,152.5,,100,M,Дмитрий Постнов,B,152.5
No,Raw,1,Aleksandr Pastushenko,Pro Masters 45-49,1966,Russia,95.5,175,180,-185,180,,100,M,Александр Пастушенко,B,180
No,Raw,2,Evgeniy Uskov,Pro Masters 45-49,1964,Russia,92.9,152.5,-157.5,-157.5,152.5,,100,M,Евгений Усков,B,152.5
No,Raw,1,Dmitriy Frank,Pro Teen 18-19,1994,Russia,106.9,-172.5,172.5,-180,172.5,,110,M,Дмитрий Франк,B,172.5
No,Raw,2,Dmitriy Bardanov,Pro Teen 18-19,1994,Russia,106,160,-172.5,-172.5,160,,110,M,Дмитрий Барданов,B,160
No,Raw,1,Vitaliy Omelchenko #1,Pro Juniors 20-23,1990,Russia,104.9,200,210,-215,210,,110,M,Віталій Омельченко,B,210
No,Raw,2,Ilya Panchenko,Pro Juniors 20-23,1992,Russia,106.7,180,190,197.5,197.5,,110,M,Илья Панченко,B,197.5
No,Raw,3,Marat Savosin,Pro Juniors 20-23,1990,Russia,104.6,182.5,190,-197.5,190,,110,M,Марат Савосин,B,190
No,Raw,1,Dmitriy Tenetko,Pro Open,1975,Russia,110,230,245,252.5,252.5,,110,M,Дмитрий Тенетко,B,252.5
No,Raw,2,Ivan Danilenko,Pro Open,1981,Russia,110,235,245,250,250,-253,110,M,Иван Даниленко,B,250
No,Raw,3,Ivan Prokopenko,Pro Open,1983,Russia,107,220,-232.5,-245,220,,110,M,Иван Прокопенко,B,220
No,Raw,4,Ruslan Kachanov,Pro Open,1970,Russia,104.8,215,,,215,,110,M,Руслан Качанов,B,215
No,Raw,5,Aleksey Kovrigin,Pro Open,1975,Russia,105.5,180,185,190,190,,110,M,Алексей Ковригин,B,190
No,Raw,6,Maksim Kirilin,Pro Open,1983,Russia,108.7,135,140,-145,140,,110,M,Максим Кирилин,B,140
No,Raw,1,Ruslan Kachanov,Pro Masters 40-44,1970,Russia,104.8,205,215,-220,215,,110,M,Руслан Качанов,B,215
No,Raw,2,Vitaliy Stolbovoy,Pro Masters 40-44,1973,Russia,109,180,192.5,197.5,197.5,,110,M,Виталий Столбовой,B,197.5
No,Raw,1,Aleksandr Dmitriev,Pro Masters 45-49,1964,Russia,106.5,150,165,-170,165,,110,M,Александр Дмитриев,B,165
No,Raw,1,Viktor Zhbankov,Pro Juniors 20-23,1992,Russia,117,175,185,-195,185,,125,M,Виктор Жбанков,B,185
No,Raw,2,Andrey Aksenov #1,Pro Juniors 20-23,1992,Russia,115.2,182.5,-195,-195,182.5,,125,M,Андрей Аксенов,B,182.5
No,Raw,3,Ilnur Zalyaliev,Pro Juniors 20-23,1991,Russia,117,165,175,180,180,,125,M,Ильнур Залялиев,B,180
No,Raw,1,Ruslan Pustovoy,Pro Open,1979,Russia,111.5,205,212.5,220,220,,125,M,Руслан Пустовой,B,220
No,Raw,2,Aleksandr Chervyakov,Pro Open,1988,Russia,122.6,200,210,212.5,212.5,,125,M,Александр Червяков,B,212.5
No,Raw,3,Nikita Anisimov,Pro Open,1988,Russia,118.9,200,205,-210,205,,125,M,Никита Анисимов,B,205
No,Raw,4,Viktor Krylov,Pro Open,1985,Russia,119,-180,190,200,200,,125,M,Виктор Крылов,B,200
No,Raw,1,Andrey Kovtun,Pro Masters 40-44,1971,Russia,124.2,180,190,195,195,,125,M,Андрей Ковтун,B,195
No,Raw,1,Anatoliy Pauyesov,Pro Masters 60-64,1953,Russia,118.2,155,160,-165,160,,125,M,Анатолий Пауесов,B,160
No,Raw,1,Ilya Shaburov,Pro Juniors 20-23,1990,Russia,134.9,205,215,230,230,,140,M,Илья Шабуров,B,230
No,Raw,2,Roman Tarabrin,Pro Juniors 20-23,1990,Russia,132.4,175,-180,,175,,140,M,Роман Тарабрин,B,175
No,Raw,1,Igor Karpunin,Pro Open,1978,Russia,131.3,200,210,-220,210,,140,M,Игорь Карпунин,B,210
No,Raw,2,Roman Tarabrin,Pro Open,1990,Russia,132.4,175,,,175,,140,M,Роман Тарабрин,B,175
No,Raw,1,Artem Fadeev,Pro Open,1980,Russia,151.8,230,245,,245,,140+,M,Артем Фадеев,B,245
No,Single-ply,1,Aleksandr Fedorov,Pro Open,1976,Russia,67.2,145,155,-160,155,,67.5,M,Александр Федоров,B,155
No,Single-ply,1,Maksim Tovstonog,Pro Open,1983,Russia,71.8,155,165,172.5,172.5,,75,M,Максим Товстоног,B,172.5
No,Single-ply,2,Aleksey Schipanov,Pro Open,1980,Russia,70.5,127.5,132.5,-135,132.5,,75,M,Алексей Щипанов,B,132.5
No,Single-ply,1,Denis Kopyttsev,Pro Juniors 20-23,1990,Russia,81.3,140,-150,155,155,-160,82.5,M,Денис Копытцев,B,155
No,Single-ply,1,Pavel Dvoryadkin,Pro Open,1986,Russia,80,170,192.5,202.5,202.5,,82.5,M,Павел Дворядкин,B,202.5
No,Single-ply,1,Maksim Tatarinov,Pro Open,1987,Russia,83.2,185,195,-210,195,,90,M,Максим Татаринов,B,195
No,Single-ply,2,Sergey Komkov,Pro Open,1987,Russia,89.1,155,165,170,170,,90,M,Сергей Комков,B,170
No,Single-ply,1,Sergey Mokhov,Pro Juniors 20-23,1990,Russia,96.7,190,200,210,210,212.5,100,M,Сергей Мохов,B,210
No,Single-ply,1,Sergey Rukavishnikov,Pro Open,1988,Russia,99.7,250,-260,260,260,,100,M,Сергей Рукавишников,B,260
No,Single-ply,2,Nikita Zotov,Pro Open,1989,Russia,92.9,205,-212.5,-212.5,205,,100,M,Никита Зотов,B,205
No,Single-ply,1,Nikolay Alyshev,Pro Open,1985,Russia,101.4,210,230,-240,230,,110,M,Николай Алышев,B,230
No,Single-ply,1,Igor Lyapkov,Pro Open,1984,Russia,123.9,240,255,265,265,,125,M,Игорь Ляпков,B,265
No,Single-ply,2,Roman Zalutskiy,Pro Open,1979,Russia,120.3,245,255,262.5,262.5,270,125,M,Роман Залуцкий,B,262.5
No,Multi-ply,1,Mikhail Royanov,Pro Open,1977,Russia,100,235,250,-257.5,250,,100,M,Михаил Роянов,B,250
No,Multi-ply,DQ,Igor Kalyta,Pro Open,1982,Russia,97.6,-280,-280,-280,,,100,M,,B,
No,Multi-ply,1,Yaroslav Golubev,Pro Open,1980,Russia,109.1,275,-285,285,285,,110,M,Ярослав Голубев,B,285
No,Multi-ply,2,Maksim Stepanov #4,Pro Open,1988,Russia,108.8,220,227.5,-235,227.5,,110,M,Максим Степанов,B,227.5
No,Multi-ply,1,Pavel Chidingov,Pro Open,1969,Russia,115.5,-240,250,-260,250,,125,M,Павел Чидингов,B,250
