Division,WeightClassKg,Place,Name,Team,BodyweightKg,Best3SquatKg,Best3BenchKg,Best3DeadliftKg,TotalKg,Equipment,Event,Sex
Boys,51.71,1,Kelton Johnson,Levelland,28.12,31.75,24.95,54.43,111.13,Single-ply,SBD,M
Boys,55.79,1,Landon Nail,Lubbock Cooper,54.88,129.27,86.18,163.29,378.75,Single-ply,SBD,M
Boys,55.79,2,Chris Zuniga,Plainview,55.7,142.88,79.38,131.54,353.8,Single-ply,SBD,M
Boys,55.79,3,Elijah Zambrano,Plainview,55.61,142.88,63.5,145.15,351.53,Single-ply,SBD,M
Boys,55.79,4,Izac Anthony,Levelland,55.16,106.59,52.16,136.08,294.84,Single-ply,SBD,M
Boys,55.79,5,Raul Coral,Plainview,53.71,104.33,61.23,113.4,278.96,Single-ply,SBD,M
Boys,55.79,6,Jaime Luz,Levelland,53.15,90.72,61.23,102.06,254.01,Single-ply,SBD,M
Boys,55.79,7,Armondo Delgado,Plainview,54.79,90.72,52.16,95.25,238.14,Single-ply,SBD,M
Boys,55.79,8,Jonathan Nevarez,Levelland,55.34,86.18,49.9,86.18,222.26,Single-ply,SBD,M
Boys,59.87,1,Derek Adame,Plainview,59.06,156.49,90.72,154.22,401.43,Single-ply,SBD,M
Boys,59.87,2,Abraham Herrera,Levelland,58.24,111.13,65.77,138.35,315.25,Single-ply,SBD,M
Boys,59.87,3,Juan Hernandez #4,Plainview,56.52,99.79,61.23,113.4,274.42,Single-ply,SBD,M
Boys,67.13,1,Dillan Smith,Lubbock Cooper,62.96,147.42,113.4,163.29,424.11,Single-ply,SBD,M
Boys,67.13,2,Dalton Jenkins,Plainview,65.23,161.03,74.84,145.15,381.02,Single-ply,SBD,M
Boys,67.13,3,Austin White,Levelland,66.22,120.2,61.23,140.61,322.05,Single-ply,SBD,M
Boys,67.13,4,Rafael Ramero,Lubbock Cooper,62.6,120.2,63.5,136.08,319.78,Single-ply,SBD,M
Boys,67.13,5,Tristan Nock,Levelland,66.59,113.4,65.77,138.35,317.51,Single-ply,SBD,M
Boys,67.13,6,Ian Mitchell #1,Lubbock Cooper,63.87,108.86,54.43,113.4,276.69,Single-ply,SBD,M
Boys,67.13,7,Nathan Fletcher #3,Levelland,66.68,95.25,52.16,113.4,260.82,Single-ply,SBD,M
Boys,67.13,DQ,Matt Conder,Levelland,66.36,102.06,,,,Single-ply,SBD,M
Boys,74.84,1,Charlie Rodriguez,Plainview,70.31,154.22,97.52,174.63,426.38,Single-ply,SBD,M
Boys,74.84,2,Bobby Marez,Levelland,70.31,124.74,77.11,147.42,349.27,Single-ply,SBD,M
Boys,74.84,3,Zeke Bermea,Levelland,70.31,129.27,74.84,122.47,326.59,Single-ply,SBD,M
Boys,74.84,4,Luis Rayos,Levelland,70.31,106.59,61.23,113.4,281.23,Single-ply,SBD,M
Boys,82.1,1,Caleb Hurst,Lubbock Cooper,77.29,179.17,124.74,199.58,503.49,Single-ply,SBD,M
Boys,82.1,2,Jesse Flores,Levelland,79.65,185.97,131.54,181.44,498.95,Single-ply,SBD,M
Boys,82.1,3,Aaron Gonzales,Plainview,80.92,170.1,97.52,165.56,433.18,Single-ply,SBD,M
Boys,89.81,1,Quinten Franks,Lubbock Cooper,89.45,215.46,113.4,231.33,560.19,Single-ply,SBD,M
Boys,89.81,2,Carlos Pina,Lubbock Cooper,84.01,204.12,120.2,190.51,514.83,Single-ply,SBD,M
Boys,89.81,3,Josue Alonso,Plainview,89.36,158.76,102.06,156.49,417.3,Single-ply,SBD,M
Boys,89.81,4,Nathan Silva,Lubbock Cooper,87.82,131.54,86.18,149.69,367.41,Single-ply,SBD,M
Boys,89.81,5,Troy Jewel,Lubbock Cooper,87.09,124.74,79.38,145.15,349.27,Single-ply,SBD,M
Boys,89.81,6,Francisco Cruz,Levelland,88,102.06,72.57,142.88,317.51,Single-ply,SBD,M
Boys,99.79,1,Rey Dominguez,Plainview,99.34,190.51,113.4,185.97,489.88,Single-ply,SBD,M
Boys,99.79,2,Alan Garza,Plainview,91.35,170.1,92.99,185.97,449.06,Single-ply,SBD,M
Boys,99.79,3,Will Moran,Lubbock Cooper,90.9,167.83,95.25,183.7,446.79,Single-ply,SBD,M
Boys,99.79,4,Renee Enriquez,Lubbock Cooper,90.36,156.49,97.52,176.9,430.91,Single-ply,SBD,M
Boys,99.79,5,D'Shae Casias,Plainview,91.35,170.1,88.45,145.15,403.7,Single-ply,SBD,M
Boys,99.79,6,Karson Ritchie,Lubbock Cooper,91.72,117.93,77.11,120.2,315.25,Single-ply,SBD,M
Boys,109.77,1,Heath Carrell,Lubbock Cooper,108.14,226.8,151.95,219.99,598.74,Single-ply,SBD,M
Boys,109.77,2,Ethan Martinez,Lubbock Cooper,109.68,190.51,133.81,163.29,487.61,Single-ply,SBD,M
Boys,109.77,3,Troy Teo,Lubbock Cooper,103.42,174.63,120.2,179.17,474,Single-ply,SBD,M
Boys,109.77,4,Adrian Cabanas,Lubbock Cooper,100.24,172.37,102.06,188.24,462.66,Single-ply,SBD,M
Boys,109.77,5,Gabriel García,Plainview,102.78,170.1,92.99,170.1,433.18,Single-ply,SBD,M
Boys,109.77,6,Zach Bocanegra,Lubbock Cooper,107.41,163.29,99.79,147.42,410.5,Single-ply,SBD,M
Boys,124.74,1,Jacob Schneider,Lubbock Cooper,115.85,197.31,151.95,192.78,542.04,Single-ply,SBD,M
Boys,124.74,2,Christian Barkley,Lubbock Cooper,111.22,185.97,117.93,215.46,519.36,Single-ply,SBD,M
Boys,124.74+,1,Jade Maldonado,Lubbock Cooper,132.9,249.48,158.76,219.99,628.23,Single-ply,SBD,M
Boys,124.74+,2,JJ Castro,Levelland,152.04,151.95,97.52,151.95,401.43,Single-ply,SBD,M
Boys,124.74+,3,James Vasquez,Plainview,129.27,124.74,77.11,122.47,324.32,Single-ply,SBD,M
