Name,State,Country,Division,BodyweightKg,WeightClassKg,BirthYear,Squat1Kg,Squat2Kg,Squat3Kg,Best3SquatKg,Bench1Kg,Bench2Kg,Bench3Kg,Best3BenchKg,Deadlift1Kg,Deadlift2Kg,Deadlift3Kg,Best3DeadliftKg,TotalKg,Place,Event,BirthDate,Sex,Equipment,AgeRange
June Stamp,GL,,FR-M2,46.1,47,,80,85,90,90,40,42.5,45,45,90,100,107.5,107.5,242.5,1,SBD,,F,Raw,49.5-58.5
Cat Shamel,WM,,FR-M1,51.8,52,,115,117.5,120,120,72.5,-75,-75,72.5,145,152.5,,152.5,345,1,SBD,,F,Raw,39.5-48.5
Arlene Middler,,Scotland,FR-M1,50,52,,85,90,-95,90,-60,60,-65,60,125,132.5,135,135,285,2,SBD,,F,Raw,39.5-48.5
Angelina Lane,,Wales,FR-M2,51.5,52,,85,90,-92.5,90,52.5,55,-57.5,55,112.5,-117.5,-117.5,112.5,257.5,1,SBD,,F,Raw,49.5-58.5
Daryl Peter,NW,,FR-M3,51.1,52,,70,75,80,80,47.5,50,52.5,52.5,100,105,107.5,107.5,240,1,SBD,,F,Raw,59.5-68.5
Emma Drackford,SM,,FR-M1,56.6,57,,115,120,-125,120,55,60,62.5,62.5,125,130,-135,130,312.5,1,SBD,,F,Raw,39.5-48.5
Emma Stott,NM,,FR-M1,56.6,57,,92.5,95,-102.5,95,60,-62.5,-62.5,60,107.5,112.5,120,120,275,2,SBD,,F,Raw,39.5-48.5
Karen Burns,,N.Ireland,FR-M2,56.5,57,1968,117.5,-125,-125,117.5,60,65,,65,150,160,-163.5,160,342.5,1,SBD,,F,Raw,49.5-58.5
Alison Jones,GL,,FR-M2,56.4,57,1965,97.5,-102.5,102.5,102.5,55,57.5,60,60,130,-140,140,140,302.5,2,SBD,,F,Raw,49.5-58.5
Deborah Tiernan,EM,,FR-M2,54.3,57,1963,105,107.5,-115,107.5,60,-62.5,-62.5,60,117.5,122.5,130,130,297.5,3,SBD,,F,Raw,49.5-58.5
Debra Husband,YNE,,FR-M2,55.8,57,1970,-95,95,100,100,67.5,-72.5,-72.5,67.5,117.5,122.5,127.5,127.5,295,4,SBD,,F,Raw,49.5-58.5
Denise Bird,EM,,FR-M2,56,57,1963,97.5,100,-102.5,100,50,52.5,-55,52.5,115,120,125,125,277.5,5,SBD,,F,Raw,49.5-58.5
Mhairi Shaw,,Scotland,FR-M2,56.6,57,1962,85,-95,95,95,40,-45,-45,40,120,127.5,-130,127.5,262.5,6,SBD,,F,Raw,49.5-58.5
Sarah Collier,YNE,,FR-M2,56.2,57,1970,-85,85,-87.5,85,50,-52.5,-52.5,50,100,107.5,-115,107.5,242.5,7,SBD,,F,Raw,49.5-58.5
Valerie Dourley,,Scotland,FR-M3,56.6,57,1959,-105,105,-107.5,105,42.5,45,47.5,47.5,102.5,110,112.5,112.5,265,1,SBD,,F,Raw,59.5-68.5
Abi Graham,EM,,FR-M1,63,63,1978,117.5,127.5,135,135,80,85,87.5,87.5,175,187.5,-196,187.5,410,1,SBD,,F,Raw,39.5-48.5
Sinead Hines,NW,,FR-M1,62.8,63,1978,137.5,-140,-140,137.5,85,-87.5,87.5,87.5,150,155,-157.5,155,380,2,SBD,,F,Raw,39.5-48.5
Sharon Holmes #1,NW,,FR-M1,63,63,1972,130,137.5,-142.5,137.5,70,75,-77.5,75,135,142.5,-150,142.5,355,3,SBD,,F,Raw,39.5-48.5
Rebecca Martin,YNE,,FR-M1,62.9,63,1978,132.5,-137.5,-137.5,132.5,60,65,-70,65,135,-140,-140,135,332.5,4,SBD,,F,Raw,39.5-48.5
Cassandra Marillier,NM,,FR-M1,62.8,63,1981,120,-127.5,-127.5,120,52.5,57.5,-60,57.5,122.5,-127.5,-127.5,122.5,300,5,SBD,,F,Raw,39.5-48.5
Jacqui North,YNE,,FR-M2,62.5,63,,115,120,125,125,52.5,57.5,62.5,62.5,150,157.5,-163,157.5,345,1,SBD,,F,Raw,49.5-58.5
Khrys Kyracou,SE,,FR-M2,62.9,63,,102.5,110,-117.5,110,62.5,70,-72.5,70,115,125,135,135,315,2,SBD,,F,Raw,49.5-58.5
Lynda Banks,,Scotland,FR-M2,62.4,63,,110,115,-120,115,60,-62.5,62.5,62.5,125,130,135,135,312.5,3,SBD,,F,Raw,49.5-58.5
Annette Forker,,N.Ireland,FR-M2,62.9,63,,85,90,100,100,50,-55,-60,50,110,120,127.5,127.5,277.5,4,SBD,,F,Raw,49.5-58.5
Noreen Kay,GL,,FR-M2,61.2,63,,85,90,92.5,92.5,-45,45,-47.5,45,105,110,117.5,117.5,255,5,SBD,,F,Raw,49.5-58.5
Tree Grennan,YNE,,FR-M2,62.1,63,,77.5,85,92.5,92.5,40,45,-47.5,45,105,112.5,117.5,117.5,255,6,SBD,,F,Raw,49.5-58.5
Caroline Calver,EM,,FR-M3,61.5,63,,80,85,90,90,35,37.5,40,40,110,115,-120,115,245,1,SBD,,F,Raw,59.5-68.5
Susan Sabuda,NW,,FR-M3,61.2,63,,-70,70,-80,70,50,-55,-55,50,105,112.5,117.5,117.5,237.5,2,SBD,,F,Raw,59.5-68.5
Genevieve Collins,NW,,FR-M1,68.7,69,1980,140,150,157.5,157.5,85,-90,-90,85,165,-175,-175,165,407.5,1,SBD,,F,Raw,39.5-48.5
Wendie Kirkland,NM,,FR-M1,67.8,69,1972,110,115,120,120,67.5,72.5,75,75,125,132.5,140,140,335,2,SBD,,F,Raw,39.5-48.5
Heather Tagg,SW,,FR-M2,68.6,69,1966,122.5,130,-135,130,-70,75,-77.5,75,150,,,150,355,1,SBD,,F,Raw,49.5-58.5
Terrie Redmore,EM,,FR-M2,68,69,1970,120,125,130,130,67.5,70,72.5,72.5,125,130,135,135,337.5,2,SBD,,F,Raw,49.5-58.5
Lisa Liddy,YNE,,FR-M2,67.1,69,,-115,115,120,120,70,75,-77.5,75,130,135,140,140,335,3,SBD,,F,Raw,49.5-58.5
Suzanne Shepherd,SW,,FR-M2,67.7,69,1969,95,100,107.5,107.5,60,65,-67.5,65,130,135,-137.5,135,307.5,4,SBD,,F,Raw,49.5-58.5
Paula Gentle,EM,,FR-M2,66.5,69,1970,100,107.5,112.5,112.5,47.5,50,-52.5,50,125,135,140,140,302.5,5,SBD,,F,Raw,49.5-58.5
Rebecca Allen,NW,,FR-M1,73.8,76,,150,-160,160,160,70,72.5,75,75,160,-170,170,170,405,1,SBD,,F,Raw,39.5-48.5
Ajanta Hilton,EM,,FR-M1,73.3,76,,-132.5,132.5,142.5,142.5,67.5,70,72.5,72.5,155,162.5,167.5,167.5,382.5,2,SBD,,F,Raw,39.5-48.5
Sam Hines,EM,,FR-M1,73.1,76,,120,127.5,135,135,60,65,-70,65,155,172.5,-182.5,172.5,372.5,3,SBD,,F,Raw,39.5-48.5
Catherine Woodward,NM,,FR-M1,73.4,76,,135,140,-145,140,75,80,-85,80,140,150,-162.5,150,370,4,SBD,,F,Raw,39.5-48.5
Jeni Aulman,WM,,FR-M1,74.1,76,,90,100,105,105,50,55,57.5,57.5,120,130,135,135,297.5,5,SBD,,F,Raw,39.5-48.5
Joy Mineo,NM,,FR-M2,72.7,76,,-110,110,-115,110,70,75,77.5,77.5,150,155,160,160,347.5,1,SBD,,F,Raw,49.5-58.5
Fenella Bashiri,YNE,,FR-M2,74.7,76,,115,122.5,-127.5,122.5,65,-70,-70,65,110,120,130,130,317.5,2,SBD,,F,Raw,49.5-58.5
Sue Giles,NM,,FR-M3,74.5,76,,95,105,110,110,52.5,55,57.5,57.5,110,120,-125,120,287.5,1,SBD,,F,Raw,59.5-68.5
Lisa Grant #2,NW,,FR-M1,81.5,84,1977,110,120,130,130,60,62.5,-67.5,62.5,175,185,-192.5,185,377.5,1,SBD,,F,Raw,39.5-48.5
Kelly Phasey,WM,,FR-M1,83.2,84,1976,130,135,140,140,70,75,80,80,135,145,155,155,375,2,SBD,,F,Raw,39.5-48.5
Lucy Hyde,SE,,FR-M1,83,84,1979,115,122.5,-125,122.5,87.5,-90,90,90,147.5,157.5,160,160,372.5,3,SBD,,F,Raw,39.5-48.5
Jodi Weaver,NM,,FR-M1,81.4,84,1977,130,-135,135,135,65,67.5,70,70,125,-130,130,130,335,4,SBD,,F,Raw,39.5-48.5
Georgina Hazell,EM,,FR-M2,81.9,84,1969,130,140,150,150,85,90,95,95,175,182.5,190,190,435,1,SBD,,F,Raw,49.5-58.5
Amelia Allen,SW,,FR-M2,78.9,84,1970,145,-155,155,155,95,100,,100,160,170,-175,170,425,2,SBD,,F,Raw,49.5-58.5
Hira Teirney,SW,,FR-O,83,84,1982,162.5,172.5,177.5,177.5,87.5,-92.5,-92.5,87.5,202.5,212.5,222.5,222.5,487.5,1,SBD,,F,Raw,
Helen Ferguson-Ford,,Scotland,FR-M1,132,84+,,180,190,-197.5,190,95,100,-102.5,100,180,190,-195,190,480,1,SBD,,F,Raw,39.5-48.5
Joanne Parkin,,Scotland,FR-M1,125.7,84+,,145,155,-165,155,85,90,-95,90,190,-200,-200,190,435,2,SBD,,F,Raw,39.5-48.5
Meg Robertson,NM,,FR-M1,100,84+,,135,145,152.5,152.5,75,80,82.5,82.5,157.5,170,180,180,415,3,SBD,,F,Raw,39.5-48.5
Elizabeth Cromwell,GL,,FR-M1,90,84+,,-125,125,130,130,65,67.5,-70,67.5,145,152.5,160,160,357.5,4,SBD,,F,Raw,39.5-48.5
Carol Taylor,,Wales,FR-M1,104.9,84+,,137.5,145,-150,145,57.5,60,-62.5,60,135,145,-155,145,350,5,SBD,,F,Raw,39.5-48.5
Jo Whiteley,NM,,FR-M2,116.8,84+,,160,170,175,175,95,97.5,-100,97.5,180,190,-197.5,190,462.5,1,SBD,,F,Raw,49.5-58.5
Betty Gray,SE,,FR-M2,103.2,84+,,120,127.5,132.5,132.5,70,75,77.5,77.5,180,200,210,210,420,2,SBD,,F,Raw,49.5-58.5
Gillian Lomax,NW,,FR-M2,102.1,84+,,130,135,140,140,75,-80,80,80,155,160,165,165,385,3,SBD,,F,Raw,49.5-58.5
Angela Lauder,,Scotland,FR-M2,92.1,84+,,115,122.5,130,130,65,70,75,75,145,150,-160,150,355,4,SBD,,F,Raw,49.5-58.5
Elaine Jackson #2,GL,,FR-M2,107.6,84+,,105,115,125,125,57.5,62.5,67.5,67.5,142.5,152.5,162.5,162.5,355,5,SBD,,F,Raw,49.5-58.5
Rajesh Babu,GL,,MR-M1,58.4,59,1980,107.5,117.5,127.5,127.5,107.5,112.5,116,116,180,190,200,200,443.5,1,SBD,,M,Raw,39.5-48.5
Shaun Bateman,SW,,MR-M2,58.3,59,1967,130,140,-145,140,95,97.5,-100,97.5,170,180,-185,180,417.5,1,SBD,,M,Raw,49.5-58.5
Henry Chay,NW,,MR-M3,58.4,59,1961,125,135,140,140,70,-75,-77.5,70,170,180,185,185,395,1,SBD,,M,Raw,59.5-68.5
Richard Gould,NW,,MR-M3,57.9,59,1960,100,107.5,112.5,112.5,70,75,77.5,77.5,140,147.5,150,150,340,2,SBD,,M,Raw,59.5-68.5
Ted Byrne,NM,,MR-M4,57.7,59,1951,110,-120,-127.5,110,65,70,-75,70,165,180,185.5,185.5,365.5,1,SBD,,M,Raw,69.5-99
Ted Brown,SM,,MR-M4,54.6,59,1930,50,60,-65,60,55,60,65,65,80,90,100,100,225,2,SBD,,M,Raw,69.5-99
Simon Voakes,SM,,MR-M1,63.8,66,1981,135,145,-150,145,102.5,-107.5,-110,102.5,175,185,192.5,192.5,440,1,SBD,,M,Raw,39.5-48.5
Greig Murray,,Scotland,MR-M2,65.4,66,1971,155,165,-180,165,115,122.5,-125,122.5,210,230,-253.5,230,517.5,1,SBD,,M,Raw,39.5-48.5
George Travis,NW,,MR-M4,66,66,1945,-110,110,-120,110,70,75,-77.5,75,120,130,-140,130,315,1,SBD,,M,Raw,69.5-99
Malcom Long,GL,,MR-M1,73.3,74,,190,200,205,205,130,135,137.5,137.5,225,245,-255,245,587.5,1,SBD,,M,Raw,39.5-48.5
Danny Potter,NW,,MR-M1,73.8,74,,170,185,200,200,135,145,-155,145,210,230,-255,230,575,2,SBD,,M,Raw,39.5-48.5
Nicholas Bently,SE,,MR-M1,73.6,74,,145,155,160,160,107.5,115,-120,115,195,215,-220,215,490,3,SBD,,M,Raw,39.5-48.5
Phil Richard,,Wales,MR-M2,74,74,,195,205,215,215,130,136,,136,212.5,230,-241,230,581,1,SBD,,M,Raw,49.5-58.5
Bernie McGurk,,Scotland,MR-M2,68.5,74,,170,180,-185,180,107.5,112.5,-115,112.5,210,220,-225,220,512.5,2,SBD,,M,Raw,49.5-58.5
John Laird,,Wales,MR-M2,72.7,74,,145,155,-160,155,102.5,110,-112.5,110,185,195,-200,195,460,3,SBD,,M,Raw,49.5-58.5
Cliff Haynes,EM,,MR-M3,72.8,74,,150,165,175,175,110,125,130,130,190,210,-221.5,210,515,1,SBD,,M,Raw,59.5-68.5
Nigel Gillis,NM,,MR-M3,67.3,74,,165,182.5,192.5,192.5,102.5,107.5,110,110,175,192.5,200,200,502.5,2,SBD,,M,Raw,59.5-68.5
Allen Ottolangui,EM,,MR-M3,73.7,74,,165,-180,180,180,95,-100,100,100,-180,180,,180,460,3,SBD,,M,Raw,59.5-68.5
Ernie Parkes,SE,,MR-M4,72.7,74,,-125,125,135,135,77.5,82.5,87.5,87.5,185,197.5,210,210,432.5,1,SBD,,M,Raw,69.5-99
Ian Card,EM,,MR-M1,82,83,,207.5,220,225,225,107.5,120,127.5,127.5,240,260,-267.5,260,612.5,1,SBD,,M,Raw,39.5-48.5
Mark Hughes,YNE,,MR-M1,83,83,,215,225,230,230,135,145,-150,145,210,220,230,230,605,2,SBD,,M,Raw,39.5-48.5
Grant Surgarman,EM,,MR-M2,80.7,83,,165,175,185,185,110,120,-125,120,225,240,-250,240,545,1,SBD,,M,Raw,49.5-58.5
David Horne,SM,,MR-M2,81.8,83,,140,147.5,152.5,152.5,100,-107.5,-107.5,100,190,205,210,210,462.5,2,SBD,,M,Raw,49.5-58.5
Philip Guise,WM,,MR-M3,82.5,83,,155,170,185,185,105,110,115,115,155,170,185,185,485,1,SBD,,M,Raw,59.5-68.5
Clive Lingard,WM,,MR-M4,82.1,83,,90,100,110,110,-90,90,-95,90,130,150,-165,150,350,1,SBD,,M,Raw,69.5-99
Thomas Celestin,GL,,MR-M1,92.4,93,,220,235,-240,235,110,-115,,110,280,305,311,311,656,1,SBD,,M,Raw,39.5-48.5
Robert Love,,Scotland,MR-M1,91.4,93,,225,240,-250,240,135,142.5,147.5,147.5,230,242.5,247.5,247.5,635,2,SBD,,M,Raw,39.5-48.5
Michele Tegon,GL,,MR-M1,91.5,93,,230,240,247.5,247.5,147.5,-152.5,152.5,152.5,225,235,-250,235,635,3,SBD,,M,Raw,39.5-48.5
Robert Rodney,GL,,MR-M2,91.4,93,,210,225,232.5,232.5,130,140,150,150,270,-317.5,,270,652.5,1,SBD,,M,Raw,49.5-58.5
David Clifford,NW,,MR-M2,90.5,93,,210,225,-232.5,225,130,140,-145,140,220,235,252.5,252.5,617.5,2,SBD,,M,Raw,49.5-58.5
William Porter,GL,,MR-M3,90.1,93,,-135,135,145,145,85,90,-95,90,165,185,195,195,430,1,SBD,,M,Raw,59.5-68.5
Kevin Jane,EM,,MR-M4,92.5,93,,-195,195,-210,195,115,120,-122.5,120,215,237.5,-242.5,237.5,552.5,1,SBD,,M,Raw,69.5-99
Ross Brimsted,SE,,MR-M1,104.7,105,,265,282.5,,282.5,160,170,-180,170,280,300,317.5,317.5,770,1,SBD,,M,Raw,39.5-48.5
Alistar Maag,NM,,MR-M1,103,105,,200,210,220,220,-125,135,-145,135,250,260,275,275,630,2,SBD,,M,Raw,39.5-48.5
Russ Kirby,SE,,MR-M2,104.1,105,,260,275,282.5,282.5,100,112.5,117.5,117.5,200,225,250,250,650,1,SBD,,M,Raw,49.5-58.5
Christopher Lynn,SW,,MR-M2,102.01,105,,210,215,220,220,120,125,127.5,127.5,230,242.5,250,250,597.5,2,SBD,,M,Raw,49.5-58.5
David Charnock,NW,,MR-M2,104.8,105,,192.5,205,210,210,120,127.5,-135,127.5,210,230,-240,230,567.5,3,SBD,,M,Raw,49.5-58.5
Arthur Cowley,,Scotland,MR-M3,98.7,105,,-182.5,185,197.5,197.5,112.5,117.5,120,120,210,225,232.5,232.5,550,1,SBD,,M,Raw,59.5-68.5
Gary Grant,YNE,,MR-M3,102.7,105,,175,190,-200,190,-100,-100,100,100,185,195,-210,195,485,2,SBD,,M,Raw,59.5-68.5
Adam Berry #1,EM,,MR-M1,120,120,,275,295,307.5,307.5,155,165,170,170,255,270,285,285,762.5,1,SBD,,M,Raw,39.5-48.5
Derek Forsyth,,Scotland,MR-M1,118.9,120,,235,250,257.5,257.5,162.5,-167.5,167.5,167.5,275,-295,-295,275,700,2,SBD,,M,Raw,39.5-48.5
Darren Greville,GL,,MR-M2,119.2,120,,217.5,235,245,245,162.5,172.5,177.5,177.5,225,250,255,255,677.5,1,SBD,,M,Raw,49.5-58.5
Darren Goldsney,EM,,MR-M2,117.3,120,,190,210,215,215,110,130,135,135,200,220,225,225,575,2,SBD,,M,Raw,49.5-58.5
Andrew Rodney,EM,,MR-M2,119.7,120,,200,220,230,230,142.5,152.5,160,160,120,-200,,120,510,3,SBD,,M,Raw,49.5-58.5
Paul Walker #1,,Scotland,MR-M1,129.1,120+,,240,250,-260,250,160,-170,-170,160,240,255,-270,255,665,1,SBD,,M,Raw,39.5-48.5
Bob Sadler,,Wales,MR-M2,134.3,120+,,215,225,235,235,120,127.5,135,135,-200,200,235,235,605,1,SBD,,M,Raw,49.5-58.5
Frank O Donnel,YNE,,MR-M3,141.7,120+,,195,197.5,210,210,153,157.5,160,160,272.5,280,-286,280,650,1,SBD,,M,Raw,59.5-68.5
