Division,WeightClassKg,Place,Name,Team,BodyweightKg,Best3SquatKg,Best3BenchKg,Best3DeadliftKg,TotalKg,Equipment,Event,Sex
Boys,51.71,1,Enoch Solis,Edinburg Economedes,49.8,190.51,113.4,181.44,485.34,Single-ply,SBD,M
Boys,51.71,2,Fabian Garcia,Edinburg Idea College Prep,51.71,163.29,102.06,172.37,437.72,Single-ply,SBD,M
Boys,51.71,3,Jesus Puente,La Joya Palmview,51.44,165.56,99.79,170.1,435.45,Single-ply,SBD,M
Boys,51.71,4,Joe Gaytan,Donna,49.62,136.08,70.31,161.03,367.41,Single-ply,SBD,M
Boys,51.71,5,Damian Reyna,Edinburg,47.63,104.33,65.77,136.08,306.17,Single-ply,SBD,M
Boys,51.71,6,Jesus Guerrero,Mission Sharyland,46.18,95.25,52.16,142.88,290.3,Single-ply,SBD,M
Boys,51.71,DQ,Uziel Vasquez,Edinburg Idea College Prep,51.71,,,,,Single-ply,SBD,M
Boys,51.71,DQ,Jaden Lopez,Port Isabel,49.71,136.08,,,,Single-ply,SBD,M
Boys,55.79,1,Marc Sedillo,San Benito,55.43,165.56,97.52,183.7,446.79,Single-ply,SBD,M
Boys,55.79,2,Eric Camrillo,Edinburg Economedes,55.34,165.56,86.18,183.7,435.45,Single-ply,SBD,M
Boys,55.79,3,Patricio Chavez,Mission Sharyland,53.8,167.83,83.91,179.17,430.91,Single-ply,SBD,M
Boys,55.79,4,Adrian Garcia,Edinburg Economedes,55.34,170.1,102.06,158.76,430.91,Single-ply,SBD,M
Boys,55.79,5,Mario Perez,Weslaco,55.07,161.03,99.79,167.83,428.64,Single-ply,SBD,M
Boys,55.79,6,Fred Mares,Edinburg,55.16,129.27,90.72,183.7,403.7,Single-ply,SBD,M
Boys,55.79,7,David Hernandez,Port Isabel,55.43,142.88,90.72,156.49,390.09,Single-ply,SBD,M
Boys,55.79,DQ,Elijah Rodriguez,Hidalgo Early College,53.34,,,,,Single-ply,SBD,M
Boys,59.87,1,Jose Soto,Edinburg Economedes,57.7,208.65,120.2,179.17,508.02,Single-ply,SBD,M
Boys,59.87,2,Elijah Wheeler,Edinburg Quest College Prep,58.88,197.31,102.06,197.31,496.68,Single-ply,SBD,M
Boys,59.87,3,Fernando Martinez #2,Weslaco,59.24,197.31,111.13,183.7,492.15,Single-ply,SBD,M
Boys,59.87,4,Kevin Garcia,Edinburg Vela,58.24,165.56,104.33,170.1,439.98,Single-ply,SBD,M
Boys,59.87,5,Fabian Feria,Los Fresnos,59.33,158.76,83.91,158.76,401.43,Single-ply,SBD,M
Boys,59.87,6,Gus Martinez,Edinburg Vela,55.97,111.13,68.04,142.88,322.05,Single-ply,SBD,M
Boys,59.87,7,Marcelino Alvarez,San Benito,58.79,113.4,72.57,136.08,322.05,Single-ply,SBD,M
Boys,59.87,DQ,Kenneth Garcia,Edinburg Vela,58.97,,,,,Single-ply,SBD,M
Boys,67.13,1,Daniel Jeronimo,Hidalgo Early College,66.32,235.87,122.47,199.58,557.92,Single-ply,SBD,M
Boys,67.13,2,Marcus Capetillo,Raymondville,60.06,217.72,122.47,208.65,548.85,Single-ply,SBD,M
Boys,67.13,3,Daniel Lozano,Weslaco,64.64,204.12,145.15,195.04,544.31,Single-ply,SBD,M
Boys,67.13,4,Dylan Bazarte,Mission Sharyland,65.59,208.65,113.4,222.26,544.31,Single-ply,SBD,M
Boys,67.13,5,Justin Berner,Edinburg North,65.32,201.85,129.27,156.49,487.61,Single-ply,SBD,M
Boys,67.13,6,Augustin Chapa,Rio Grande City,65.86,179.17,115.67,183.7,478.54,Single-ply,SBD,M
Boys,67.13,7,Mike Tamez,La Joya Palmview,66.32,183.7,104.33,190.51,478.54,Single-ply,SBD,M
Boys,67.13,8,Alan Olvera,Edinburg Economedes,65.23,172.37,104.33,190.51,467.2,Single-ply,SBD,M
Boys,67.13,9,Brian Garza,San Benito,61.96,172.37,102.06,188.24,462.66,Single-ply,SBD,M
Boys,67.13,10,Mario Hernandez,Los Fresnos,65.23,176.9,115.67,165.56,458.13,Single-ply,SBD,M
Boys,67.13,11,Aj Sayas,Raymondville,66.41,172.37,86.18,176.9,435.45,Single-ply,SBD,M
Boys,67.13,12,Mario Mancera,Edinburg Economedes,64.5,170.1,90.72,172.37,433.18,Single-ply,SBD,M
Boys,67.13,13,Marco Esparza,Hidalgo Early College,65.32,156.49,97.52,149.69,403.7,Single-ply,SBD,M
Boys,67.13,14,Jerry Reyes,La Villa,66.68,156.49,102.06,136.08,394.63,Single-ply,SBD,M
Boys,67.13,15,Omar Salinas,Port Isabel,61.42,145.15,90.72,151.95,387.82,Single-ply,SBD,M
Boys,67.13,16,Carlos Guzman,Edinburg Vela,61.87,129.27,102.06,142.88,374.21,Single-ply,SBD,M
Boys,67.13,17,Isai Del Rosal,Edinburg North,63.14,129.27,90.72,142.88,362.87,Single-ply,SBD,M
Boys,67.13,DQ,Marco Reyes #4,Weslaco,65.59,,,,,Single-ply,SBD,M
Boys,67.13,DQ,Victor Garcia,Los Fresnos,62.78,138.35,,,,Single-ply,SBD,M
Boys,67.13,DQ,Robert Rivera,La Villa,67.13,,,,,Single-ply,SBD,M
Boys,67.13,DQ,Aaron Lozano,Edinburg Quest College Prep,59.96,181.44,,,,Single-ply,SBD,M
Boys,74.84,1,Andrew Nevarez,Edinburg Idea College Prep,73.57,274.42,142.88,226.8,644.1,Single-ply,SBD,M
Boys,74.84,2,Matthew Alvarado,Weslaco,73.62,233.6,145.15,231.33,610.08,Single-ply,SBD,M
Boys,74.84,3,Andrew Solis,Edinburg Vela,73.84,233.6,161.03,210.92,605.55,Single-ply,SBD,M
Boys,74.84,4,Hugo Gomez,Edinburg North,72.39,235.87,149.69,213.19,598.74,Single-ply,SBD,M
Boys,74.84,5,Jesus Sepulveda,Edinburg Economedes,73.12,233.6,140.61,204.12,578.33,Single-ply,SBD,M
Boys,74.84,6,Darius Hernandez,La Feria,74.03,213.19,124.74,217.72,555.65,Single-ply,SBD,M
Boys,74.84,7,Brian Tejada,Edinburg,71.4,197.31,117.93,197.31,512.56,Single-ply,SBD,M
Boys,74.84,8,Jermaine Olvarez,Edinburg Vela,74.57,201.85,111.13,195.04,508.02,Single-ply,SBD,M
Boys,74.84,9,Brian Pena,Rio Grande City,74.03,192.78,120.2,185.97,498.95,Single-ply,SBD,M
Boys,74.84,10,Carlos Coronado,Edinburg North,70.13,172.37,133.81,188.24,494.42,Single-ply,SBD,M
Boys,74.84,11,Carlos Arjona,La Joya Palmview,69.49,183.7,111.13,174.63,469.47,Single-ply,SBD,M
Boys,74.84,12,Bryon Ayala,San Benito,72.48,165.56,111.13,192.78,469.47,Single-ply,SBD,M
Boys,74.84,13,Catorino Tijerina,Raymondville,71.94,165.56,108.86,183.7,458.13,Single-ply,SBD,M
Boys,74.84,14,Edgar Arecha,Edinburg Vela,69.04,136.08,74.84,149.69,360.61,Single-ply,SBD,M
Boys,74.84,15,Daniel Villareal,Port Isabel,70.31,113.4,95.25,151.95,360.61,Single-ply,SBD,M
Boys,74.84,16,Ryan Mesa,Raymondville,70.03,129.27,61.23,151.95,342.46,Single-ply,SBD,M
Boys,74.84,17,Joseph Chapa,Edinburg Vela,72.3,131.54,65.77,129.27,326.59,Single-ply,SBD,M
Boys,74.84,18,Jorge Aban,Port Isabel,71.58,131.54,77.11,,208.65,Single-ply,SB,M
Boys,74.84,DQ,Javier Sanchez,Edinburg Vela,67.86,142.88,83.91,,,Single-ply,SBD,M
Boys,74.84,DQ,Miguel Cornado,Donna,71.85,163.29,72.57,,,Single-ply,SBD,M
Boys,82.1,1,Sebastian Sanchez,Mission Sharyland,81.47,226.8,129.27,235.87,591.94,Single-ply,SBD,M
Boys,82.1,2,Juan Torres,Raymondville,78.47,217.72,117.93,238.14,573.79,Single-ply,SBD,M
Boys,82.1,3,Daniel García,San Benito,80.56,208.65,145.15,204.12,557.92,Single-ply,SBD,M
Boys,82.1,4,Jonathan Mendoza,Port Isabel,80.56,219.99,120.2,213.19,553.38,Single-ply,SBD,M
Boys,82.1,5,Robert Hernandez,Los Fresnos,80.92,222.26,120.2,208.65,551.11,Single-ply,SBD,M
Boys,82.1,6,Felipe Ortega,La Villa,80.65,222.26,117.93,204.12,544.31,Single-ply,SBD,M
Boys,82.1,7,Rosbel Zammarripa,La Joya Palmview,80.74,163.29,113.4,183.7,460.4,Single-ply,SBD,M
Boys,82.1,8,Mauricio Sanchez,Mission Sharyland,78.38,163.29,122.47,165.56,451.32,Single-ply,SBD,M
Boys,82.1,9,Robert Ortiz,Edinburg North,82.01,147.42,106.59,181.44,435.45,Single-ply,SBD,M
Boys,82.1,10,Teddie Lozano,Edinburg North,79.56,129.27,99.79,174.63,403.7,Single-ply,SBD,M
Boys,82.1,DQ,Charles Juarez,Weslaco,80.33,204.12,120.2,,,Single-ply,SBD,M
Boys,89.81,1,Mario Reyna,Edinburg Economedes,89.81,278.96,176.9,247.21,703.07,Single-ply,SBD,M
Boys,89.81,2,Jose Guzman,Donna,88.9,272.16,158.76,258.55,689.46,Single-ply,SBD,M
Boys,89.81,3,Larry Strickland,Weslaco,85.46,265.35,111.13,242.67,619.15,Single-ply,SBD,M
Boys,89.81,4,Noah Martinez #4,Edinburg,87.45,247.21,124.74,208.65,580.6,Single-ply,SBD,M
Boys,89.81,5,Armando Garza,La Joya Palmview,88.36,206.38,129.27,215.46,551.11,Single-ply,SBD,M
Boys,89.81,6,Irvin Castro,La Feria,88.09,213.19,138.35,172.37,523.9,Single-ply,SBD,M
Boys,89.81,7,Rafael Ramos,San Benito,86.91,179.17,117.93,204.12,501.22,Single-ply,SBD,M
Boys,89.81,8,Aaron Davila,Edinburg North,88,174.63,113.4,192.78,480.81,Single-ply,SBD,M
Boys,89.81,9,Miguel Martinez,Port Isabel,84.19,161.03,88.45,170.1,419.57,Single-ply,SBD,M
Boys,89.81,10,Aldo Villarreal,Edinburg North,87.36,151.95,99.79,149.69,401.43,Single-ply,SBD,M
Boys,89.81,11,Eduardo Arroyo,Edinburg Quest College Prep,86.36,136.08,92.99,156.49,385.55,Single-ply,SBD,M
Boys,89.81,12,Jacob Cano,Mission Sharyland,87.45,147.42,81.65,140.61,369.68,Single-ply,SBD,M
Boys,89.81,DQ,Erick Rangel,La Feria,88.72,204.12,,,,Single-ply,SBD,M
Boys,89.81,DQ,Oscar Mendoza,La Joya Palmview,83.73,249.48,154.22,,,Single-ply,SBD,M
Boys,89.81,DQ,Jose Hinojosa,Raymondville,88.45,176.9,,,,Single-ply,SBD,M
Boys,89.81,DQ,George Garcia,La Feria,88.99,201.85,106.59,219.99,,Single-ply,SBD,M
Boys,99.79,1,Dylan Earhart,Hidalgo Early College,99.16,297.1,174.63,263.08,734.82,Single-ply,SBD,M
Boys,99.79,2,Ryan Perales,Donna,93.53,272.16,172.37,213.19,657.71,Single-ply,SBD,M
Boys,99.79,3,Frank Coronado,Edinburg,97.7,249.48,158.76,249.48,657.71,Single-ply,SBD,M
Boys,99.79,4,Antonio Banda,Donna,97.79,263.08,151.95,201.85,616.89,Single-ply,SBD,M
Boys,99.79,5,Rudy Tijerina,Raymondville,98.07,240.4,142.88,233.6,616.89,Single-ply,SBD,M
Boys,99.79,6,Victor Luna,La Feria,91.08,249.48,129.27,219.99,598.74,Single-ply,SBD,M
Boys,99.79,7,Justin Valdez,Edinburg Vela,93.35,229.06,120.2,242.67,591.94,Single-ply,SBD,M
Boys,99.79,8,Juan Mendoza #2,Edinburg,99.25,222.26,142.88,199.58,564.72,Single-ply,SBD,M
Boys,99.79,9,James Rodriguez,Los Fresnos,99.79,210.92,120.2,226.8,557.92,Single-ply,SBD,M
Boys,99.79,10,Juan Casarez,Edinburg North,92.35,201.85,133.81,215.46,551.11,Single-ply,SBD,M
Boys,99.79,11,Jonah Hernandez,Port Isabel,96.07,222.26,142.88,185.97,551.11,Single-ply,SBD,M
Boys,99.79,12,Bryan Lopez,San Benito,97.79,210.92,136.08,204.12,551.11,Single-ply,SBD,M
Boys,99.79,13,Dustin Earhart,Hidalgo Early College,98.25,226.8,129.27,183.7,539.77,Single-ply,SBD,M
Boys,99.79,14,Zac Compean,Rio Grande City,96.07,217.72,124.74,185.97,528.44,Single-ply,SBD,M
Boys,99.79,15,Alberto Vargas,La Joya Palmview,94.08,190.51,149.69,158.76,498.95,Single-ply,SBD,M
Boys,99.79,16,Humberto Martinez,Edinburg North,92.53,181.44,127.01,183.7,492.15,Single-ply,SBD,M
Boys,99.79,17,Jordan Vasquez,Hidalgo Early College,96.43,197.31,129.27,161.03,487.61,Single-ply,SBD,M
Boys,99.79,DQ,Hector Palencia,Donna,95.8,249.48,,,,Single-ply,SBD,M
Boys,109.77,1,Joey Ramirez,La Villa,108.59,285.76,199.58,199.58,684.92,Single-ply,SBD,M
Boys,109.77,2,Matthew Alfaro,Edinburg Economedes,108.68,265.35,165.56,249.48,680.39,Single-ply,SBD,M
Boys,109.77,3,Shayne Hernanez,Edinburg,109.5,265.35,163.29,251.74,680.39,Single-ply,SBD,M
Boys,109.77,4,Neyfis Castillanos,Port Isabel,105.51,283.5,151.95,208.65,644.1,Single-ply,SBD,M
Boys,109.77,5,Joseph Guerra,Edinburg Economedes,106.87,226.8,151.95,238.14,616.89,Single-ply,SBD,M
Boys,109.77,6,Pablo Rodriguez,Edinburg North,108.86,240.4,154.22,222.26,616.89,Single-ply,SBD,M
Boys,109.77,7,Anthony Torres,Raymondville,102.33,217.72,136.08,256.28,610.08,Single-ply,SBD,M
Boys,109.77,8,Rolando Morales,Weslaco,109.63,242.67,142.88,219.99,605.55,Single-ply,SBD,M
Boys,109.77,9,Joel Lopez,San Benito,109.68,240.4,140.61,204.12,585.13,Single-ply,SBD,M
Boys,109.77,10,Justus Mendoza,Donna,107.95,226.8,149.69,190.51,566.99,Single-ply,SBD,M
Boys,109.77,11,Nick Rojas,Donna,109.77,249.48,124.74,183.7,557.92,Single-ply,SBD,M
Boys,109.77,12,Kris Garza,Rio Grande City,109.23,222.26,122.47,183.7,528.44,Single-ply,SBD,M
Boys,109.77,13,Adan Avalos,Port Isabel,101.6,149.69,68.04,158.76,376.48,Single-ply,SBD,M
Boys,109.77,DQ,Anthony Garza,Edinburg Vela,105.96,192.78,113.4,,,Single-ply,SBD,M
Boys,109.77,DQ,Jarek Gonzalez,Hidalgo Early College,106.59,247.21,,,,Single-ply,SBD,M
Boys,109.77,DQ,Rogelio Rada,Donna,101.06,,,,,Single-ply,SBD,M
Boys,124.74,1,Adrian Fuentes,Weslaco,113.94,276.69,167.83,272.16,716.68,Single-ply,SBD,M
Boys,124.74,2,Christopher Vargas,San Benito,123.56,272.16,165.56,265.35,703.07,Single-ply,SBD,M
Boys,124.74,3,Antonio Mujica,Edinburg Economedes,117.84,283.5,151.95,242.67,678.12,Single-ply,SBD,M
Boys,124.74,4,Raul Martinez,Weslaco,121.79,272.16,163.29,215.46,650.91,Single-ply,SBD,M
Boys,124.74,5,Luis Trevino,Edinburg,114.03,254.01,147.42,217.72,619.15,Single-ply,SBD,M
Boys,124.74,6,Marco Cantu,San Benito,113.04,226.8,142.88,204.12,573.79,Single-ply,SBD,M
Boys,124.74,7,Saul Hernandez,Hidalgo Early College,111.22,226.8,138.35,204.12,569.26,Single-ply,SBD,M
Boys,124.74,8,Darien Castillo,Donna,113.04,242.67,117.93,201.85,562.45,Single-ply,SBD,M
Boys,124.74,9,Esia Reyes,La Feria,114.58,219.99,129.27,204.12,553.38,Single-ply,SBD,M
Boys,124.74,10,Diego Ochoa,Mission Sharyland,120.02,226.8,102.06,183.7,512.56,Single-ply,SBD,M
Boys,124.74,11,Anthony Ortiz,Rio Grande City,123.56,201.85,120.2,170.1,492.15,Single-ply,SBD,M
Boys,124.74,12,Julio Mendoza,Port Isabel,112.22,165.56,90.72,131.54,387.82,Single-ply,SBD,M
Boys,124.74,DQ,Humberto Gonzalez,Rio Grande City,115.03,,,,,Single-ply,SBD,M
Boys,124.74,DQ,Noe Zambrano,Raymondville,121.38,251.74,,,,Single-ply,SBD,M
Boys,124.74,DQ,Leo Garza #1,Raymondville,124.47,,,,,Single-ply,SBD,M
Boys,124.74,DQ,Alex Mendiola,La Joya Palmview,120.38,,,,,Single-ply,SBD,M
Boys,124.74,DQ,Ryan Garcia,Edinburg Idea College Prep,122.92,215.46,,,,Single-ply,SBD,M
Boys,124.74,DQ,Anthony Cardona,Edinburg,122.02,272.16,,,,Single-ply,SBD,M
Boys,124.74+,1,Jaden Brooks,Raymondville,160.57,249.48,136.08,249.48,635.03,Single-ply,SBD,M
Boys,124.74+,2,Triston Rosales,La Feria,127.55,260.82,127.01,195.04,582.87,Single-ply,SBD,M
Boys,124.74+,3,Genaro Paez,Edinburg,167.56,192.78,145.15,197.31,535.24,Single-ply,SBD,M
Boys,124.74+,4,Eduardo Rosas,Donna,154.77,183.7,102.06,190.51,476.27,Single-ply,SBD,M
Boys,124.74+,DQ,Sam Perez,Weslaco,126.23,,,,,Single-ply,SBD,M
