Division,WeightClassKg,Place,Name,Team,BodyweightKg,Best3SquatKg,Best3BenchKg,Best3DeadliftKg,TotalKg,Equipment,Event,Sex
Boys,51.71,1,Anthony Garcia,Weslaco,48.99,111.13,79.38,142.88,333.39,Single-ply,SBD,M
Boys,55.79,2,Jonanthan Gonzalez,La Joya Palmview,51.89,113.4,74.84,140.61,328.85,Single-ply,SBD,M
Boys,51.71,3,Joe Anthony Tamez,PSJA Memorial,51.26,104.33,56.7,120.2,281.23,Single-ply,SBD,M
Boys,51.71,4,Cody Acosta,PSJA,45.81,95.25,52.16,104.33,251.74,Single-ply,SBD,M
Boys,55.79,1,Mauro Vargas,La Joya Juarez-Lincoln,54.43,151.95,97.52,158.76,408.23,Single-ply,SBD,M
Boys,55.79,2,Mike Barajas,Hidalgo Early College,55.34,142.88,95.25,167.83,405.97,Single-ply,SBD,M
Boys,55.79,3,Brandon Sauceda,PSJA Memorial,53.52,145.15,79.38,156.49,381.02,Single-ply,SBD,M
Boys,59.87,4,Juan Tamez,Weslaco East,55.97,129.27,79.38,154.22,362.87,Single-ply,SBD,M
Boys,59.87,5,Angel Flores #2,Mercedes,56.02,108.86,88.45,140.61,337.93,Single-ply,SBD,M
Boys,55.79,6,Damien Palomo,Weslaco,54.88,124.74,61.23,147.42,333.39,Single-ply,SBD,M
Boys,55.79,7,Juan Dominguez,PSJA North,52.16,120.2,63.5,124.74,308.44,Single-ply,SBD,M
Boys,59.87,1,Alexis Gonzalez #3,PSJA North,59.87,149.69,88.45,161.03,399.16,Single-ply,SBD,M
Boys,67.13,2,Mike Gonzalez,Weslaco East,60.01,147.42,90.72,158.76,396.89,Single-ply,SBD,M
Boys,59.87,3,Branden Barajas,Hidalgo Early College,59.42,117.93,70.31,165.56,353.8,Single-ply,SBD,M
Boys,59.87,4,Joel Oyervides,Mission,58.06,104.33,88.45,138.35,331.12,Single-ply,SBD,M
Boys,59.87,5,Artemio Balderas,PSJA Memorial,58.97,127.01,70.31,120.2,317.51,Single-ply,SBD,M
Boys,59.87,DQ,Vince Hernandez,Pharr Valley View,58.51,,,,,Single-ply,SBD,M
Boys,59.87,DQ,Carlos Jaimez,Hidalgo Early College,57.61,,,,,Single-ply,SBD,M
Boys,67.13,DQ,Matthew Ortiz,Weslaco,59.96,,,,,Single-ply,SBD,M
Boys,67.13,1,Victor Acosta,Pharr Valley View,64.86,210.92,131.54,188.24,530.7,Single-ply,SBD,M
Boys,74.84,2,Marcus Caceres,Weslaco East,67.31,174.63,120.2,188.24,483.08,Single-ply,SBD,M
Boys,67.13,3,Jorge Cavazos,Mercedes,65.32,163.29,102.06,158.76,424.11,Single-ply,SBD,M
Boys,67.13,4,Kevin Gonzalez,Rio Grande City Grulla,66.22,147.42,95.25,147.42,390.09,Single-ply,SBD,M
Boys,67.13,5,Oscar Casanova,Mission,65.77,138.35,83.91,142.88,365.14,Single-ply,SBD,M
Boys,67.13,6,Daniel Mireles,PSJA Memorial,63.05,124.74,63.5,115.67,303.91,Single-ply,SBD,M
Boys,67.13,DQ,Aaron Anguiano,Pharr Valley View,65.32,,,,,Single-ply,SBD,M
Boys,67.13,DQ,Oscar Monjaras,Pharr Valley View,65.77,210.92,,,,Single-ply,SBD,M
Boys,67.13,DQ,Joseph Gonzales,Mercedes,65.77,147.42,,,,Single-ply,SBD,M
Boys,74.84,1,Erin Estevanes,Weslaco,73.03,208.65,131.54,235.87,576.06,Single-ply,SBD,M
Boys,74.84,2,Gilbert Guajardo,Pharr Valley View,73.94,213.19,117.93,210.92,542.04,Single-ply,SBD,M
Boys,74.84,3,Jesus Rodriguez,PSJA Memorial,68.95,204.12,122.47,183.7,510.29,Single-ply,SBD,M
Boys,74.84,4,Diego Hernandez,La Joya Palmview,71.44,195.04,108.86,199.58,503.49,Single-ply,SBD,M
Boys,74.84,5,Chris Jackson #13,Weslaco,71.21,197.31,106.59,197.31,501.22,Single-ply,SBD,M
Boys,74.84,6,Jacob Hernandez,PSJA Memorial,72.57,167.83,115.67,183.7,467.2,Single-ply,SBD,M
Boys,74.84,7,Alec Gonzalez,Mercedes,70.31,172.37,102.06,185.97,460.4,Single-ply,SBD,M
Boys,74.84,8,Freddy Martinez,La Joya Juarez-Lincoln,73.48,161.03,104.33,165.56,430.91,Single-ply,SBD,M
Boys,74.84,9,Brandon Ramos,La Joya,73.48,192.78,83.91,151.95,428.64,Single-ply,SBD,M
Boys,74.84,10,Johnny Martinez,Mission Veterans Memorial,68.04,156.49,92.99,170.1,419.57,Single-ply,SBD,M
Boys,74.84,11,Eric Hinojosa,Mercedes,72.57,151.95,90.72,151.95,394.63,Single-ply,SBD,M
Boys,74.84,12,Michael Valle,Hidalgo Early College,69.85,145.15,72.57,161.03,378.75,Single-ply,SBD,M
Boys,74.84,13,Edgar Hernandez,La Joya Palmview,70.31,124.74,95.25,145.15,365.14,Single-ply,SBD,M
Boys,74.84,14,Andre Martinez,PSJA North,73.48,136.08,90.72,131.54,358.34,Single-ply,SBD,M
Boys,74.84,15,AJ Munguia,Mission Veterans Memorial,67.59,124.74,86.18,117.93,328.85,Single-ply,SBD,M
Boys,74.84,16,Justin Jimenez,PSJA,68.95,97.52,61.23,97.52,256.28,Single-ply,SBD,M
Boys,74.84,DQ,Harold Ramirez,Rio Grande City Grulla,74.71,170.1,,,,Single-ply,SBD,M
Boys,82.1,DQ,Jessie Trevino,Weslaco East,75.02,145.15,,,,Single-ply,SBD,M
Boys,74.84,DQ,Joseph Segovia,Mission,72.12,,,,,Single-ply,SBD,M
Boys,82.1,1,Robert Hernandez,La Joya Juarez-Lincoln,78.47,219.99,131.54,229.06,580.6,Single-ply,SBD,M
Boys,82.1,2,Jesus Reyna,Weslaco,80.74,210.92,122.47,231.33,564.72,Single-ply,SBD,M
Boys,82.1,3,Ricardo Vela,Hidalgo Early College,77.56,204.12,120.2,238.14,562.45,Single-ply,SBD,M
Boys,82.1,4,Salvador Castillo,Mission Sharyland,78.02,199.58,113.4,233.6,546.58,Single-ply,SBD,M
Boys,82.1,5,Colton Kaufman,Mission Veterans Memorial,79.83,174.63,115.67,215.46,505.76,Single-ply,SBD,M
Boys,82.1,6,Justin Leanos,La Joya,81.19,201.85,115.67,188.24,505.76,Single-ply,SBD,M
Boys,82.1,7,Yonny Villarreal,La Joya,81.19,206.38,102.06,190.51,498.95,Single-ply,SBD,M
Boys,89.81,8,Lazaro Rodriguez,PSJA Memorial,82.19,183.7,104.33,190.51,478.54,Single-ply,SBD,M
Boys,82.1,9,Jorge Gutierrez,PSJA Memorial,81.65,176.9,122.47,163.29,462.66,Single-ply,SBD,M
Boys,82.1,10,Sérgio Silva,La Joya Juarez-Lincoln,81.65,170.1,108.86,181.44,460.4,Single-ply,SBD,M
Boys,82.1,11,Derrick Matamoros,PSJA Memorial,77.11,167.83,86.18,174.63,428.64,Single-ply,SBD,M
Boys,82.1,12,Isaac Aleman,Hidalgo Early College,80.74,151.95,111.13,165.56,428.64,Single-ply,SBD,M
Boys,82.1,13,Christian Lara,La Joya Palmview,81.87,158.76,102.06,151.95,412.77,Single-ply,SBD,M
Boys,82.1,14,Nicolas Hinojosa,La Joya,81.65,136.08,117.93,145.15,399.16,Single-ply,SBD,M
Boys,89.81,15,Andrew Cantu,Mission Sharyland,82.28,154.22,90.72,154.22,399.16,Single-ply,SBD,M
Boys,82.1,16,Josue Sanchez,Mission,75.75,145.15,104.33,131.54,381.02,Single-ply,SBD,M
Boys,82.1,17,Angel Ortiz,La Joya Palmview,81.83,133.81,88.45,140.61,362.87,Single-ply,SBD,M
Boys,82.1,DQ,Rusbel Aguirre,Mission,80.74,179.17,,,,Single-ply,SBD,M
Boys,82.1,DQ,Anthony Vallejo,Mercedes,80.74,136.08,,,,Single-ply,SBD,M
Boys,82.1,DQ,Jesus Barrientes,Mercedes,81.65,165.56,,,,Single-ply,SBD,M
Boys,82.1,DQ,Ernesto Preciado,Pharr Valley View,80.74,,,,,Single-ply,SBD,M
Boys,89.81,1,Gilbert Trevino,Weslaco,88,256.28,165.56,226.8,648.64,Single-ply,SBD,M
Boys,89.81,2,Julio Garcia,La Joya Juarez-Lincoln,86.64,217.72,136.08,226.8,580.6,Single-ply,SBD,M
Boys,89.81,3,Fernando Hernandez,La Joya Juarez-Lincoln,88.9,208.65,129.27,215.46,553.38,Single-ply,SBD,M
Boys,89.81,4,Pedro Quiroz,Hidalgo Early College,84.82,176.9,138.35,222.26,537.51,Single-ply,SBD,M
Boys,89.81,5,Javier Elizondo,Mission Sharyland,87.09,183.7,147.42,206.38,537.51,Single-ply,SBD,M
Boys,89.81,6,Joseph Rios,Mission,85.73,192.78,129.27,195.04,517.1,Single-ply,SBD,M
Boys,99.79,7,David Decanini #2,Weslaco East,89.9,183.7,122.47,199.58,505.76,Single-ply,SBD,M
Boys,89.81,8,David Cantu,Mission Sharyland,89.36,204.12,102.06,181.44,487.61,Single-ply,SBD,M
Boys,99.79,9,Lazaro Bernabe,Hidalgo Early College,89.99,181.44,97.52,183.7,462.66,Single-ply,SBD,M
Boys,89.81,10,Eddie Hernandez,La Joya Juarez-Lincoln,84.37,174.63,111.13,167.83,453.59,Single-ply,SBD,M
Boys,89.81,11,Fernando Castro,Hidalgo Early College,86.64,165.56,106.59,174.63,446.79,Single-ply,SBD,M
Boys,89.81,12,Quiten Martinez,Rio Grande City,84.37,176.9,83.91,183.7,444.52,Single-ply,SBD,M
Boys,89.81,13,Jonathan Garcia #7,PSJA Memorial,88.45,161.03,117.93,163.29,442.25,Single-ply,SBD,M
Boys,89.81,14,Bryan Smith #4,Mercedes,83.46,165.56,108.86,165.56,439.98,Single-ply,SBD,M
Boys,89.81,15,Albino Mendez,Pharr Valley View,88.9,176.9,102.06,158.76,437.72,Single-ply,SBD,M
Boys,89.81,16,Joel Moreno,Mission Sharyland,89.36,151.95,102.06,183.7,437.72,Single-ply,SBD,M
Boys,99.79,17,Jerald Garza,Weslaco East,89.99,149.69,102.06,172.37,424.11,Single-ply,SBD,M
Boys,89.81,18,Carlos Martinez,PSJA,88.9,136.08,113.4,158.76,408.23,Single-ply,SBD,M
Boys,89.81,19,David Garza,PSJA North,87.09,145.15,81.65,156.49,383.29,Single-ply,SBD,M
Boys,89.81,20,Esteban Licerio,Mission Veterans Memorial,89.36,131.54,81.65,158.76,371.95,Single-ply,SBD,M
Boys,109.77,1,Israel Alfaro,Weslaco East,99.88,244.94,165.56,222.26,632.76,Single-ply,SBD,M
Boys,99.79,2,Leroy Rodriguez,La Joya Palmview,99.56,240.4,129.27,217.72,587.4,Single-ply,SBD,M
Boys,99.79,3,Miguel Santos,Weslaco East,96.16,183.7,151.95,206.38,542.04,Single-ply,SBD,M
Boys,99.79,4,Armando Chavero,Rio Grande City,98.88,185.97,142.88,192.78,521.63,Single-ply,SBD,M
Boys,99.79,5,Sam Rodriguez,La Joya,99.34,195.04,133.81,192.78,521.63,Single-ply,SBD,M
Boys,109.77,6,Frank Aguilar,La Joya Juarez-Lincoln,100.02,176.9,129.27,195.04,501.22,Single-ply,SBD,M
Boys,99.79,7,Zeke Gutierrez,Mission,97.07,204.12,95.25,195.04,494.42,Single-ply,SBD,M
Boys,99.79,8,Jaime Vera,Rio Grande City,94.8,172.37,111.13,204.12,487.61,Single-ply,SBD,M
Boys,99.79,9,Brandon Flores,Mission Veterans Memorial,97.98,183.7,102.06,172.37,458.13,Single-ply,SBD,M
Boys,99.79,10,Daniel Villarreal,La Joya,98.88,172.37,115.67,165.56,453.59,Single-ply,SBD,M
Boys,99.79,11,Oscar Pena,Mission Veterans Memorial,94.8,147.42,102.06,199.58,449.06,Single-ply,SBD,M
Boys,99.79,12,Adolfo Trevino,Mission Sharyland,97.07,170.1,108.86,147.42,426.38,Single-ply,SBD,M
Boys,99.79,13,Ruben Guerra,Mission,94.8,133.81,86.18,138.35,358.34,Single-ply,SBD,M
Boys,99.79,DQ,Manuel Garza,Hidalgo Early College,97.98,226.8,120.2,,,Single-ply,SBD,M
Boys,109.77,1,Fernando Gonzalez,La Joya Palmview,105.87,265.35,142.88,204.12,612.35,Single-ply,SBD,M
Boys,109.77,2,Rey Rodriguez,Pharr Valley View,100.7,247.21,120.2,208.65,576.06,Single-ply,SBD,M
Boys,124.74,3,Jose Gomez,Mercedes,109.86,222.26,131.54,213.19,566.99,Single-ply,SBD,M
Boys,109.77,4,Jose Constantino,Mercedes,105.69,222.26,133.81,204.12,560.19,Single-ply,SBD,M
Boys,124.74,5,Arturo Gutierrez,La Joya Palmview,109.81,226.8,113.4,219.99,560.19,Single-ply,SBD,M
Boys,109.77,6,Andres Enriquez,PSJA,106.59,226.8,142.88,188.24,557.92,Single-ply,SBD,M
Boys,109.77,7,Heriberto Hernandez,Weslaco,100.7,210.92,122.47,213.19,546.58,Single-ply,SBD,M
Boys,109.77,8,Diego Lopez,PSJA North,109.32,213.19,124.74,192.78,530.7,Single-ply,SBD,M
Boys,109.77,9,Daniel Gonzalez,La Joya Juarez-Lincoln,102.06,199.58,108.86,215.46,523.9,Single-ply,SBD,M
Boys,109.77,10,Vicente Palacios,PSJA North,100.24,204.12,124.74,188.24,517.1,Single-ply,SBD,M
Boys,109.77,11,Hilton Burleson,La Joya Palmview,107.95,195.04,131.54,183.7,510.29,Single-ply,SBD,M
Boys,109.77,12,Jacob Rodriguez #5,Weslaco,108.41,197.31,129.27,183.7,510.29,Single-ply,SBD,M
Boys,109.77,13,Daniel Martinez #17,La Joya Juarez-Lincoln,107.05,197.31,131.54,161.03,489.88,Single-ply,SBD,M
Boys,109.77,14,Jose de Leon #1,Mission,108.41,188.24,102.06,188.24,478.54,Single-ply,SBD,M
Boys,109.77,15,Roel Sosa,La Joya,104.78,181.44,120.2,170.1,471.74,Single-ply,SBD,M
Boys,109.77,16,Juan Resendez,La Joya,102.97,170.1,115.67,174.63,460.4,Single-ply,SBD,M
Boys,109.77,17,Jose Guerrero,Rio Grande City,106.59,147.42,111.13,183.7,442.25,Single-ply,SBD,M
Boys,109.77,18,Alberto Canales,La Joya,106.59,172.37,106.59,147.42,426.38,Single-ply,SBD,M
Boys,109.77,19,Fernando Robles,Rio Grande City,109.32,174.63,74.84,158.76,408.23,Single-ply,SBD,M
Boys,109.77,20,Luis Salinas,Rio Grande City,101.6,147.42,92.99,151.95,392.36,Single-ply,SBD,M
Boys,109.77,DQ,Roger Benavides,Rio Grande City,108.41,231.33,,,,Single-ply,SBD,M
Boys,109.77,DQ,Rj Leal,PSJA North,102.51,147.42,,,,Single-ply,SBD,M
Boys,124.74,1,Andrew Salazar,Pharr Valley View,117.03,263.08,190.51,222.26,675.85,Single-ply,SBD,M
Boys,124.74,2,Nazario Garcia,Rio Grande City Grulla,120.2,251.74,167.83,247.21,666.78,Single-ply,SBD,M
Boys,124.74,3,Ricky Leyva,La Joya,119.29,222.26,127.01,201.85,551.11,Single-ply,SBD,M
Boys,124.74,4,Alfonso Cerda,Weslaco,122.47,208.65,129.27,199.58,537.51,Single-ply,SBD,M
Boys,124.74,5,Fabian Ramirez,PSJA North,124.28,199.58,131.54,192.78,523.9,Single-ply,SBD,M
Boys,124.74+,6,Andres Garcia,Weslaco East,124.92,183.7,124.74,183.7,492.15,Single-ply,SBD,M
Boys,124.74,7,Jaime Morin,Rio Grande City,123.83,176.9,120.2,167.83,464.93,Single-ply,SBD,M
Boys,124.74,8,Miguel Torres,Mission Veterans Memorial,116.12,183.7,129.27,149.69,462.66,Single-ply,SBD,M
Boys,124.74,9,Eric Alvarado,PSJA,112.49,174.63,117.93,151.95,444.52,Single-ply,SBD,M
Boys,124.74,DQ,Matthew Garcia,Weslaco East,114.31,,,,,Single-ply,SBD,M
Boys,124.74,DQ,Rick Espinoza,La Joya Palmview,118.98,204.12,,,,Single-ply,SBD,M
Boys,124.74+,1,Zeke Garza,La Joya,142.88,288.03,145.15,258.55,691.73,Single-ply,SBD,M
Boys,124.74+,2,Edgar Rodriguez,Rio Grande City,127.46,260.82,129.27,222.26,612.35,Single-ply,SBD,M
Boys,124.74+,3,Carlos Alvarez,La Joya Palmview,155.4,204.12,129.27,249.48,582.87,Single-ply,SBD,M
Boys,124.74+,4,Daniel Solis,La Joya,149.69,201.85,99.79,192.78,494.42,Single-ply,SBD,M
Boys,124.74+,5,Brandon Perez #2,Weslaco,151.05,183.7,115.67,192.78,492.15,Single-ply,SBD,M
Boys,124.74+,6,Rolando Suarez,PSJA,143.79,158.76,165.56,142.88,467.2,Single-ply,SBD,M
Boys,124.74+,DQ,Danny Melendez,Mercedes,143.34,,,,,Single-ply,SBD,M
Boys,124.74+,DQ,Jacob Escobedo,PSJA Memorial,127.01,240.4,127.01,,,Single-ply,SBD,M
Boys,124.74+,DQ,Manuel Mata,PSJA North,128.37,272.16,,,,Single-ply,SBD,M
