Sex,WeightClassKg,EntryDate,Name,BirthDate,Country,Bench1Kg,Bench2Kg,Bench3Kg,Best3BenchKg,Bench4Kg,TotalKg,BodyweightKg,Event,Equipment,Division,Place
M,49,2014-10-19,Takashi Matsumoto,1969-10-11,Japan,-85,-85,85,85,,85,40.04,B,Raw,Open,10
M,49,2014-10-19,Eay Simay,1981-03-05,Laos,-145,-146,-150,,,,47.57,B,Raw,Open,DQ
M,49,2014-10-19,Esen Kaliev,1983-01-02,Kyrgyzstan,143,-147,-151,143,,143,48.77,B,Raw,Open,5
M,49,2014-10-19,Keun Jin Choi,1976-11-13,South Korea,130,135,137,137,,137,47.86,B,Raw,Open,6
M,49,2014-10-19,Farman Basha,1974-03-25,India,146,148,155,155,,155,47.64,B,Raw,Open,3
M,49,2014-10-19,Krishna Kumar Rai,1973-06-24,Nepal,,,,,,,,B,Raw,Open,DQ
M,49,2014-10-19,Van Cong Le,1984-06-20,Vietnam,178,-181.5,181.5,181.5,,181.5,48.23,B,Raw,Open,1
M,49,2014-10-19,Hiroshi Miura,1964-10-14,Japan,121,-126,-127,121,,121,48.63,B,Raw,Open,8
M,49,2014-10-19,Mustafa Radhi,1990-12-02,Iraq,168,-172,-179,168,,168,48.37,B,Raw,Open,2
M,49,2014-10-19,Sandun Wasana Perera Batapola Mudalige,1969-09-02,Sri Lanka,124,126,-127,126,,126,48.72,B,Raw,Open,7
M,49,2014-10-19,Mohammad Karimi,1982-09-25,Iran,146,150,-156,150,,150,48.81,B,Raw,Open,4
M,49,2014-10-19,Yahya Abou Mughdeb,1979-09-15,Syria,120,-127,-127,120,,120,48.4,B,Raw,Open,9
M,54,2014-10-20,Hussein Juboori,1982-04-22,Iraq,-160,-162,162,162,,162,53.84,B,Raw,Open,3
M,54,2014-10-20,Pia Laophakdee,1989-12-12,Laos,143,-150,-150,143,,143,50.69,B,Raw,Open,5
M,54,2014-10-20,Silverio Martins Soares,1990-01-05,East Timor,-85,-90,-90,,,,53.29,B,Raw,Open,DQ
M,54,2014-10-20,Carlito Pereira,1983-11-10,East Timor,-90,-95,-95,,,,51.96,B,Raw,Open,DQ
M,54,2014-10-20,Choochat Sukjarern,1975-12-01,Thailand,150,161,-165,161,,161,53.9,B,Raw,Open,4
M,54,2014-10-20,Qi Feng,1991-02-24,China,160,165,-167,165,,165,53.96,B,Raw,Open,2
M,54,2014-10-20,Tetsuo Nishizaki,1977-04-26,Japan,123,-130,-132,123,,123,52.86,B,Raw,Open,6
M,54,2014-10-20,Krishna Raj Chaudhary,1981-11-27,Nepal,-70,-70,-75,,,,53.95,B,Raw,Open,DQ
M,54,2014-10-20,Binh An Nguyen,1985-01-28,Vietnam,-176,176,-179,176,179,176,53.39,B,Raw,Open,1
M,54,2014-10-20,Yuji Okada,1976-07-16,Japan,97,102,-108,102,,102,53.56,B,Raw,Open,8
M,54,2014-10-20,Razhabali Eshonkulov,1989-02-20,Kyrgyzstan,-110,110,-115,110,,110,53.49,B,Raw,Open,7
M,59,2014-10-20,Hamzeh Mohammadi,1978-04-13,Iran,181,-185,185,185,,185,58.92,B,Raw,Open,2
M,59,2014-10-20,Amir Jafari Arangeh,1985-12-22,Iran,180,184,186,186,188,186,58.89,B,Raw,Open,1
M,59,2014-10-20,Ilhom Tursunov,1978-09-02,Tajikistan,,,,,,,,B,Raw,Open,DQ
M,59,2014-10-20,Raju Gurung,1987-04-14,Nepal,,,,,,,,B,Raw,Open,DQ
M,59,2014-10-20,Hasan Al-Tameemi,1977-08-12,Iraq,162,-176,,162,,162,58.92,B,Raw,Open,5
M,59,2014-10-20,Narong Kasanun,1977-07-04,Thailand,-172,-172,172,172,,172,58.59,B,Raw,Open,3
M,59,2014-10-20,Agustin Kitan,1976-08-06,Philippines,150,-157,-163,150,,150,58.98,B,Raw,Open,7
M,59,2014-10-20,Mekan Agalikov,1988-09-28,Turkmenistan,155,-158,-162,155,,155,58.07,B,Raw,Open,6
M,59,2014-10-20,Mohammad Tarbash,1984-06-09,Jordan,-160,-162,162,162,,162,58.3,B,Raw,Open,4
M,65,2014-10-21,Lei Liu,1987-11-16,China,205,-210.5,-212,205,,205,64.6,B,Raw,Open,2
M,65,2014-10-21,Phongsakon Chumchai,1975-07-14,Thailand,-155,155,-167,155,,155,63.49,B,Raw,Open,6
M,65,2014-10-21,Faisal Mustafa Ahmad Hammash,1977-05-06,Jordan,-160,-163,163,163,,163,64.29,B,Raw,Open,5
M,65,2014-10-21,Aibek Abzhan,1992-07-03,Kazakhstan,123,-127,-133,123,,123,63.73,B,Raw,Open,10
M,65,2014-10-21,Himal Aryal,1980-06-20,Nepal,-65,-65,65,65,,65,60.89,B,Raw,Open,11
M,65,2014-10-21,Saif Mohamed Zaabi,1979-08-30,UAE,125,132,135,135,,135,64.46,B,Raw,Open,7
M,65,2014-10-21,Shadi Issa,1986-06-04,Syria,163,166,168,168,,168,64.85,B,Raw,Open,3
M,65,2014-10-21,Takashi Jo,1960-01-27,Japan,103,113,123,123,,123,63.08,B,Raw,Open,9
M,65,2014-10-21,Kampa Pongtao,1977-11-02,Thailand,161,165,167,167,,167,64.67,B,Raw,Open,4
M,65,2014-10-21,Phouthavong Sisavengsouk,1980-01-01,Laos,-145,-145,-150,,,,64.44,B,Raw,Open,DQ
M,65,2014-10-21,Zhyrgalbek Balbakov,1980-07-27,Kyrgyzstan,-127,127,-133,127,,127,64.47,B,Raw,Open,8
M,65,2014-10-21,Rasool Mohsin,1987-11-17,Iraq,200,211,213,213,217,213,64.28,B,Raw,Open,1
M,72,2014-10-21,Ma Hussein Mat Noh,1980-08-05,Malaysia,146,-152,152,152,,152,71.77,B,Raw,Open,5
M,72,2014-10-21,Jung-Hoon Moon,1980-01-29,South Korea,151,156,162,162,,162,71.46,B,Raw,Open,3
M,72,2014-10-21,Rakhmetzhan Khamayev,1986-11-25,Kazakhstan,150,155,-161,155,,155,71.35,B,Raw,Open,4
M,72,2014-10-21,Jayasinghe Rathnayaka Rathnayaka Mudiyanselage,1983-04-22,Sri Lanka,-137,-137,-137,,,,71.27,B,Raw,Open,DQ
M,72,2014-10-21,Sergey Meladze,1980-04-01,Turkmenistan,185,-191,-196,185,,185,71.19,B,Raw,Open,2
M,72,2014-10-21,Yoshiki Sano,1968-09-06,Japan,134,-139,141,141,,141,70.95,B,Raw,Open,6
M,72,2014-10-21,Abdelkareem Mohmmad Ahmad Khattab,1991-09-04,Jordan,190,195,197,197,,197,71,B,Raw,Open,1
M,72,2014-10-21,Ruslan Dolobayev,1974-08-10,Kazakhstan,128,135,-140,135,,135,69.95,B,Raw,Open,7
M,80,2014-10-22,Abdalla Alnaqbi,1991-07-01,UAE,,,,,,,,B,Raw,Open,DQ
M,80,2014-10-22,Hajime Ujiro,1973-01-28,Japan,-183,183,-186,183,,183,79.29,B,Raw,Open,5
M,80,2014-10-22,Anto. Boi,1978-07-03,Indonesia,-190,192,-194,192,,192,78.55,B,Raw,Open,4
M,80,2014-10-22,Nobuhiro Saitoh,1967-04-10,Japan,130,142,-154,142,,142,78.61,B,Raw,Open,8
M,80,2014-10-22,Nodarzhan Khamrullayev,1970-10-18,Kazakhstan,155,160,162,162,,162,79.34,B,Raw,Open,6
M,80,2014-10-22,Khalid Gul Al Bulushi,1974-11-06,Oman,148,153,156,156,,156,76.91,B,Raw,Open,7
M,80,2014-10-22,Rajinder Singh Rahelu,1973-07-22,India,-185,-190,-192,,,,76.4,B,Raw,Open,DQ
M,80,2014-10-22,Badar Salim Saif Al Tamtami,1980-12-31,Oman,-120,-120,120,120,,120,78.37,B,Raw,Open,9
M,80,2014-10-22,Majid Farzin,1984-04-29,Iran,221,230,-232,230,,230,78.86,B,Raw,Open,2
M,80,2014-10-22,Xiao-Fei Gu,1989-03-14,China,225,231,-237,231,-237,231,78.68,B,Raw,Open,1
M,80,2014-10-22,Thongsa Marasri,1975-01-30,Thailand,185,191,193,193,,193,72.42,B,Raw,Open,3
M,88,2014-10-22,Hideki Odo,1974-10-17,Japan,190,-195,-203,190,,190,82.27,B,Raw,Open,4
M,88,2014-10-22,Prasit Thongdee,1981-11-19,Thailand,175,180,-185,180,,180,84.26,B,Raw,Open,5
M,88,2014-10-22,Abdulla Ismail Bin Farhan,1992-09-22,UAE,160,166,-170,166,,166,85.06,B,Raw,Open,8
M,88,2014-10-22,Sodnompiljee Enkhbayar,1985-08-24,Mongolia,195,200,205,205,,205,87.18,B,Raw,Open,3
M,88,2014-10-22,Yegor Bolinger,1994-04-07,Kazakhstan,133,137,-140,137,-140,137,84.67,B,Raw,Open,10
M,88,2014-10-14,Seyed Hamed Solhipour Avanji,1989-05-22,Iran,215,226,-229.5,226,229.5,226,87.02,B,Raw,Open,1
M,88,2014-10-22,Nurul Azhar Norrin,1986-06-21,Malaysia,-172,172,176,176,,176,86.43,B,Raw,Open,6
M,88,2014-10-22,Mu'taz Zakaria Daoud Al Juneidi,1976-04-02,Jordan,220,-225,-227,220,,220,87.23,B,Raw,Open,2
M,88,2014-10-22,Bayramgeldi Saparov,1972-11-18,Turkmenistan,170,175,-182,175,,175,87.31,B,Raw,Open,7
M,88,2014-10-22,Janet Zhakiyen,1967-07-26,Kazakhstan,150,155,-162,155,,155,83.97,B,Raw,Open,9
M,88,2014-10-22,Hamad Alashar,1995-09-28,Bahrain,105,-113,-113,105,,105,83.1,B,Raw,Open,11
M,88,2014-10-22,Abdul Latif Abdul Majeed Abdul Al Zadjali,1980-02-22,Oman,-110,-110,-110,,,,86.42,B,Raw,Open,DQ
M,97,2014-10-23,Yee Khie Jong,1988-11-19,Malaysia,200,207,-213,207,,207,95.44,B,Raw,Open,3
M,97,2014-10-23,Mohammed Khamis Khalaf,1969-02-23,UAE,220,228,232,232,,232,91.68,B,Raw,Open,1
M,97,2014-10-23,Hero Pariyono,1978-07-23,Indonesia,-190,190,-201,190,,190,95.02,B,Raw,Open,4
M,97,2014-10-23,Ibrahim Almusaabi,1995-04-25,UAE,105,-107,-108,105,,105,95.46,B,Raw,Open,7
M,97,2014-10-23,Serik Spatilov,1970-01-18,Kazakhstan,145,-151,-153,145,,145,93.65,B,Raw,Open,6
M,97,2014-10-23,Vadim Dukart,1973-10-11,Kazakhstan,145,150,-152,150,,150,90.01,B,Raw,Open,5
M,97,2014-10-23,Saman Razi,1986-03-24,Iran,201,208,-213,208,,208,95.1,B,Raw,Open,2
M,107,2014-10-23,Mohd Shahmil Md Saad,1986-05-14,Malaysia,192,-197,-197,192,,192,102.24,B,Raw,Open,2
M,107,2014-10-23,Zhyrgalbek Orosbaev,1993-07-19,Kyrgyzstan,180,-186,-186,180,,180,104.6,B,Raw,Open,4
M,107,2014-10-23,Yousuf Khan Nabizada,1984-09-11,Afghanistan,,,,,,,,B,Raw,Open,DQ
M,107,2014-10-23,Ali Sadeghzadeh Salmani,1978-11-30,Iran,215,225,-232.5,225,232.5,225,105.43,B,Raw,Open,1
M,107,2014-10-23,Haidarah Abdallah Hasan Alkawamleh,1979-08-16,Jordan,-200,-200,-200,,,,101.74,B,Raw,Open,DQ
M,107,2014-10-23,Prakit Tongsang,1984-07-21,Thailand,-185,185,-192,185,,185,98.57,B,Raw,Open,3
M,107,2014-10-23,Spartak Ramazanov,1983-02-02,Turkmenistan,175,-185,-185,175,,175,97.75,B,Raw,Open,5
M,107,2014-10-23,Sung Yun Jung,1983-11-19,South Korea,-172,172,-176,172,,172,105.04,B,Raw,Open,6
M,107+,2014-10-24,Ahmed Khamis Albaloushi,1974-12-01,UAE,,,,,,,,B,Raw,Open,DQ
M,107+,2014-10-24,Keun Bae Chun,1978-01-01,South Korea,225,235,-240,235,,235,154,B,Raw,Open,3
M,107+,2014-10-24,Mashal Alkhazai,1979-11-30,Saudi Arabia,185,190,-195,190,,190,131.1,B,Raw,Open,4
M,107+,2014-10-24,Mansour Pourmirzaei,1980-09-21,Iran,245,255,-265,255,,255,154.16,B,Raw,Open,2
M,107+,2014-10-24,Mohd Fahim Rahimi,1980-07-31,Afghanistan,,,,,,,,B,Raw,Open,DQ
M,107+,2014-10-24,Khalid Al Najim,1984-12-08,Saudi Arabia,185,-190,-190,185,,185,148.36,B,Raw,Open,5
M,107+,2014-10-24,Siamand Rahman,1988-03-21,Iran,272,287,290,290,292.5,290,176.12,B,Raw,Open,1
F,41,2014-10-19,Zhe Cui,1986-12-01,China,95,98,-103.5,98,-103.5,98,39.22,B,Raw,Open,1
F,41,2014-10-19,Ni Nengah Widiasih,1992-12-12,Indonesia,-93,93,-104,93,,93,40.04,B,Raw,Open,2
F,41,2014-10-19,Marydol Pamati-An,1984-02-17,Philippines,-55,-55,60,60,,60,40.24,B,Raw,Open,5
F,41,2014-10-19,Thi Hong Nguyen,1979-03-17,Vietnam,78,81,-84,81,,81,40.92,B,Raw,Open,4
F,41,2014-10-19,Noura Baddour,1984-11-13,Syria,80,83,85,85,,85,36,B,Raw,Open,3
F,45,2014-10-19,Dandan Hu,1989-03-10,China,92,98,99,99,,99,43.64,B,Raw,Open,1
F,45,2014-10-19,Achelle Guion,1971-12-29,Philippines,67,70,-72,70,,70,43.36,B,Raw,Open,2
F,45,2014-10-19,Hiromi Kobayashi,1969-03-12,Japan,-62,62,-66,62,,62,43.24,B,Raw,Open,3
F,45,2014-10-19,Ban Almatwari,1993-08-19,Iraq,-57,60,-63,60,,60,44.23,B,Raw,Open,4
F,50,2014-10-20,Sakina Khatun,1989-06-20,India,78,81,-87,81,,81,46,B,Raw,Open,4
F,50,2014-10-20,Wandi Kongmuang,1967-05-05,Thailand,81,86,89,89,93,89,49.05,B,Raw,Open,1
F,50,2014-11-20,Yunki Shin,1968-03-12,South Korea,68,73,-76,73,,73,48.68,B,Raw,Open,5
F,50,2014-10-20,Thi Linh Phuong Dang,1983-04-12,Vietnam,80,-85,88,88,,88,48.92,B,Raw,Open,2
F,50,2014-11-20,Zahraa Al Maliki,1997-01-04,Iraq,68,-72,-72,68,,68,47.44,B,Raw,Open,6
F,50,2014-10-20,Rani Puji Astuti,1983-03-10,Indonesia,75,-80,82,82,,82,48.81,B,Raw,Open,3
F,55,2014-10-20,Keum Hee Kim,1966-03-20,South Korea,60,-65,-65,60,,60,54.57,B,Raw,Open,6
F,55,2014-10-20,Hoang Tuyet Loan Chau,1975-02-08,Vietnam,95,100,103,103,,103,51.15,B,Raw,Open,2
F,55,2014-10-20,Ya-Hsuan Lin,1976-08-11,Taiwan,76,79,80,80,,80,54.39,B,Raw,Open,3
F,55,2014-10-20,Shanshan Shi,1988-12-13,China,100,106,110,110,-116.5,110,51.79,B,Raw,Open,1
F,55,2014-10-20,Hat Motnok,1977-02-03,Thailand,71,-76,-76,71,,71,54.58,B,Raw,Open,5
F,55,2014-10-20,Gulbanu Abdykhalykova,1972-09-15,Kazakhstan,70,73,-76,73,,73,54.14,B,Raw,Open,4
F,55,2014-10-20,Hyun Suk Kim,1996-02-29,South Korea,43,-47,-47,43,,43,54.47,B,Raw,Open,7
F,61,2014-10-21,Natali Elias,1980-05-25,Syria,88,-91,-91,88,,88,60.43,B,Raw,Open,5
F,61,2014-10-21,Valentina Zavarayeva,1987-01-25,Turkmenistan,93,98,102,102,,102,60.12,B,Raw,Open,2
F,61,2014-10-21,Dhikra Saleem,1981-12-29,Iraq,95,100,-102,100,,100,60.97,B,Raw,Open,3
F,61,2014-10-21,Hyeong Hui Kim,1973-10-21,South Korea,-90,94,-99,94,,94,60.36,B,Raw,Open,4
F,61,2014-10-21,Yan Yang,1985-11-13,China,108,116,118,118,119,118,55.91,B,Raw,Open,1
F,61,2014-10-21,Raushan Koishibayeva,1966-03-07,Kazakhstan,75,-78,80,80,,80,60.32,B,Raw,Open,6
F,67,2014-10-21,Yujiao Tan,1990-10-04,China,133,135,136,136,137,136,63.27,B,Raw,Open,1
F,67,2014-10-21,Somkhoun Anon,1977-10-14,Thailand,97,102,-110,102,,102,61.77,B,Raw,Open,2
F,67,2014-10-21,Rahayu,1991-02-05,Indonesia,90,-97,-100,90,,90,66.21,B,Raw,Open,3
F,67,2014-10-21,Gharam Alosmanee,1995-04-01,Iraq,-80,-82,84,84,87.5,84,,B,Raw,Open,4
F,73,2014-10-22,Mayagozel Ekeyeva,1986-05-05,Turkmenistan,95,98,-100,98,,98,71.88,B,Raw,Open,3
F,73,2014-10-22,Arawan Bootpo,1984-10-10,Thailand,110,113,116,116,-117,116,71.72,B,Raw,Open,1
F,73,2014-10-22,Hanan Majid Jumaah Al-Majidi,1990-12-07,Iraq,86,90,-99,90,,90,72.47,B,Raw,Open,5
F,73,2014-10-22,Rasha Alshikh,1975-04-10,Syria,100,107,-116,107,,107,72.68,B,Raw,Open,2
F,73,2014-10-22,Hwa-Jeong Lee,1963-09-15,South Korea,85,90,-98,90,,90,67.72,B,Raw,Open,4
F,73,2014-10-22,Parwana Sedeqi,1991-05-18,Afghanistan,,,,,,,,B,Raw,Open,DQ
F,79,2014-10-23,Tzu-Hui Lin,1981-11-05,Taiwan,113,-115,-115,113,,113,75.62,B,Raw,Open,1
F,79,2014-10-23,Ni Nengah Widiasih,1980-01-05,Indonesia,-90,90,-100,90,,90,74.65,B,Raw,Open,3
F,79,2014-10-23,Tharwh Tayseer Hamdan Alhajaj,1973-01-01,Jordan,108,-112,-114,108,,108,77.63,B,Raw,Open,2
F,86,2014-10-23,Xuemei Deng,1991-12-03,China,-105,106,112,112,-115,112,83.03,B,Raw,Open,1
F,86,2014-10-23,Haifa Naqbi,1981-08-12,UAE,70,90,-106,90,,90,83.23,B,Raw,Open,3
F,86,2014-10-23,Youngsun Lee,1967-10-16,South Korea,100,105,-111,105,,105,79.31,B,Raw,Open,2
F,86+,2014-10-23,Adeline Ancheta,1973-12-13,Philippines,115,-118,-122,115,,115,111.8,B,Raw,Open,2
F,86+,2014-10-23,Ansaf Alnuaimi,1980-02-06,UAE,45,52,-55,52,,52,91.62,B,Raw,Open,3
F,86+,2014-10-23,Hyun Jung Lee,1986-05-04,South Korea,108,115,-122,115,,115,100.08,B,Raw,Open,1
