Division,WeightClassKg,Place,Name,Team,BodyweightKg,Best3SquatKg,Best3BenchKg,Best3DeadliftKg,TotalKg,Equipment,Event,Sex
Girls,44.23,1,Jailin Munoz,Lago Vista,41.37,104.33,38.56,99.79,242.67,Single-ply,SBD,F
Girls,44.23,2,Hannah Zurovetz,Lago Vista,44.09,81.65,40.82,95.25,217.72,Single-ply,SBD,F
Girls,44.23,3,Haley Howton,Salado,38.92,81.65,36.29,90.72,208.65,Single-ply,SBD,F
Girls,44.23,4,Lily Buckley,Lago Vista,41.34,74.84,38.56,79.38,192.78,Single-ply,SBD,F
Girls,44.23,5,Remy Eckert,Stephenville,44,68.04,31.75,86.18,185.97,Single-ply,SBD,F
Girls,44.23,6,Aj Gamboa,San Saba,42.64,61.23,31.75,88.45,181.44,Single-ply,SBD,F
Girls,44.23,7,Jaton Wootton,San Saba,41.82,43.09,27.22,58.97,129.27,Single-ply,SBD,F
Girls,47.85,1,Madeline McCulloch,Salado,47.67,106.59,43.09,115.67,265.35,Single-ply,SBD,F
Girls,47.85,2,Vanessa Martinez,Brady,46.31,97.52,43.09,113.4,254.01,Single-ply,SBD,F
Girls,47.85,3,Serina Saucedo,Lago Vista,47.72,108.86,45.36,95.25,249.48,Single-ply,SBD,F
Girls,47.85,4,Brianna Brudney,Lampasas,44.5,81.65,38.56,92.99,213.19,Single-ply,SBD,F
Girls,47.85,5,Lora Weaver,Brady,46.49,88.45,31.75,88.45,208.65,Single-ply,SBD,F
Girls,47.85,6,Maci Holcomb,Lampasas,46.54,77.11,34.02,86.18,197.31,Single-ply,SBD,F
Girls,47.85,7,Emma Garcia,Lago Vista,46.99,79.38,38.56,79.38,197.31,Single-ply,SBD,F
Girls,51.94,1,Angel Galindo,Brady,50.8,122.47,58.97,111.13,292.57,Single-ply,SBD,F
Girls,51.94,2,Victoria Sanchez,Brownwood,51.8,99.79,43.09,113.4,256.28,Single-ply,SBD,F
Girls,51.94,3,Alyssia Aleman,Thrall,49.17,92.99,43.09,95.25,231.33,Single-ply,SBD,F
Girls,51.94,4,Cassidy Castlebarry,Junction,51.35,92.99,49.9,88.45,231.33,Single-ply,SBD,F
Girls,51.94,5,Jessie Robinson,Hamilton,51.3,52.16,29.48,68.04,149.69,Single-ply,SBD,F
Girls,51.94,DQ,Maddie Graham,Salado,51.75,124.74,72.57,,,Single-ply,SBD,F
Girls,56.02,1,Sarah Gautreaux,Thrall,54.98,136.08,65.77,113.4,315.25,Single-ply,SBD,F
Girls,56.02,2,Hanna Monroe,Brady,55.52,127.01,45.36,127.01,299.37,Single-ply,SBD,F
Girls,56.02,3,Raquel Morado,Brady,53.66,113.4,54.43,124.74,292.57,Single-ply,SBD,F
Girls,56.02,4,Aisha Martinez,Brady,55.02,113.4,54.43,117.93,285.76,Single-ply,SBD,F
Girls,56.02,5,Felicia Perez,Llano,55.7,117.93,49.9,108.86,276.69,Single-ply,SBD,F
Girls,56.02,6,Cameron Tuggle,Lago Vista,55.25,102.06,45.36,113.4,260.82,Single-ply,SBD,F
Girls,56.02,7,Jenna Vann,Lampasas,55.88,102.06,45.36,113.4,260.82,Single-ply,SBD,F
Girls,56.02,8,Taylor Guerrero #1,Santa Anna,54.04,106.59,38.56,102.06,247.21,Single-ply,SBD,F
Girls,56.02,9,Maritzza Villanueva,Sonora,54.04,90.72,43.09,108.86,242.67,Single-ply,SBD,F
Girls,56.02,10,Leilani Flores,Lampasas,54.07,102.06,52.16,88.45,242.67,Single-ply,SBD,F
Girls,56.02,11,Taylor Medlin,Stephenville,54.02,86.18,40.82,90.72,217.72,Single-ply,SBD,F
Girls,56.02,12,Madeline Murray,Salado,54.79,90.72,34.02,92.99,217.72,Single-ply,SBD,F
Girls,56.02,13,Sidney Beaver,Stephenville,55.88,74.84,31.75,83.91,190.51,Single-ply,SBD,F
Girls,56.02,14,Allie Lewis,Stephenville,53.98,68.04,38.56,72.57,179.17,Single-ply,SBD,F
Girls,60.1,1,Cassandra Carlton,Lago Vista,58.56,142.88,61.23,122.47,326.59,Single-ply,SBD,F
Girls,60.1,2,Andrea Jimenez,San Saba,59.48,115.67,56.7,131.54,303.91,Single-ply,SBD,F
Girls,60.1,3,Victoria Bell,Burnet,58.58,102.06,52.16,108.86,263.08,Single-ply,SBD,F
Girls,60.1,4,Jayci Craig,Burnet,58.12,108.86,40.82,104.33,254.01,Single-ply,SBD,F
Girls,60.1,5,Mariela Torres,Burnet,56.75,86.18,45.36,102.06,233.6,Single-ply,SBD,F
Girls,60.1,6,Shea Scott,San Saba,56.88,92.99,45.36,86.18,224.53,Single-ply,SBD,F
Girls,60.1,7,Jasmine Atchison,Brady,59.92,92.99,40.82,83.91,217.72,Single-ply,SBD,F
Girls,60.1,8,Bridget Resendiz,Marble Falls,58.06,86.18,29.48,86.18,201.85,Single-ply,SBD,F
Girls,60.1,9,Caroline Birnbaum,Salado,59.51,65.77,45.36,88.45,199.58,Single-ply,SBD,F
Girls,60.1,10,Katie Champion,Salado,57.52,61.23,31.75,65.77,158.76,Single-ply,SBD,F
Girls,60.1,DQ,Tanja Rojas,Salado,57.88,,,,,Single-ply,SBD,F
Girls,60.1,DQ,Jillian Lobstein,Brady,56.56,,,,,Single-ply,SBD,F
Girls,60.1,DQ,Kayla Ledezma,Brady,59.6,,,,,Single-ply,SBD,F
Girls,60.1,DQ,Sierra Kimbrell,Sonora,58.79,,,,,Single-ply,SBD,F
Girls,60.1,DQ,Brooke Behrendt,Thrall,57.24,106.59,,,,Single-ply,SBD,F
Girls,67.36,1,Leslie Hernandez,Brady,62.14,127.01,65.77,145.15,337.93,Single-ply,SBD,F
Girls,67.36,2,Gabby Martinez,Lampasas,64.95,131.54,61.23,131.54,324.32,Single-ply,SBD,F
Girls,67.36,3,Baylie DeViney,Stephenville,61.33,113.4,56.7,108.86,278.96,Single-ply,SBD,F
Girls,67.36,4,Meredith Moore,Llano,63.09,113.4,56.7,108.86,278.96,Single-ply,SBD,F
Girls,67.36,5,Audrey Reese,Lampasas,62.23,104.33,54.43,115.67,274.42,Single-ply,SBD,F
Girls,67.36,6,McKayla Herrrada,Sonora,65.36,95.25,52.16,104.33,251.74,Single-ply,SBD,F
Girls,67.36,7,Caley Sandobol,San Saba,62.66,86.18,49.9,111.13,247.21,Single-ply,SBD,F
Girls,67.36,8,Eva Beebe,Lago Vista,66.29,92.99,52.16,102.06,247.21,Single-ply,SBD,F
Girls,67.36,9,Tuesday Brown,Lampasas,64.95,88.45,45.36,111.13,244.94,Single-ply,SBD,F
Girls,67.36,10,Sienna Lawson,Lampasas,60.6,90.72,43.09,108.86,242.67,Single-ply,SBD,F
Girls,67.36,11,Marissa Coffman-Spence,San Saba,64,86.18,38.56,86.18,210.92,Single-ply,SBD,F
Girls,67.36,12,Jaime Merrill,Stephenville,60.78,79.38,38.56,86.18,204.12,Single-ply,SBD,F
Girls,67.36,13,Jennifer Blackshear,San Saba,60.39,63.5,34.02,83.91,181.44,Single-ply,SBD,F
Girls,67.36,DQ,Kristi Ward,Brownwood,63.59,,,,,Single-ply,SBD,F
Girls,75.07,1,Michelle Gonzales,Brady,73.39,158.76,74.84,149.69,383.29,Single-ply,SBD,F
Girls,75.07,2,Lana Waddle,Lago Vista,74.48,158.76,72.57,129.27,360.61,Single-ply,SBD,F
Girls,75.07,3,Kaylee Needham,Coleman,70.81,131.54,54.43,129.27,315.25,Single-ply,SBD,F
Girls,75.07,4,Chelsea Seggern,Thrall,72.12,113.4,49.9,129.27,292.57,Single-ply,SBD,F
Girls,75.07,5,Ariana Wilkinson,Lampasas,72.94,99.79,49.9,124.74,274.42,Single-ply,SBD,F
Girls,75.07,6,Crystal Montes,Lago Vista,73.03,99.79,43.09,115.67,258.55,Single-ply,SBD,F
Girls,75.07,7,Claudia Avila,Brady,73.03,97.52,38.56,90.72,226.8,Single-ply,SBD,F
Girls,75.07,8,Allison Sanchez,Stephenville,74.48,79.38,38.56,90.72,208.65,Single-ply,SBD,F
Girls,75.07,9,Kaylie Davidson,Salado,69.4,77.11,29.48,90.72,197.31,Single-ply,SBD,F
Girls,75.07,DQ,Mikeala Lee,Stephenville,70.49,,,,,Single-ply,SBD,F
Girls,82.33,1,Jolyn Zarate,Coleman,80.35,170.1,77.11,151.95,399.16,Single-ply,SBD,F
Girls,82.33,2,Sara Estes,Brady,78.65,156.49,74.84,145.15,376.48,Single-ply,SBD,F
Girls,82.33,3,Marina Sanchez,Brady,78.2,149.69,52.16,163.29,365.14,Single-ply,SBD,F
Girls,82.33,4,Jordyn Johnson,Thrall,79.42,117.93,63.5,129.27,310.71,Single-ply,SBD,F
Girls,82.33,5,Jeralyn Bunting,Lampasas,79.83,113.4,52.16,124.74,290.3,Single-ply,SBD,F
Girls,82.33,6,Victoria Clayton,Lampasas,78.99,111.13,47.63,127.01,285.76,Single-ply,SBD,F
Girls,82.33,7,Maggie Ikehara,Junction,81.28,95.25,54.43,131.54,281.23,Single-ply,SBD,F
Girls,82.33,8,Stefani Reyna,Stephenville,80.56,102.06,54.43,122.47,278.96,Single-ply,SBD,F
Girls,82.33,9,Susana Robles,Sonora,81.26,65.77,36.29,90.72,192.78,Single-ply,SBD,F
Girls,82.33,10,Chenille Oliver,Stephenville,76.25,68.04,36.29,81.65,185.97,Single-ply,SBD,F
Girls,90.04,1,Amber Rush,Stephenville,89.63,163.29,79.38,127.01,369.68,Single-ply,SBD,F
Girls,90.04,2,Arleth Fraga,Brady,83.51,145.15,65.77,138.35,349.27,Single-ply,SBD,F
Girls,90.04,3,Alexus Duckett,Stephenville,88.97,136.08,65.77,136.08,337.93,Single-ply,SBD,F
Girls,90.04,4,Maria Reza,Brady,82.55,142.88,54.43,136.08,333.39,Single-ply,SBD,F
Girls,90.04,5,Ashley Porter,Thrall,84.01,136.08,54.43,127.01,317.51,Single-ply,SBD,F
Girls,90.04,6,Kaylie Winstead,Stephenville,87.6,127.01,56.7,129.27,312.98,Single-ply,SBD,F
Girls,90.04,7,Rachel Wilk,Salado,89.18,104.33,58.97,124.74,288.03,Single-ply,SBD,F
Girls,90.04,8,Mikaela Hudson,Brady,86.27,113.4,49.9,102.06,265.35,Single-ply,SBD,F
Girls,90.04,DQ,Kailey Bow,Burnet,88.5,97.52,45.36,,,Single-ply,SBD,F
Girls,90.04,DQ,Sabrina Spakes,Salado,89.99,74.84,47.63,,,Single-ply,SBD,F
Girls,100.02,1,Savannah Powers,Lago Vista,96.22,199.58,77.11,124.74,401.43,Single-ply,SBD,F
Girls,100.02,2,Katlin Parks,Coleman,98.03,170.1,65.77,113.4,349.27,Single-ply,SBD,F
Girls,100.02,3,Stella Sievers,Salado,97.11,122.47,47.63,120.2,290.3,Single-ply,SBD,F
Girls,100.02,4,Araceli Torres,Burnet,94.4,129.27,47.63,106.59,283.5,Single-ply,SBD,F
Girls,100.02,5,Alexis Thomas,Sonora,90.17,113.4,49.9,97.52,260.82,Single-ply,SBD,F
Girls,100.02+,1,Erin Sanders,San Saba,117.09,170.1,81.65,165.56,417.3,Single-ply,SBD,F
Girls,100.02+,2,Desiree Vajgrt,Burnet,111.31,158.76,79.38,145.15,383.29,Single-ply,SBD,F
Girls,100.02+,3,Paige Hale,Lampasas,110.68,154.22,65.77,149.69,369.68,Single-ply,SBD,F
Girls,100.02+,4,Keshlei Bridges,Salado,129.27,149.69,63.5,131.54,344.73,Single-ply,SBD,F
Girls,100.02+,5,Nadine Arredondo,Stephenville,107.5,136.08,63.5,131.54,331.12,Single-ply,SBD,F
Girls,100.02+,6,Lacey Naumann,Marble Falls,109.32,102.06,40.82,117.93,260.82,Single-ply,SBD,F
Girls,100.02+,DQ,Alissa Arumbula,Junction,104.78,90.72,,,,Single-ply,SBD,F
