Division,WeightClassKg,Place,Name,Team,BodyweightKg,Best3SquatKg,Best3BenchKg,Best3DeadliftKg,TotalKg,Equipment,Event,Sex
Junior Varsity,51.71,1,Weston Skorrupa,Corpus Christi Calallen,45.63,47.63,40.82,72.57,161.03,Single-ply,SBD,M
Junior Varsity,55.79,1,Ryan Vrana,Victoria East,54.88,83.91,68.04,117.93,269.89,Single-ply,SBD,M
Junior Varsity,59.87,1,Aaron Martinez,Corpus Christi Calallen,58.97,133.81,90.72,165.56,390.09,Single-ply,SBD,M
Junior Varsity,67.13,1,Cole Leal,Rockport-Fulton,64.05,145.15,86.18,170.1,401.43,Single-ply,SBD,M
Junior Varsity,67.13,2,Caleb Phillips,Port Lavaca Calhoun,62.32,136.08,79.38,156.49,371.95,Single-ply,SBD,M
Junior Varsity,67.13,3,Alex Rodriguez #3,Corpus Christi Calallen,65.77,122.47,70.31,136.08,328.85,Single-ply,SBD,M
Junior Varsity,74.84,4,Matt Martin,Victoria East,67.22,102.06,70.31,140.61,312.98,Single-ply,SBD,M
Junior Varsity,67.13,5,Glint Tran,Rockport-Fulton,60.6,111.13,77.11,111.13,299.37,Single-ply,SBD,M
Junior Varsity,67.13,6,Aj Carter,Victoria East,64.41,102.06,74.84,122.47,299.37,Single-ply,SBD,M
Junior Varsity,67.13,DQ,Trey Kashinski,Rockport-Fulton,66.22,113.4,,,,Single-ply,SBD,M
Junior Varsity,74.84,1,Edward DeLeon,Port Lavaca Calhoun,71.3,174.63,102.06,183.7,460.4,Single-ply,SBD,M
Junior Varsity,74.84,2,Martin Fonseca,Mathis,73.21,163.29,97.52,174.63,435.45,Single-ply,SBD,M
Junior Varsity,74.84,3,Ryder Duff,Corpus Christi Calallen,72.48,161.03,88.45,174.63,424.11,Single-ply,SBD,M
Junior Varsity,74.84,4,Blaine Monroe,Gregory-Portland,73.12,151.95,97.52,174.63,424.11,Single-ply,SBD,M
Junior Varsity,74.84,5,Jacob Rivera,Port Lavaca Calhoun,73.57,142.88,106.59,163.29,412.77,Single-ply,SBD,M
Junior Varsity,74.84,6,Aaron Tienart,Gregory-Portland,74.21,136.08,90.72,181.44,408.23,Single-ply,SBD,M
Junior Varsity,74.84,7,John Ruth,Gregory-Portland,68.13,147.42,86.18,165.56,399.16,Single-ply,SBD,M
Junior Varsity,74.84,8,Kyle Falcon,Victoria East,70.22,138.35,79.38,170.1,387.82,Single-ply,SBD,M
Junior Varsity,74.84,9,Bobby Morris,Victoria East,70.49,142.88,68.04,165.56,376.48,Single-ply,SBD,M
Junior Varsity,74.84,10,Daniel Green,Gregory-Portland,71.76,124.74,83.91,154.22,362.87,Single-ply,SBD,M
Junior Varsity,74.84,11,Tristan Whitaker,Gregory-Portland,74.12,129.27,92.99,140.61,362.87,Single-ply,SBD,M
Junior Varsity,74.84,12,Shawn Bryant,Victoria East,71.4,124.74,77.11,158.76,360.61,Single-ply,SBD,M
Junior Varsity,74.84,13,Trey Martinez,Victoria East,68.95,131.54,72.57,154.22,358.34,Single-ply,SBD,M
Junior Varsity,74.84,14,Eddie Nanez,Sinton,73.3,92.99,63.5,115.67,272.16,Single-ply,SBD,M
Junior Varsity,74.84,DQ,Brandon Tompkins,Port Lavaca Calhoun,69.76,181.44,,,,Single-ply,SBD,M
Junior Varsity,82.1,1,Balde Alaniz,San Diego,81.65,188.24,104.33,165.56,458.13,Single-ply,SBD,M
Junior Varsity,82.1,2,Luis Baiz,Mathis,77.2,170.1,99.79,172.37,442.25,Single-ply,SBD,M
Junior Varsity,82.1,3,Chris Chapa,Corpus Christi Calallen,80.74,140.61,99.79,181.44,421.84,Single-ply,SBD,M
Junior Varsity,82.1,4,Fernando Reyes,Rockport-Fulton,76.29,151.95,97.52,158.76,408.23,Single-ply,SBD,M
Junior Varsity,82.1,5,JD Zapata,Rockport-Fulton,76.66,151.95,86.18,170.1,408.23,Single-ply,SBD,M
Junior Varsity,82.1,6,Matt Gutierrez,Rockport-Fulton,76.75,127.01,74.84,145.15,347,Single-ply,SBD,M
Junior Varsity,89.81,1,Anthony Montoya,Gregory-Portland,85.46,190.51,102.06,156.49,449.06,Single-ply,SBD,M
Junior Varsity,89.81,2,Jose Moreno,San Diego,88.18,149.69,92.99,170.1,412.77,Single-ply,SBD,M
Junior Varsity,89.81,3,John Reinhart,Gregory-Portland,87.36,138.35,92.99,151.95,383.29,Single-ply,SBD,M
Junior Varsity,99.79,1,Bubba Everett,San Diego,98.88,217.72,108.86,183.7,510.29,Single-ply,SBD,M
Junior Varsity,99.79,2,Charles West,Gregory-Portland,93.08,181.44,97.52,195.04,474,Single-ply,SBD,M
Junior Varsity,99.79,3,Nick Isaaks,Gregory-Portland,95.35,174.63,106.59,192.78,474,Single-ply,SBD,M
Junior Varsity,99.79,4,Thomas Campos,Gregory-Portland,92.71,172.37,104.33,176.9,453.59,Single-ply,SBD,M
Junior Varsity,99.79,5,Trey Felstead,Rockport-Fulton,99.34,163.29,120.2,161.03,444.52,Single-ply,SBD,M
Junior Varsity,99.79,6,Russell Gregory,Victoria East,96.71,136.08,77.11,176.9,390.09,Single-ply,SBD,M
Junior Varsity,99.79,7,Vince Narvaez,Corpus Christi Tuloso-Midway,93.26,131.54,102.06,122.47,356.07,Single-ply,SBD,M
Junior Varsity,99.79,8,Eric Espinoza,Sinton,97.7,133.81,88.45,129.27,351.53,Single-ply,SBD,M
Junior Varsity,99.79,9,Brandon Rosas,Rockport-Fulton,91.44,115.67,61.23,129.27,306.17,Single-ply,SBD,M
Junior Varsity,109.77,DQ,Lupe Salinas,Port Lavaca Calhoun,99.97,179.17,,,,Single-ply,SBD,M
Junior Varsity,109.77,1,Jose Ramos,Gregory-Portland,106.32,185.97,106.59,165.56,458.13,Single-ply,SBD,M
Junior Varsity,109.77,2,Michael Pena,Rockport-Fulton,106.68,170.1,90.72,174.63,435.45,Single-ply,SBD,M
Junior Varsity,109.77,3,Joe Urdiales,Sinton,107.14,147.42,97.52,165.56,410.5,Single-ply,SBD,M
Junior Varsity,109.77,4,Diego Fonseca,Mathis,104.96,129.27,102.06,170.1,401.43,Single-ply,SBD,M
Junior Varsity,109.77,5,Gabe Crips,Rockport-Fulton,106.59,106.59,65.77,120.2,292.57,Single-ply,SBD,M
Junior Varsity,124.74,1,Julian Hernandez,Port Lavaca Calhoun,120.66,199.58,127.01,181.44,508.02,Single-ply,SBD,M
Junior Varsity,124.74,2,William Withers,Gregory-Portland,114.12,165.56,104.33,176.9,446.79,Single-ply,SBD,M
Junior Varsity,124.74+,1,George Rios,Port Lavaca Calhoun,128.09,185.97,102.06,170.1,458.13,Single-ply,SBD,M
Junior Varsity,124.74+,2,Gabriel Vera,San Diego,126.01,183.7,113.4,158.76,455.86,Single-ply,SBD,M
Varsity,51.71,1,Randy Trevino,Gregory-Portland,50.71,156.49,74.84,163.29,394.63,Single-ply,SBD,M
Varsity,55.79,2,Marcos Lara,Mathis,51.89,113.4,77.11,136.08,326.59,Single-ply,SBD,M
Varsity,51.71,3,Luis Gonzalez,Alice,50.89,113.4,68.04,127.01,308.44,Single-ply,SBD,M
Varsity,51.71,4,Michael Perez,Corpus Christi Tuloso-Midway,46.08,65.77,40.82,65.77,172.37,Single-ply,SBD,M
Varsity,51.71,DQ,Trey Schmedt,Victoria East,51.71,113.4,,,,Single-ply,SBD,M
Varsity,55.79,1,Thomas Soto,Corpus Christi Calallen,55.52,206.38,111.13,210.92,528.44,Single-ply,SBD,M
Varsity,59.87,2,Mauro Garcia,Port Lavaca Calhoun,55.97,170.1,86.18,190.51,446.79,Single-ply,SBD,M
Varsity,55.79,3,Marcus Hernandez #1,Victoria West,55.79,174.63,90.72,179.17,444.52,Single-ply,SBD,M
Varsity,59.87,4,Jacob de la Paz,Corpus Christi Calallen,56.02,172.37,74.84,176.9,424.11,Single-ply,SBD,M
Varsity,55.79,5,Ariel Alfaro,Rockport-Fulton,55.16,138.35,88.45,145.15,371.95,Single-ply,SBD,M
Varsity,55.79,6,Jared Medina,Banquete,54.88,129.27,77.11,161.03,367.41,Single-ply,SBD,M
Varsity,55.79,7,Garrett Wildman,Banquete,55.52,140.61,72.57,154.22,367.41,Single-ply,SBD,M
Varsity,55.79,8,Patrick Ayala,Banquete,52.8,108.86,70.31,163.29,342.46,Single-ply,SBD,M
Varsity,59.87,1,John Starks,Banquete,58.79,163.29,117.93,183.7,464.93,Single-ply,SBD,M
Varsity,67.13,2,Tristan Ruiz,Corpus Christi Calallen,59.96,172.37,99.79,183.7,455.86,Single-ply,SBD,M
Varsity,59.87,3,Beau Burns,Victoria West,58.6,147.42,81.65,154.22,383.29,Single-ply,SBD,M
Varsity,59.87,4,David Van #2,Gregory-Portland,59.6,140.61,77.11,154.22,371.95,Single-ply,SBD,M
Varsity,59.87,5,Chantz Mickens,Corpus Christi Calallen,59.6,142.88,74.84,154.22,371.95,Single-ply,SBD,M
Varsity,59.87,DQ,Hilario Luna,Beeville Jones,58.42,151.95,,,,Single-ply,SBD,M
Varsity,59.87,DQ,Austen Reynolds,Rockport-Fulton,57.33,,,,,Single-ply,SBD,M
Varsity,59.87,DQ,Fabian Tijerina,Mathis,59.78,142.88,,,,Single-ply,SBD,M
Varsity,67.13,1,Elijah Velasquez,Port Lavaca Calhoun,66.04,226.8,117.93,199.58,544.31,Single-ply,SBD,M
Varsity,67.13,2,Matt Valdez,San Diego,65.59,201.85,108.86,222.26,532.97,Single-ply,SBD,M
Varsity,74.84,3,Juan Gonzalez,Alice,67.22,204.12,120.2,204.12,528.44,Single-ply,SBD,M
Varsity,67.13,4,Jade Haney,Port Lavaca Calhoun,66.32,201.85,99.79,208.65,510.29,Single-ply,SBD,M
Varsity,67.13,5,David Ledbetter,Victoria West,66.41,192.78,122.47,192.78,508.02,Single-ply,SBD,M
Varsity,67.13,6,Samuel Navarro,Beeville Jones,64.95,188.24,113.4,197.31,498.95,Single-ply,SBD,M
Varsity,67.13,7,John Renninger,Gregory-Portland,66.13,181.44,106.59,197.31,485.34,Single-ply,SBD,M
Varsity,67.13,8,Christian Salazar,Corpus Christi Tuloso-Midway,67.04,185.97,104.33,185.97,476.27,Single-ply,SBD,M
Varsity,67.13,9,Tyler Pastrano,San Diego,66.59,181.44,104.33,172.37,458.13,Single-ply,SBD,M
Varsity,67.13,10,Joseph Canales,Alice,66.86,145.15,102.06,183.7,430.91,Single-ply,SBD,M
Varsity,74.84,11,Ray Candelaria,Sinton,67.31,138.35,88.45,156.49,383.29,Single-ply,SBD,M
Varsity,67.13,12,Alan Ramos,Rockport-Fulton,66.5,111.13,86.18,165.56,362.87,Single-ply,SBD,M
Varsity,67.13,DQ,Daniel Martinez #16,Port Lavaca Calhoun,60.69,149.69,,,,Single-ply,SBD,M
Varsity,67.13,DQ,Joshua Cruz,Bishop,66.5,161.03,,,,Single-ply,SBD,M
Varsity,67.13,DQ,Miguel Salazar,Corpus Christi Tuloso-Midway,66.77,208.65,,,,Single-ply,SBD,M
Varsity,67.13,DQ,Jason Gonzales,Mathis,66.95,,,,,Single-ply,SBD,M
Varsity,74.84,1,Tristan Pelitire,Beeville Jones,74.3,226.8,156.49,231.33,614.62,Single-ply,SBD,M
Varsity,74.84,2,Joe Caldera,Port Lavaca Calhoun,74.12,201.85,136.08,242.67,580.6,Single-ply,SBD,M
Varsity,74.84,3,Jared Garcia,Corpus Christi Calallen,74.3,213.19,120.2,231.33,564.72,Single-ply,SBD,M
Varsity,74.84,4,Ricky Benavides,Banquete,73.66,204.12,129.27,210.92,544.31,Single-ply,SBD,M
Varsity,82.1,5,James Bain,Corpus Christi Tuloso-Midway,74.93,204.12,120.2,213.19,537.51,Single-ply,SBD,M
Varsity,74.84,6,Jhony Zelaya,Victoria East,73.57,213.19,127.01,192.78,532.97,Single-ply,SBD,M
Varsity,74.84,7,Jeremiah Keever,Bishop,72.39,199.58,113.4,213.19,526.17,Single-ply,SBD,M
Varsity,82.1,8,Nathan Sanchez #3,Corpus Christi Calallen,75.02,199.58,108.86,201.85,510.29,Single-ply,SBD,M
Varsity,74.84,9,Damian Cisneros,Gregory-Portland,69.4,192.78,106.59,185.97,485.34,Single-ply,SBD,M
Varsity,74.84,10,Daniel Nay,Port Lavaca Calhoun,69.58,181.44,115.67,181.44,478.54,Single-ply,SBD,M
Varsity,74.84,11,Bryce Kneip,Corpus Christi Calallen,70.76,185.97,99.79,190.51,476.27,Single-ply,SBD,M
Varsity,74.84,12,Aaron Flores #3,Corpus Christi Calallen,74.57,161.03,108.86,185.97,455.86,Single-ply,SBD,M
Varsity,74.84,13,Taylor Nguyen,Rockport-Fulton,72.94,163.29,97.52,183.7,444.52,Single-ply,SBD,M
Varsity,74.84,14,Joshua Candelaria,Sinton,68.67,163.29,92.99,183.7,439.98,Single-ply,SBD,M
Varsity,74.84,15,Tristen Taylor,Rockport-Fulton,69.49,151.95,99.79,183.7,435.45,Single-ply,SBD,M
Varsity,74.84,16,Shavar Richards,Port Lavaca Calhoun,73.66,172.37,90.72,170.1,433.18,Single-ply,SBD,M
Varsity,74.84,17,Travis Dibble,Victoria West,72.48,158.76,95.25,163.29,417.3,Single-ply,SBD,M
Varsity,74.84,18,Joshua Morvant,Sinton,69.94,142.88,83.91,156.49,383.29,Single-ply,SBD,M
Varsity,82.1,DQ,Justin Sohczak,Corpus Christi Tuloso-Midway,74.93,181.44,,,,Single-ply,SBD,M
Varsity,74.84,DQ,Joe Garcia,Odem,71.4,185.97,117.93,,,Single-ply,SBD,M
Varsity,82.1,1,Dillon Torres,Beeville Jones,78.38,206.38,147.42,226.8,580.6,Single-ply,SBD,M
Varsity,89.81,2,Gabriel Casarez,Port Lavaca Calhoun,82.28,226.8,120.2,215.46,562.45,Single-ply,SBD,M
Varsity,82.1,3,Chris Hernandez,Gregory-Portland,81.37,213.19,124.74,213.19,551.11,Single-ply,SBD,M
Varsity,82.1,4,Jesus Carrasco,Alice,80.01,188.24,106.59,213.19,508.02,Single-ply,SBD,M
Varsity,82.1,5,Lorenzo Landin,Gregory-Portland,75.39,188.24,111.13,197.31,496.68,Single-ply,SBD,M
Varsity,82.1,6,Anton Franklin,Victoria East,76.29,176.9,102.06,195.04,474,Single-ply,SBD,M
Varsity,82.1,7,Angel Casas,Corpus Christi Tuloso-Midway,80.83,183.7,113.4,165.56,462.66,Single-ply,SBD,M
Varsity,82.1,8,Zach Gilkerson,Rockport-Fulton,77.47,181.44,108.86,170.1,460.4,Single-ply,SBD,M
Varsity,82.1,9,Adam Martinez,Corpus Christi Tuloso-Midway,78.93,151.95,97.52,192.78,442.25,Single-ply,SBD,M
Varsity,82.1,10,Steven Nava,Beeville Jones,81.92,149.69,86.18,174.63,410.5,Single-ply,SBD,M
Varsity,89.81,11,Javier Perez,Banquete,82.19,133.81,106.59,161.03,401.43,Single-ply,SBD,M
Varsity,82.1,12,Abel Rodriguez,Corpus Christi Tuloso-Midway,80.65,145.15,95.25,136.08,376.48,Single-ply,SBD,M
Varsity,82.1,DQ,Zach Candela,Odem,77.2,,,,,Single-ply,SBD,M
Varsity,89.81,DQ,Justin Cote,Rockport-Fulton,82.33,154.22,102.06,,,Single-ply,SBD,M
Varsity,89.81,1,Kameron Handy,Corpus Christi Tuloso-Midway,89.36,272.16,151.95,238.14,662.24,Single-ply,SBD,M
Varsity,89.81,2,Justin Mask,Gregory-Portland,85.55,229.06,154.22,215.46,598.74,Single-ply,SBD,M
Varsity,89.81,3,Jacob Flores,Beeville Jones,87.91,233.6,129.27,235.87,598.74,Single-ply,SBD,M
Varsity,99.79,4,Matthew Dickson,Corpus Christi Tuloso-Midway,89.99,226.8,142.88,226.8,596.47,Single-ply,SBD,M
Varsity,89.81,5,Domingo Gonzalez,Rockport-Fulton,85.46,188.24,124.74,242.67,555.65,Single-ply,SBD,M
Varsity,89.81,6,Mike DeLaGarza,Victoria West,88.72,204.12,106.59,233.6,544.31,Single-ply,SBD,M
Varsity,89.81,7,Esteban Morales,Port Lavaca Calhoun,87,222.26,108.86,147.42,478.54,Single-ply,SBD,M
Varsity,89.81,8,Daniel Herrera,Banquete,85,181.44,108.86,170.1,460.4,Single-ply,SBD,M
Varsity,89.81,9,Shawn Martinez,Victoria West,87.72,204.12,99.79,156.49,460.4,Single-ply,SBD,M
Varsity,89.81,10,Arnold Molina,Sinton,86.36,138.35,115.67,158.76,412.77,Single-ply,SBD,M
Varsity,89.81,11,Ray DeLaGarza,Bishop,88.99,124.74,79.38,147.42,351.53,Single-ply,SBD,M
Varsity,89.81,12,Dre Littles,Victoria West,86.55,122.47,81.65,142.88,347,Single-ply,SBD,M
Varsity,89.81,DQ,Brian Hickner,Victoria East,84.91,167.83,102.06,,,Single-ply,SBD,M
Varsity,89.81,DQ,Stephon Shelton,Victoria East,86.82,,,,,Single-ply,SBD,M
Varsity,89.81,DQ,Tim Esquivel,Mathis,83.82,,,,,Single-ply,SBD,M
Varsity,89.81,DQ,Joseph Ramirez,Sinton,87.82,142.88,102.06,,,Single-ply,SBD,M
Varsity,89.81,DQ,Tony Zapata,Alice,89.45,188.24,,,,Single-ply,SBD,M
Varsity,99.79,DQ,Adrian Rivas,Sinton,89.9,174.63,113.4,,,Single-ply,SBD,M
Varsity,89.81,DQ,Tristan Starkey,Victoria West,89.36,,,,,Single-ply,SBD,M
Varsity,99.79,1,Alex Tanguma,Corpus Christi Calallen,92.44,290.3,170.1,276.69,737.09,Single-ply,SBD,M
Varsity,99.79,2,Alex Garcia #6,San Diego,99.16,294.84,147.42,235.87,678.12,Single-ply,SBD,M
Varsity,99.79,3,Devin Bisby,Gregory-Portland,99.52,254.01,151.95,265.35,671.32,Single-ply,SBD,M
Varsity,99.79,4,Brendon Breland,Banquete,96.25,244.94,158.76,240.4,644.1,Single-ply,SBD,M
Varsity,99.79,5,Leo Adams,Alice,90.45,231.33,161.03,197.31,589.67,Single-ply,SBD,M
Varsity,99.79,6,Andres Arvizu,Alice,99.61,235.87,108.86,199.58,544.31,Single-ply,SBD,M
Varsity,99.79,7,JD Benavidez,Odem,91.9,233.6,129.27,174.63,537.51,Single-ply,SBD,M
Varsity,99.79,8,Riley Richardson,Gregory-Portland,96.07,201.85,124.74,210.92,537.51,Single-ply,SBD,M
Varsity,99.79,9,Brian Tran,Rockport-Fulton,98.25,183.7,136.08,210.92,530.7,Single-ply,SBD,M
Varsity,99.79,10,Thomas Kennemer,Victoria East,94.8,197.31,122.47,201.85,521.63,Single-ply,SBD,M
Varsity,99.79,DQ,Josh Cady,Rockport-Fulton,97.25,188.24,102.06,,,Single-ply,SBD,M
Varsity,99.79,DQ,Joey Granados,Beeville Jones,91.26,,,,,Single-ply,SBD,M
Varsity,109.77,1,Dakota Cooksy,Corpus Christi Calallen,107.95,285.76,165.56,249.48,700.8,Single-ply,SBD,M
Varsity,109.77,2,Blade Bronstad,Corpus Christi Calallen,105.78,254.01,124.74,249.48,628.23,Single-ply,SBD,M
Varsity,109.77,3,Warren Oaks,Alice,109.23,213.19,174.63,215.46,603.28,Single-ply,SBD,M
Varsity,109.77,4,Zak Pizzini,San Diego,107.14,247.21,147.42,204.12,598.74,Single-ply,SBD,M
Varsity,109.77,5,Matt Ramirez,Victoria West,101.7,192.78,122.47,204.12,519.36,Single-ply,SBD,M
Varsity,109.77,6,Oscar Cantua,Sinton,102.24,192.78,117.93,204.12,514.83,Single-ply,SBD,M
Varsity,109.77,7,Matthew Botello,Beeville Jones,107.59,192.78,113.4,185.97,492.15,Single-ply,SBD,M
Varsity,109.77,8,Chris Navarro,Corpus Christi Calallen,109.32,117.93,74.84,138.35,331.12,Single-ply,SBD,M
Varsity,124.74,1,Cameron Ellerbee,Beeville Jones,124.74,249.48,145.15,256.28,650.91,Single-ply,SBD,M
Varsity,124.74,2,Steven Rocha,Gregory-Portland,120.2,242.67,176.9,213.19,632.76,Single-ply,SBD,M
Varsity,124.74,3,David Silva,Corpus Christi Calallen,111.49,242.67,122.47,233.6,598.74,Single-ply,SBD,M
Varsity,124.74,4,Dylan Duff,Corpus Christi Calallen,114.4,233.6,142.88,197.31,573.79,Single-ply,SBD,M
Varsity,124.74,5,Thomas Zaragosa,Bishop,119.02,244.94,120.2,199.58,564.72,Single-ply,SBD,M
Varsity,124.74,6,Forrest Unterbrink,Rockport-Fulton,121.56,206.38,117.93,240.4,564.72,Single-ply,SBD,M
Varsity,124.74,7,Arturo Romero,Port Lavaca Calhoun,124.38,240.4,120.2,195.04,555.65,Single-ply,SBD,M
Varsity,124.74,8,Jose Aguero,Sinton,116.94,226.8,120.2,192.78,539.77,Single-ply,SBD,M
Varsity,124.74,9,Vince Gutierrez,Corpus Christi Tuloso-Midway,114.21,192.78,127.01,176.9,496.68,Single-ply,SBD,M
Varsity,124.74,10,Ben Morgan,Victoria West,112.22,188.24,120.2,183.7,492.15,Single-ply,SBD,M
Varsity,124.74,DQ,Rene Gonzales,Mathis,111.04,222.26,,,,Single-ply,SBD,M
Varsity,124.74,DQ,Juan Macias,Alice,118.39,256.28,,,,Single-ply,SBD,M
Varsity,124.74+,1,Bryan Tuschtschula,Port Lavaca Calhoun,137.08,263.08,170.1,233.6,666.78,Single-ply,SBD,M
Varsity,124.74+,2,Bo Pullin,Victoria East,135.81,238.14,127.01,235.87,601.01,Single-ply,SBD,M
Varsity,124.74+,3,Chase Herrig,Sinton,132.63,197.31,136.08,183.7,517.1,Single-ply,SBD,M
Varsity,124.74+,DQ,Danny Sanchez,Victoria West,130.63,240.4,127.01,,,Single-ply,SBD,M
Varsity,124.74+,DQ,Jonathan Lopez,Banquete,125.37,188.24,,,,Single-ply,SBD,M
