Division,WeightClassKg,Place,Name,Team,BodyweightKg,Best3SquatKg,Best3BenchKg,Best3DeadliftKg,TotalKg,Equipment,Event,Sex,BirthDate
Boys,51.71,1,Sammy Hernandez,Perryton,51.71,149.69,70.31,149.69,369.68,Single-ply,SBD,M,
Boys,51.71,2,Brian Tejeda,Perryton,51.62,113.4,81.65,142.88,337.93,Single-ply,SBD,M,
Boys,51.71,3,Shaquorie Butler,Canyon Randall,50.53,90.72,61.23,106.59,258.55,Single-ply,SBD,M,
Boys,51.71,4,Jose Zamora,Dumas,50.53,72.57,36.29,104.33,213.19,Single-ply,SBD,M,
Boys,51.71,DQ,Kaiven Encinias,Dalhart,51.53,,,,,Single-ply,SBD,M,
Boys,55.79,1,Bryan Ordaz,Dumas,55.34,154.22,90.72,163.29,408.23,Single-ply,SBD,M,
Boys,55.79,2,Isaac Castro,Perryton,55.43,129.27,79.38,158.76,367.41,Single-ply,SBD,M,
Boys,55.79,3,Adrian Berrones,Dumas,55.25,115.67,56.7,124.74,297.1,Single-ply,SBD,M,
Boys,59.87,1,Landon Bounsing,Canyon Randall,59.33,122.47,74.84,122.47,319.78,Single-ply,SBD,M,
Boys,67.13,1,Max Foster,Canyon Randall,62.87,158.76,102.06,204.12,464.93,Single-ply,SBD,M,
Boys,67.13,2,Kenny Ramirez #2,Perryton,66.95,174.63,104.33,181.44,460.4,Single-ply,SBD,M,
Boys,67.13,3,Bradley Franks,Dumas,67.13,158.76,95.25,151.95,405.97,Single-ply,SBD,M,
Boys,67.13,4,Nathan Meraz,Canyon Randall,63.68,136.08,104.33,156.49,396.89,Single-ply,SBD,M,
Boys,67.13,5,Josh Pavez,Panhandle,66.59,142.88,86.18,145.15,374.21,Single-ply,SBD,M,
Boys,67.13,6,Ben Pulliam,Panhandle,62.32,147.42,70.31,147.42,365.14,Single-ply,SBD,M,
Boys,67.13,7,David Ortega,Sunray,63.23,133.81,56.7,170.1,360.61,Single-ply,SBD,M,
Boys,67.13,8,Zach Baze,Panhandle,66.22,111.13,72.57,142.88,326.59,Single-ply,SBD,M,
Boys,67.13,9,Wayne Fish,Bushland,67.13,61.23,52.16,68.04,181.44,Single-ply,SBD,M,
Boys,74.84,1,Joseph Raissez,Perryton,74.39,249.48,120.2,238.14,607.81,Single-ply,SBD,M,
Boys,74.84,2,Riley Tiemann,Vega,71.03,183.7,104.33,204.12,492.15,Single-ply,SBD,M,
Boys,74.84,3,James Bednorz,Dumas,72.67,167.83,131.54,190.51,489.88,Single-ply,SBD,M,
Boys,74.84,4,Stewart Skiles,Vega,69.58,192.78,92.99,192.78,478.54,Single-ply,SBD,M,
Boys,74.84,5,Brady Tiemann,Vega,70.03,181.44,106.59,190.51,478.54,Single-ply,SBD,M,
Boys,74.84,6,Hector Borrunda,Dumas,72.21,165.56,117.93,172.37,455.86,Single-ply,SBD,M,
Boys,74.84,7,Preston Mullins,Canyon Randall,72.57,158.76,86.18,181.44,426.38,Single-ply,SBD,M,
Boys,74.84,8,Carter Neil,Panhandle,69.22,147.42,95.25,181.44,424.11,Single-ply,SBD,M,
Boys,74.84,9,Dylan Davis,Panhandle,67.86,156.49,83.91,142.88,383.29,Single-ply,SBD,M,
Boys,74.84,10,McCade Smith,Panhandle,74.03,92.99,63.5,106.59,263.08,Single-ply,SBD,M,
Boys,82.1,1,Slade Harris,Canyon Randall,79.2,342.46,195.04,278.96,816.47,Single-ply,SBD,M,
Boys,82.1,2,Petey Martinez,Perryton,81.47,215.46,117.93,213.19,546.58,Single-ply,SBD,M,
Boys,82.1,3,Alex Clements,Borger,80.2,165.56,102.06,226.8,494.42,Single-ply,SBD,M,
Boys,82.1,4,Cannon Speck,Dumas,79.74,158.76,106.59,161.03,426.38,Single-ply,SBD,M,
Boys,82.1,5,Roise Marquez,Dalhart,81.65,149.69,102.06,158.76,410.5,Single-ply,SBD,M,
Boys,82.1,6,Aiden Harris,Panhandle,77.11,149.69,79.38,149.69,378.75,Single-ply,SBD,M,
Boys,82.1,7,Joel Herrera,Dalhart,78.02,149.69,77.11,142.88,369.68,Single-ply,SBD,M,
Boys,82.1,8,Gus Shirley,Sunray,75.3,131.54,70.31,154.22,356.07,Single-ply,SBD,M,
Boys,82.1,9,Lincoln Wise,Bushland,77.66,136.08,81.65,136.08,353.8,Single-ply,SBD,M,
Boys,82.1,10,Riley Ashbaugh,Sunray,77.38,117.93,70.31,129.27,317.51,Single-ply,SBD,M,
Boys,89.81,1,Davin Gates,Dumas,88,238.14,147.42,233.6,619.15,Single-ply,SBD,M,
Boys,89.81,2,Anthony Aguilera,Dalhart,84.37,192.78,122.47,204.12,519.36,Single-ply,SBD,M,
Boys,89.81,3,Carson Ward #3,Borger,88.45,174.63,108.86,204.12,487.61,Single-ply,SBD,M,
Boys,89.81,4,Jacob Raissez,Perryton,89.36,183.7,106.59,183.7,474,Single-ply,SBD,M,
Boys,89.81,5,Gavin Groll,Dalhart,85.28,176.9,104.33,161.03,442.25,Single-ply,SBD,M,
Boys,89.81,6,Ezequiel Fernandez,Borger,88.45,156.49,99.79,174.63,430.91,Single-ply,SBD,M,
Boys,89.81,7,Jagger Puga,Dalhart,88.45,147.42,122.47,151.95,421.84,Single-ply,SBD,M,
Boys,89.81,8,Xaiver Gonzalez,Dalhart,89.81,181.44,88.45,151.95,421.84,Single-ply,SBD,M,
Boys,89.81,9,Hayden Forbes,Panhandle,85.73,138.35,79.38,147.42,365.14,Single-ply,SBD,M,
Boys,89.81,10,Isaac Tovar,Sunray,83.73,145.15,70.31,124.74,340.19,Single-ply,SBD,M,
Boys,99.79,1,Robert Herndon,Perryton,96.16,299.37,204.12,251.74,755.23,Single-ply,SBD,M,
Boys,99.79,2,Karlo Sanchez,Dumas,99.79,235.87,147.42,226.8,610.08,Single-ply,SBD,M,
Boys,99.79,3,Aj Thompson,Panhandle,92.08,181.44,102.06,181.44,464.93,Single-ply,SBD,M,
Boys,99.79,4,Cade Hood,Vega,97.43,174.63,102.06,176.9,453.59,Single-ply,SBD,M,
Boys,99.79,5,Jeremiah Bustos,Vega,94.8,161.03,90.72,170.1,421.84,Single-ply,SBD,M,
Boys,99.79,6,Landen Lasley,Borger,96.25,136.08,81.65,113.4,331.12,Single-ply,SBD,M,
Boys,99.79,DQ,Gael Davila,Dumas,96.98,195.04,,,,Single-ply,SBD,M,
Boys,109.77,1,Ubaldo Tarango,Perryton,108.86,260.82,158.76,249.48,669.05,Single-ply,SBD,M,
Boys,109.77,2,Jaziel Torres,Borger,109.77,260.82,170.1,208.65,639.57,Single-ply,SBD,M,
Boys,109.77,3,Miguel Celis,Perryton,109.32,263.08,149.69,208.65,621.42,Single-ply,SBD,M,
Boys,109.77,4,Chris Omeire,Canyon Randall,106.23,229.06,147.42,217.72,594.21,Single-ply,SBD,M,
Boys,109.77,5,Yostin Villagomez,Dalhart,105.69,190.51,133.81,204.12,528.44,Single-ply,SBD,M,
Boys,109.77,6,Brayden Forbes,Panhandle,106.68,192.78,120.2,181.44,494.42,Single-ply,SBD,M,
Boys,109.77,7,Abner Garcia,Borger,103.6,181.44,77.11,174.63,433.18,Single-ply,SBD,M,
Boys,109.77,8,Jacob Hernandez,Vega,106.59,149.69,68.04,158.76,376.48,Single-ply,SBD,M,
Boys,124.74,1,Yordi Hernandez,Perryton,123.83,326.59,167.83,260.82,755.23,Single-ply,SBD,M,
Boys,124.74,2,Omar Hernandez,Dumas,120.75,267.62,185.97,235.87,689.46,Single-ply,SBD,M,
Boys,124.74,3,Cody Mays,Vega,120.93,249.48,142.88,249.48,641.83,Single-ply,SBD,M,
Boys,124.74,4,Kyler Carlson,Canyon Randall,117.84,181.44,111.13,183.7,476.27,Single-ply,SBD,M,
Boys,124.74+,1,Jaden Massey,Dalhart,151.95,267.62,195.04,226.8,689.46,Single-ply,SBD,M,
Boys,124.74+,2,Cristian Salinas,Dalhart,127.91,183.7,102.06,142.88,428.64,Single-ply,SBD,M,
