児玉 大紀,Daiki Kodama
永田 聡,Satoshi Narata
古賀 宏和,Hirokazu Koga
小笠原 泰司,Yasushi Ogasawara
東坂 康司,Koji Higashisaka
福島 未里,Misato Fukushima
小林 ナオコ,Naoko Kobayashi
石橋 茜,Akane Ishibashi
久米 亮平,Ryohei Kume
鈴木 佑輔,Yusuke Suzuki
福島 勇輝,Yuki Fukushima
齋藤 学,Manabu Saito
瀧本 高博,Takahiro Takimoto
葛西 昌彦,Masahiko Kassai
名越 勇樹,Yuki Nagoshi
小原 一将,Ohara Kazumasa
古賀 宏和,Hirokazu Koga
和田 髙平,Kohei Wada
久保 元人,Motohito Kubo
照屋 利恵,Rie Teruya
可児 理恵,Rie Kani
田中 まりこ,Mariko Tanaka
芦原 徹,Toru Ashihara
澤山 あおい,Aoi Sawayama
菊地 雅,Miyabi Kikuchi
川上 京司,Kyoji Kawakami
信原 英之,Hideyuki Nobuhara
佐藤 邦良,Kuniyoshi Sato
蜂須 貢,Mitsugu Hachisu
岡田 有加,Yuka Okada
森田 奈那,Nana Morita
ミラージヤクソン,Jackson Miller
モゲス アレキサンダー,Alexander Moges
堤 彩夏,Ayaka Tsutsumi
可児 遥,Haruka Kani
渡辺 心愛,Cocoa Watanabe
林 美緒,Mio Hayashi
和田 桃子,Momoko Wada
宮崎 優花,Yuka Miyazaki
宇都宮 真由,Mayu Utsunomiya
木村彩音,Ayane Kimura
山野 舞花,Maika Yamano
菅谷 友美,Tomomi Sugaya
西村 政子,Masako Nishimura
西川 亜紀子,Akiko Nishikawa
種橋 久美,Kumi Tanehashi
鷲頭 智子,Tomoko Washizu
木場 恵美子,Emiko Kiba
柴田 昌美,Masami Shibata
植田 滋美,Shigemi Ueda
寺村 美香,Mika Teramura
石田 みどり,Midori Ishida
徳武 恵美,Emi Tokutake
福田 鈴子,Suzuko Fukuda
石橋 愛子,Aiko Ishibashi
山崎 頼子,Yoriko Yamazaki
長尾 優子,Yuko Nagao
林 久子,Hisako Hayashi
星田 千鶴子,Chizuko Hoshita
菊入 広子,Hiroko Kikuiri
中山 みどり,Midori Nakayama
栗原 初音,Hatsune Kurihara
伊川 玲子,Reiko Igawa
小林 ナオコ,Naoko Kobayashi
富山 春香,Haruka Tomiyama
山下 彩,Aya Yamashita
田島 瞳,Hitomi Tajima
澤山 あおい,Aoi Sawayama
小林 展代,Nobuyo Kobayashi
磯田 あかね,Akane Isoda
伊藤 千帆,Chiho Ito
三浦 恵美子,Emiko Miura
新井 拡子,Hiroko Arai
宮本 智子,Tomoko Miyamoto
岩城 千尋,Chihiro Iwaki
工藤 智恵子,Chieko Kudo
櫻井 美幸,Miyuki Sakurai
小松 麻実,Mami Komatsu
滝沢 嘉恵,Yoshie Takizawa
水野 文江,Fumie Mizuno
大澤 幸子,Sachiko Osawa
長尾 優子,Yuko Nagao
林 久子,Hisako Hayashi
奥村 正子,Masako Okumura
小林 美都子,Mitsuko Kobayashi
澤 千代美,Chiyomi Sawa
白石 匡,Tadashi Shiraishi
藤田 海斗,Kaito Fujita
石渡 汰成,Taisei Ishiwata
後藤 優誠,Yusei Goto
富田 慎之介,Shinnosuke Tomita
森木 翼,Tsubasa Moriki
土田 真臣,Masaomi Tsuchida
牛山 恭太,Kyota Ushiyama
福田 忠浩,Tadahiro Fukuda
西村 将汰,Shota Nishimura
岡野 太郎,Taro Okano
松本 健一郎,Kenichiro Matsumoto
酒井 康行,Yasuyuki Sakai
武田 宗久,Munehisa Takeda
淵野 茂樹,Shigeki Fuchino
海老田 旭,Akira Ebita
高田 勇二,Yuji Takada
仲間 勇人,Hayato Nakama
林 健一郎,Kenichiro Hayashi
坂本 勝典,Katsunori Sakamoto
井上 正雄,Masao Inoue
伊藤 智,Satoshi Ito
山崎 英二朗,Eijiro Yamasaki
伊差川 浩之,Hiroyuki Isagawa
渡辺 進,Susumu Watanabe
猪須 純一,Junichi Isu
安楽 友宏,Tomohiro Anraku
渡辺 明彦,Akihiro Watanabe
氏家 一郎,Ichiro Ujiie
白川 猛士,Takeshi Shirakawa
山本 茂樹,Shigeki Yamamoto
今泉 春樹,Haruki Imaizumi
杉崎 幹男,Mikio Sugizaki
太田 孝美,Takami Ota
齊藤 敬太,Keita Saito
福田 将志,Masashi Fukuda
小原 一将,Ohara Kazumasa
平山 秋繁,Akito Hirayama
田村 陽,Yo Tamura
村田 元輝,Motoki Murata
鈴木 武虎,Taketora Suzuki
石川 裕士,Hiroshi Ishikawa
渡辺 雄次,Yuji Watanabe
柏木 悠太郎,Yutaro Kashiwagi
藤本 竜希,Ryuki Fujimoto
須藤 健介,Kensuke Suto
野田 俊彦,Toshihiko Noda
天川 哲範,Akinori Amakawa
亀谷 充男,Mitsuo Kametani
藤田 博之,Hiroyuki Fujita
安江 三千夫,Michio Yasue
山森 智行,Tomoyuki Yamamori
中田 和夫,Kazuo Nakata
中山 久幸,Hisayuki Nakayama
濱田 展行,Nobuyuki Hamada
加藤 勇次,Yuji Kato
藤原 英司,Eiji Fujiwara
後藤 衆治,Shuji Goto
福嶋 康人,Yasuto Fukushima
石渡 啓之,Hiroyuki Ishiwatari
矢野 秀幸,Hideyuki Yano
佐藤 恵二,Keiji Sato
林 靖弘,Yasuhiro Hayashi
飯島 修,Osamu Iijima
北川 武志,Takeshi Kitagawa
浜山 久雄,Hisao Hamayama
馬籠 徹,Toru Magome
段安 忠信,Tadanobu Danyasu
菅谷 道夫,Michio Sugaya
河部 勝次,Katsuji Kawabe
木村 育史,Yasufumi Kimura
福田 将志,Masashi Fukuda
大室 豪槻,Goki Omuro
吉川 望,Nozomu Yoshikawa
山下 保樹,Yasuki Yamashita
梶井 俊宏,Toshihiro Kajii
柳川 大貴,Daiki Yanagawa
福島 友佳子,Yukako Fukushima
白川 カオリ,Kaori Nagaya-Shirakawa
北村 真由美,Mayumi Kitamura
溝口 久美,Kumi Mizoguchi
山本 翔太,Shota Yamamoto
平井 凱斗,Yuki Hirai
窓場 加津紗,Kazusa Madoba
池谷 あや子,Ayako Ikeya
加藤 みどり,Midori Kato
寺原 万留々,Maruru Terahara
田辺 陽太,Yota Tanabe
比嘉 善浩,Yoshihiro Higa
水野 貴章,Takaaki Mizuno
沖浦 克治,Katsuji Okiura
蛯原 孝晴,Takaharu Ebihara
北野 利雄,Toshio Kitano
中島 美代子,Miyoko Nakajima
藤井 優弥,Yuya Fujii
井上 雄介,Yusuke Inoue
佐竹 優典,Yusuke Satake
武田 裕介,Yusuke Takeda
飛田 渉,Wataru Tobita
宇都木 悠,Yu Utsugi
大谷 憲弘,Norihiro Otani
鈴木 豪,Go Suzuki
早川 琴果,Kotomi Hayakawa