Division,WeightClassKg,Place,Name,Team,BodyweightKg,Best3SquatKg,Best3BenchKg,Best3DeadliftKg,TotalKg,Equipment,Event,Sex
Boys,51.71,1,Josue Leon,Sulphur Springs,50.89,142.88,70.31,170.1,383.29,Single-ply,SBD,M
Boys,51.71,2,Brett Butler,Mabank,50.08,115.67,74.84,117.93,308.44,Single-ply,SBD,M
Boys,51.71,3,Ralph Bustos,Kaufman,49.99,113.4,65.77,113.4,292.57,Single-ply,SBD,M
Boys,51.71,4,Tj Pratt,Texarkana Liberty-Eylau,50.44,113.4,61.23,117.93,292.57,Single-ply,SBD,M
Boys,51.71,5,Zach Kuntz,Rockwall,48.9,102.06,56.7,117.93,276.69,Single-ply,SBD,M
Boys,51.71,6,Colby Cowan,Forney,44.45,70.31,34.02,74.84,179.17,Single-ply,SBD,M
Boys,51.71,7,Tanner Wisdom,Fort Worth Western Hills,42.82,70.31,31.75,72.57,174.63,Single-ply,SBD,M
Boys,51.71,DQ,Josh Corley,Forney,49.44,72.57,,,,Single-ply,SBD,M
Boys,55.79,1,Jage Smith,Kaufman,54.7,156.49,65.77,163.29,385.55,Single-ply,SBD,M
Boys,55.79,2,Kentrun Pemberton,Texarkana Liberty-Eylau,55.52,124.74,77.11,140.61,342.46,Single-ply,SBD,M
Boys,55.79,3,MaKenzi Austin,Crandall,53.89,115.67,52.16,124.74,292.57,Single-ply,SBD,M
Boys,55.79,4,Tyler Davis,Kaufman,54.98,108.86,56.7,124.74,290.3,Single-ply,SBD,M
Boys,55.79,5,Ivan Oropeza,Fort Worth North Side,55.16,83.91,43.09,102.06,229.06,Single-ply,SBD,M
Boys,59.87,1,Zach Poindexter,Rockwall,59.15,154.22,95.25,163.29,412.77,Single-ply,SBD,M
Boys,59.87,2,Roderick Howard,Texarkana Liberty-Eylau,59.87,151.95,88.45,165.56,405.97,Single-ply,SBD,M
Boys,59.87,3,Arturo Ledezma,Mabank,59.69,120.2,74.84,136.08,331.12,Single-ply,SBD,M
Boys,59.87,4,Deoncha Minifield,Texarkana Liberty-Eylau,59.87,113.4,81.65,136.08,331.12,Single-ply,SBD,M
Boys,59.87,5,Luis Gamez,Sulphur Springs,58.06,122.47,68.04,124.74,315.25,Single-ply,SBD,M
Boys,67.13,6,Devien Fuentes,Sulphur Springs,60.06,113.4,68.04,111.13,292.57,Single-ply,SBD,M
Boys,59.87,7,Tyler Madsen,Fort Worth Western Hills,59.69,83.91,56.7,133.81,274.42,Single-ply,SBD,M
Boys,59.87,8,Joe Sosa,Fort Worth North Side,56.7,74.84,52.16,102.06,229.06,Single-ply,SBD,M
Boys,59.87,DQ,Dwayne Dowell,Terrell,57.42,,,,,Single-ply,SBD,M
Boys,59.87,DQ,Tavari Hill,Texarkana Liberty-Eylau,58.69,113.4,,,,Single-ply,SBD,M
Boys,67.13,1,Roy Butler,Texarkana Liberty-Eylau,66.41,213.19,142.88,204.12,560.19,Single-ply,SBD,M
Boys,67.13,2,Ben Bittle,Rockwall,66.86,183.7,113.4,192.78,489.88,Single-ply,SBD,M
Boys,74.84,3,Johnathon Carlisle,Sulphur Springs,67.22,192.78,102.06,195.04,489.88,Single-ply,SBD,M
Boys,67.13,4,De'Shun Brewer,Texarkana Liberty-Eylau,66.13,181.44,99.79,197.31,478.54,Single-ply,SBD,M
Boys,67.13,5,Jonny Sorey,Forney,66.68,172.37,97.52,190.51,460.4,Single-ply,SBD,M
Boys,67.13,6,Bacardi Clark,Forney,66.68,181.44,97.52,172.37,451.32,Single-ply,SBD,M
Boys,67.13,7,Paul Blasingame,Nevada Community,66.22,170.1,90.72,176.9,437.72,Single-ply,SBD,M
Boys,67.13,8,Colin Robinson #2,Kaufman,67.13,149.69,83.91,167.83,401.43,Single-ply,SBD,M
Boys,67.13,9,Tajee Johnson,Texarkana Liberty-Eylau,64.68,136.08,86.18,161.03,383.29,Single-ply,SBD,M
Boys,67.13,10,Jason Bryant,Crandall,65.59,127.01,90.72,165.56,383.29,Single-ply,SBD,M
Boys,74.84,11,DeTravion Turner,Terrell,67.31,174.63,72.57,136.08,383.29,Single-ply,SBD,M
Boys,67.13,12,Aaroon Irons,Forney,66.68,136.08,92.99,147.42,376.48,Single-ply,SBD,M
Boys,67.13,13,James Silkey,Quinlan Ford,63.32,167.83,104.33,102.06,374.21,Single-ply,SBD,M
Boys,67.13,14,Justin Winters,Kaufman,66.59,136.08,86.18,151.95,374.21,Single-ply,SBD,M
Boys,67.13,15,Anthony Offord,Crandall,63.05,127.01,74.84,163.29,365.14,Single-ply,SBD,M
Boys,67.13,16,Kevin Harris,Fort Worth Western Hills,63.87,147.42,70.31,142.88,360.61,Single-ply,SBD,M
Boys,67.13,17,Josh Ramirez,Kaufman,63.32,136.08,86.18,136.08,358.34,Single-ply,SBD,M
Boys,67.13,18,Erik Ramirez,Nevada Community,64.5,129.27,83.91,136.08,349.27,Single-ply,SBD,M
Boys,67.13,19,Clayton Chadwick,Forney,66.68,136.08,70.31,136.08,342.46,Single-ply,SBD,M
Boys,67.13,20,Kiandre Young,Terrell,61.69,124.74,72.57,136.08,333.39,Single-ply,SBD,M
Boys,67.13,21,Michael Clark,Italy,64.05,122.47,74.84,136.08,333.39,Single-ply,SBD,M
Boys,67.13,DQ,Tony Wooldridge,Italy,60.24,113.4,,113.4,,Single-ply,SBD,M
Boys,67.13,DQ,Corey Carter,Fort Worth Western Hills,65.77,,,,,Single-ply,SBD,M
Boys,67.13,DQ,Ryan Scobee,Nevada Community,65.86,138.35,,,,Single-ply,SBD,M
Boys,67.13,DQ,Marallus Atill,Terrell,61.33,113.4,,,,Single-ply,SBD,M
Boys,74.84,1,Antonio Alba,Fort Worth North Side,73.3,195.04,113.4,226.8,535.24,Single-ply,SBD,M
Boys,74.84,2,Marcio Velasquez,Nevada Community,74.03,174.63,120.2,176.9,471.74,Single-ply,SBD,M
Boys,74.84,3,Robert Dominguez,Mabank,72.67,167.83,108.86,190.51,467.2,Single-ply,SBD,M
Boys,74.84,4,Dillon Collard,Crandall,70.67,145.15,108.86,197.31,451.32,Single-ply,SBD,M
Boys,74.84,5,Bo Corley,Forney,73.03,154.22,131.54,165.56,451.32,Single-ply,SBD,M
Boys,74.84,6,Cesar Hernandez,Nevada Community,73.66,161.03,97.52,165.56,424.11,Single-ply,SBD,M
Boys,74.84,7,Rylee Littrell,Scurry-Rosser,74.75,156.49,104.33,163.29,424.11,Single-ply,SBD,M
Boys,74.84,8,Clayton Lane,Mabank,71.58,142.88,102.06,154.22,399.16,Single-ply,SBD,M
Boys,74.84,9,Louis Fanning,Forney,74.39,147.42,88.45,149.69,385.55,Single-ply,SBD,M
Boys,74.84,10,Tyler McBride,Quinlan Ford,68.95,136.08,90.72,147.42,374.21,Single-ply,SBD,M
Boys,74.84,11,Jalcolby Cox,Scurry-Rosser,70.22,129.27,83.91,147.42,360.61,Single-ply,SBD,M
Boys,74.84,12,Joey Leach,Honey Grove,70.94,113.4,90.72,151.95,356.07,Single-ply,SBD,M
Boys,74.84,13,Chase Hamilton,Italy,71.12,131.54,86.18,138.35,356.07,Single-ply,SBD,M
Boys,74.84,14,Austin Corn,Terrell,72.39,102.06,79.38,165.56,347,Single-ply,SBD,M
Boys,74.84,15,David Hutto,Fort Worth Western Hills,67.86,102.06,77.11,165.56,344.73,Single-ply,SBD,M
Boys,74.84,16,Bryson Parr,Fort Worth Western Hills,73.75,120.2,77.11,133.81,331.12,Single-ply,SBD,M
Boys,74.84,17,Josue Hernandez,Fort Worth North Side,70.49,115.67,63.5,149.69,328.85,Single-ply,SBD,M
Boys,74.84,18,Eric Santillan,Nevada Community,74.57,111.13,81.65,136.08,328.85,Single-ply,SBD,M
Boys,82.1,19,Chris Perez,Fort Worth North Side,75.02,108.86,72.57,147.42,328.85,Single-ply,SBD,M
Boys,74.84,20,Dustin Todd,Scurry-Rosser,73.03,124.74,58.97,129.27,312.98,Single-ply,SBD,M
Boys,74.84,21,Cody Medarro,Italy,71.85,95.25,65.77,117.93,278.96,Single-ply,SBD,M
Boys,74.84,22,Timothy Austin,Fort Worth Western Hills,69.31,74.84,56.7,92.99,224.53,Single-ply,SBD,M
Boys,74.84,DQ,Josh Williams,Fort Worth Western Hills,73.03,,56.7,151.95,,Single-ply,SBD,M
Boys,74.84,DQ,Bryan Arredondo,Fort Worth Western Hills,71.67,,58.97,106.59,,Single-ply,SBD,M
Boys,74.84,DQ,Javon Thomas,Forney,73.03,,88.45,176.9,,Single-ply,SBD,M
Boys,74.84,DQ,Otto Kerr,Nevada Community,72.03,113.4,,,,Single-ply,SBD,M
Boys,74.84,DQ,Austin Schneider,Mabank,74.39,133.81,,,,Single-ply,SBD,M
Boys,82.1,1,Joe Scott,Sulphur Springs,80.38,238.14,140.61,201.85,580.6,Single-ply,SBD,M
Boys,82.1,2,Trent Tucker,Texarkana Liberty-Eylau,78.2,215.46,124.74,195.04,535.24,Single-ply,SBD,M
Boys,82.1,3,Jason Haley,Texarkana Liberty-Eylau,75.75,199.58,99.79,190.51,489.88,Single-ply,SBD,M
Boys,82.1,4,Justin Campos,Fort Worth North Side,81.28,192.78,102.06,192.78,487.61,Single-ply,SBD,M
Boys,82.1,5,Kederick Holmes,Texarkana Liberty-Eylau,82.1,185.97,102.06,188.24,476.27,Single-ply,SBD,M
Boys,82.1,6,Adam Strickland,Nevada Community,77.75,181.44,113.4,172.37,467.2,Single-ply,SBD,M
Boys,82.1,7,Korey Nix,Mabank,78.11,188.24,115.67,163.29,467.2,Single-ply,SBD,M
Boys,82.1,8,Garrett Fikes,Rockwall,80.2,192.78,124.74,149.69,467.2,Single-ply,SBD,M
Boys,82.1,9,Zak Kellum,Forney,82.1,167.83,104.33,192.78,464.93,Single-ply,SBD,M
Boys,82.1,10,Cameron Bausley,Red Oak,75.93,183.7,90.72,181.44,455.86,Single-ply,SBD,M
Boys,82.1,11,Trey Adair,Sulphur Springs,78.38,183.7,102.06,165.56,451.32,Single-ply,SBD,M
Boys,82.1,12,Mathew Sellers,Texarkana Liberty-Eylau,81.1,172.37,102.06,158.76,433.18,Single-ply,SBD,M
Boys,82.1,13,Brandon Rodriguez,Terrell,78.93,142.88,108.86,172.37,424.11,Single-ply,SBD,M
Boys,82.1,14,Tyler Garrison,Scurry-Rosser,76.29,165.56,88.45,163.29,417.3,Single-ply,SBD,M
Boys,82.1,15,Kyle Crow,Quinlan Ford,81.37,163.29,79.38,170.1,412.77,Single-ply,SBD,M
Boys,82.1,16,Thomas Tilford,Scurry-Rosser,77.56,163.29,95.25,142.88,401.43,Single-ply,SBD,M
Boys,82.1,17,Andrew Newton,Crandall,79.74,145.15,92.99,163.29,401.43,Single-ply,SBD,M
Boys,82.1,18,Chase McDonald,Quinlan Ford,80.92,158.76,88.45,151.95,399.16,Single-ply,SBD,M
Boys,82.1,19,Christopher Rather,Forney,78.93,158.76,90.72,142.88,392.36,Single-ply,SBD,M
Boys,82.1,20,Preston Powell,Forney,78.02,142.88,86.18,154.22,383.29,Single-ply,SBD,M
Boys,82.1,21,Jose Juarez #3,Kaufman,80.56,140.61,90.72,151.95,383.29,Single-ply,SBD,M
Boys,82.1,22,Sean Slater,Fort Worth Western Hills,78.65,138.35,74.84,165.56,378.75,Single-ply,SBD,M
Boys,82.1,23,Clint LaCour,Scurry-Rosser,82.01,136.08,88.45,145.15,369.68,Single-ply,SBD,M
Boys,82.1,24,Jason Day,Scurry-Rosser,78.93,149.69,79.38,138.35,367.41,Single-ply,SBD,M
Boys,82.1,25,John Mitchell #3,Kaufman,75.3,136.08,70.31,158.76,365.14,Single-ply,SBD,M
Boys,82.1,26,Christian Garcia,Fort Worth Western Hills,78.29,79.38,63.5,142.88,285.76,Single-ply,SBD,M
Boys,82.1,DQ,Corey Barron,Nevada Community,78.93,158.76,,,,Single-ply,SBD,M
Boys,89.81,1,Hollis Webster,Texarkana Liberty-Eylau,84.37,204.12,140.61,226.8,571.53,Single-ply,SBD,M
Boys,89.81,2,Caleb Moreau,Fort Worth Western Hills,89.58,215.46,115.67,210.92,542.04,Single-ply,SBD,M
Boys,89.81,3,Anthony Hambric #1,Forney,88.9,208.65,131.54,199.58,539.77,Single-ply,SBD,M
Boys,89.81,4,Jason Poole,Fort Worth Western Hills,89.36,181.44,97.52,226.8,505.76,Single-ply,SBD,M
Boys,89.81,5,Adam Mickey,Crandall,89.81,165.56,111.13,215.46,492.15,Single-ply,SBD,M
Boys,89.81,6,Jacob Aguirre,Rockwall,88,174.63,115.67,199.58,489.88,Single-ply,SBD,M
Boys,89.81,7,Taylor Lollis,Texarkana Liberty-Eylau,87.09,167.83,117.93,181.44,467.2,Single-ply,SBD,M
Boys,89.81,8,Seth Savage,Sulphur Springs,89.81,176.9,113.4,165.56,455.86,Single-ply,SBD,M
Boys,89.81,9,Bryce Hale,Quinlan Ford,88.45,161.03,90.72,195.04,446.79,Single-ply,SBD,M
Boys,99.79,10,Quinton Slaughter,Red Oak,90.04,174.63,92.99,174.63,442.25,Single-ply,SBD,M
Boys,89.81,11,Andy Hatcher,Forney,83.91,158.76,77.11,192.78,428.64,Single-ply,SBD,M
Boys,89.81,12,Ben Blakely,Red Oak,87.09,147.42,92.99,174.63,415.04,Single-ply,SBD,M
Boys,89.81,13,Lafayette Noble,Red Oak,87.54,154.22,86.18,174.63,415.04,Single-ply,SBD,M
Boys,89.81,14,Arturo Padilla,Fort Worth North Side,87.09,147.42,83.91,181.44,412.77,Single-ply,SBD,M
Boys,89.81,15,Cody Davis,Kaufman,86.64,158.76,88.45,154.22,401.43,Single-ply,SBD,M
Boys,89.81,16,Tarraine Childress,Terrell,89.36,156.49,92.99,149.69,399.16,Single-ply,SBD,M
Boys,89.81,17,Brandon Morris,Scurry-Rosser,85.73,158.76,88.45,147.42,394.63,Single-ply,SBD,M
Boys,89.81,18,Darquan Ware,Texarkana Liberty-Eylau,83.55,147.42,83.91,154.22,385.55,Single-ply,SBD,M
Boys,89.81,19,Seth Adams,Forney,86.18,158.76,83.91,136.08,378.75,Single-ply,SBD,M
Boys,89.81,20,Javier Vasquez,Honey Grove,85.28,142.88,74.84,158.76,376.48,Single-ply,SBD,M
Boys,89.81,21,Hunter Hayes,Nevada Community,88.9,136.08,88.45,138.35,362.87,Single-ply,SBD,M
Boys,99.79,22,Drea Carmona,Terrell,90.04,120.2,86.18,140.61,347,Single-ply,SBD,M
Boys,89.81,DQ,Garrett Yates,Scurry-Rosser,84.82,,,,,Single-ply,SBD,M
Boys,89.81,DQ,Derek Durant,Forney,89.36,167.83,,,,Single-ply,SBD,M
Boys,99.79,1,Jonathan Perez,Scurry-Rosser,97.52,197.31,111.13,192.78,501.22,Single-ply,SBD,M
Boys,99.79,2,Devon Burris,Crandall,99.34,183.7,117.93,199.58,501.22,Single-ply,SBD,M
Boys,99.79,3,Antun Milton,Sulphur Springs,98.88,183.7,102.06,197.31,483.08,Single-ply,SBD,M
Boys,99.79,4,Matavious Morris,Terrell,92.76,163.29,111.13,204.12,478.54,Single-ply,SBD,M
Boys,99.79,5,Chris Sepulveda,Forney,91.63,158.76,115.67,170.1,444.52,Single-ply,SBD,M
Boys,99.79,6,John Velez,Mabank,99.34,183.7,102.06,158.76,444.52,Single-ply,SBD,M
Boys,99.79,7,William Wayne,Texarkana Liberty-Eylau,93.44,154.22,99.79,185.97,439.98,Single-ply,SBD,M
Boys,99.79,8,Javier Jaramillo,Honey Grove,97.98,167.83,102.06,170.1,439.98,Single-ply,SBD,M
Boys,99.79,9,Kevin Davis #5,Kaufman,93.89,167.83,99.79,170.1,437.72,Single-ply,SBD,M
Boys,99.79,10,Zach Ford,Texarkana Liberty-Eylau,91.63,147.42,99.79,183.7,430.91,Single-ply,SBD,M
Boys,99.79,11,Dylan Johnson,Red Oak,99.79,158.76,99.79,158.76,417.3,Single-ply,SBD,M
Boys,99.79,12,Dreyton Munden,Mabank,96.62,140.61,102.06,165.56,408.23,Single-ply,SBD,M
Boys,99.79,13,Cody Kuykendall,Mabank,95.71,113.4,104.33,154.22,371.95,Single-ply,SBD,M
Boys,99.79,14,David Allen,Scurry-Rosser,96.16,147.42,83.91,138.35,369.68,Single-ply,SBD,M
Boys,99.79,15,Corey Jones,Forney,91.63,124.74,95.25,127.01,347,Single-ply,SBD,M
Boys,99.79,16,Robert Greene,Fort Worth North Side,99.79,117.93,61.23,124.74,303.91,Single-ply,SBD,M
Boys,99.79,17,Zacchaeus Price,Texarkana Liberty-Eylau,97.07,174.63,104.33,,278.96,Single-ply,SB,M
Boys,99.79,DQ,Ben Dodson,Terrell,98.43,,,,,Single-ply,SB,M
Boys,99.79,DQ,Omar Estrada,Italy,92.99,172.37,,,,Single-ply,SB,M
Boys,99.79,DQ,Carlos Diaz,Fort Worth North Side,90.72,,,,,Single-ply,SB,M
Boys,99.79,DQ,Dakotta Cooksy,Quinlan Ford,97.75,,,,,Single-ply,SB,M
Boys,99.79,DQ,Casey Sergent,Quinlan Ford,94.8,254.01,,,,Single-ply,SB,M
Boys,99.79,DQ,Jordan VanOver,Mabank,98.88,158.76,,,,Single-ply,SB,M
Boys,109.77,1,Dillion Morrison,Crandall,105.69,242.67,170.1,213.19,625.96,Single-ply,SBD,M
Boys,109.77,2,Payton Owen,Mabank,106.14,192.78,117.93,204.12,514.83,Single-ply,SBD,M
Boys,109.77,3,Sam Jenkins,Red Oak,108.86,188.24,136.08,190.51,514.83,Single-ply,SBD,M
Boys,109.77,4,AJ Willingham,Fort Worth Western Hills,108.18,161.03,154.22,185.97,501.22,Single-ply,SBD,M
Boys,109.77,5,Garrett York,Crandall,104.33,181.44,129.27,188.24,498.95,Single-ply,SBD,M
Boys,109.77,6,Chad Evans,Sulphur Springs,109.09,183.7,120.2,192.78,496.68,Single-ply,SBD,M
Boys,109.77,7,Cori Brown,Mabank,102.29,170.1,154.22,163.29,487.61,Single-ply,SBD,M
Boys,109.77,8,Morocco Arnold,Texarkana Liberty-Eylau,101.15,174.63,95.25,204.12,474,Single-ply,SBD,M
Boys,109.77,9,Christian Stewart,Forney,106.59,181.44,115.67,172.37,469.47,Single-ply,SBD,M
Boys,109.77,10,Ryan Ramirez,Rockwall,104.78,188.24,97.52,142.88,428.64,Single-ply,SBD,M
Boys,109.77,11,Stoker Burt,Kaufman,103.87,154.22,92.99,172.37,419.57,Single-ply,SBD,M
Boys,109.77,12,Matt Price,Forney,107.05,158.76,88.45,163.29,410.5,Single-ply,SBD,M
Boys,109.77,13,Christian Crook,Rockwall,101.15,142.88,88.45,158.76,390.09,Single-ply,SBD,M
Boys,109.77,DQ,Drew West,Scurry-Rosser,103.42,,,,,Single-ply,SBD,M
Boys,109.77,DQ,David Allen,Quinlan Ford,106.37,170.1,,,,Single-ply,SBD,M
Boys,109.77,DQ,Dallas Millhansen,Quinlan Ford,107.27,158.76,,,,Single-ply,SBD,M
Boys,124.74,1,Jason Guinn,Nevada Community,117.48,242.67,136.08,170.1,548.85,Single-ply,SBD,M
Boys,124.74,2,Payden McBee,Rockwall,124.28,174.63,158.76,185.97,519.36,Single-ply,SBD,M
Boys,124.74,3,Chris Paul,Texarkana Liberty-Eylau,115.21,204.12,113.4,181.44,498.95,Single-ply,SBD,M
Boys,124.74,4,Josh Fisher,Red Oak,119.29,183.7,115.67,181.44,480.81,Single-ply,SBD,M
Boys,124.74,5,Dillion O'Neal,Crandall,123.83,147.42,120.2,156.49,424.11,Single-ply,SBD,M
Boys,124.74,6,Daniel Fethkennher,Forney,123.83,183.7,70.31,161.03,415.04,Single-ply,SBD,M
Boys,124.74,7,Andre McKissack,Crandall,122.02,127.01,102.06,174.63,403.7,Single-ply,SBD,M
Boys,124.74,8,Christian Reyes,Fort Worth Western Hills,117.48,133.81,90.72,142.88,367.41,Single-ply,SBD,M
Boys,124.74,9,Sean Partridge,Fort Worth Western Hills,121.11,124.74,70.31,138.35,333.39,Single-ply,SBD,M
Boys,124.74,10,Collin Martran,Mabank,113.4,92.99,92.99,142.88,328.85,Single-ply,SBD,M
Boys,124.74+,1,Ethan Boatman,Sulphur Springs,148.32,215.46,151.95,219.99,587.4,Single-ply,SBD,M
Boys,124.74+,2,Chris Tanner,Rockwall,142.88,233.6,151.95,199.58,585.13,Single-ply,SBD,M
Boys,124.74+,3,Sidney Price,Texarkana Liberty-Eylau,169.64,204.12,142.88,213.19,560.19,Single-ply,SBD,M
Boys,124.74+,4,Tavian Taylor,Terrell,127.69,231.33,142.88,174.63,548.85,Single-ply,SBD,M
Boys,124.74+,5,Marquon Edmond,Texarkana Liberty-Eylau,162.39,226.8,136.08,185.97,548.85,Single-ply,SBD,M
Boys,124.74+,6,Tyler Heard,Scurry-Rosser,130.18,206.38,129.27,172.37,508.02,Single-ply,SBD,M
Boys,124.74+,7,Zeke Clerk,Red Oak,141.52,174.63,131.54,183.7,489.88,Single-ply,SBD,M
Boys,124.74+,8,Hank Seabolt,Italy,132.22,142.88,108.86,136.08,387.82,Single-ply,SBD,M
Boys,124.74+,9,Justin Pinson,Mabank,136.08,147.42,92.99,140.61,381.02,Single-ply,SBD,M
Boys,124.74+,DQ,Chase Cadena,Sulphur Springs,131.09,181.44,,,,Single-ply,SBD,M
Boys,124.74+,DQ,Rishun Wimbley,Forney,127.91,156.49,65.77,,,Single-ply,SBD,M
