Division,WeightClassKg,Place,Name,Team,BodyweightKg,Best3SquatKg,Best3BenchKg,Best3DeadliftKg,TotalKg,Equipment,Event,Sex
Girls,44.23,1,Julissa Gonzalez,Kyle Lehman,44.09,81.65,40.82,83.91,206.38,Single-ply,SBD,F
Girls,44.23,2,Samantha Sanchez,Natalia,39.96,74.84,27.22,83.91,185.97,Single-ply,SBD,F
Girls,47.85,1,Analee Uriegas,San Antonio Holy Cross,47.13,115.67,52.16,113.4,281.23,Single-ply,SBD,F
Girls,47.85,2,Liszette Ortiz-Rosado,San Antonio Brooks Academy,47.26,102.06,58.97,113.4,274.42,Single-ply,SBD,F
Girls,47.85,3,Anamarie Fajardo,Kyle Lehman,46.86,106.59,47.63,106.59,260.82,Single-ply,SBD,F
Girls,47.85,4,Alexia Dy,San Antonio Cole,46.67,90.72,38.56,120.2,249.48,Single-ply,SBD,F
Girls,47.85,5,Anastasia Rodriguez,Natalia,47.17,92.99,54.43,83.91,231.33,Single-ply,SBD,F
Girls,47.85,6,Janet de la Sancha,Lytle,46.13,95.25,36.29,97.52,229.06,Single-ply,SBD,F
Girls,47.85,7,Victoria Schupp,Dripping Springs,47.85,72.57,45.36,92.99,210.92,Single-ply,SBD,F
Girls,47.85,8,Sidney Knight,Marion,47.58,63.5,29.48,79.38,172.37,Single-ply,SBD,F
Girls,47.85,DQ,Chrissy Garcia,Lytle,47.13,,,,,Single-ply,SBD,F
Girls,51.94,1,Belen Morales,San Antonio Kennedy,51.94,129.27,65.77,142.88,337.93,Single-ply,SBD,F
Girls,51.94,2,Lilly Aguilar,Natalia,51.94,133.81,61.23,131.54,326.59,Single-ply,SBD,F
Girls,51.94,3,Jasmine Gomez,Natalia,51.89,120.2,47.63,102.06,269.89,Single-ply,SBD,F
Girls,51.94,4,Iris Cantu,Natalia,50.48,108.86,45.36,102.06,256.28,Single-ply,SBD,F
Girls,51.94,5,Monique Covarrubias,Lytle,50.03,90.72,38.56,115.67,244.94,Single-ply,SBD,F
Girls,51.94,6,Alivia Fajardo,Kyle Lehman,51.71,90.72,38.56,106.59,235.87,Single-ply,SBD,F
Girls,51.94,7,Victoria Smith #2,Kyle Lehman,50.98,83.91,43.09,86.18,213.19,Single-ply,SBD,F
Girls,51.94,8,Beken Luna,Universal City Randolph,50.71,68.04,34.02,90.72,192.78,Single-ply,SBD,F
Girls,51.94,9,Skylar Shaw,Marion,51.39,68.04,36.29,88.45,192.78,Single-ply,SBD,F
Girls,56.02,1,Kali Palomarez,Kyle Lehman,55.47,145.15,63.5,131.54,340.19,Single-ply,SBD,F
Girls,56.02,2,Taylor Barton,San Antonio Brooks Academy,54.7,104.33,58.97,120.2,283.5,Single-ply,SBD,F
Girls,56.02,3,Trinity Vera,Natalia,56.02,92.99,47.63,106.59,247.21,Single-ply,SBD,F
Girls,56.02,4,Cheyenne Dechert,Blanco,52.98,81.65,43.09,92.99,217.72,Single-ply,SBD,F
Girls,56.02,5,Mia Albrect,Blanco,55.25,83.91,38.56,95.25,217.72,Single-ply,SBD,F
Girls,60.1,1,Jasmine Vasquez,Natalia,56.11,145.15,83.91,161.03,390.09,Single-ply,SBD,F
Girls,60.1,2,Rubylee Perez,Kyle Lehman,59.6,142.88,61.23,131.54,335.66,Single-ply,SBD,F
Girls,60.1,3,Nallely Gutierrez,San Antonio Brooks Academy,59.33,102.06,77.11,131.54,310.71,Single-ply,SBD,F
Girls,60.1,4,Shayna Srackangast,Blanco,58.97,111.13,56.7,124.74,292.57,Single-ply,SBD,F
Girls,60.1,5,Jules Peterson,Dripping Springs,58.69,108.86,54.43,120.2,283.5,Single-ply,SBD,F
Girls,60.1,6,Maya Williams,Universal City Randolph,60.1,104.33,45.36,113.4,263.08,Single-ply,SBD,F
Girls,60.1,7,Cynthia Monreal,Natalia,59.19,88.45,54.43,113.4,256.28,Single-ply,SBD,F
Girls,60.1,8,Kaleigh Griffin,Blanco,57.97,72.57,40.82,102.06,215.46,Single-ply,SBD,F
Girls,60.1,9,Taylor Trafford,Marion,57.38,70.31,43.09,90.72,204.12,Single-ply,SBD,F
Girls,67.36,1,Alexis Ysla,Kyle Lehman,67,158.76,65.77,158.76,383.29,Single-ply,SBD,F
Girls,67.36,2,Bethany Martinez,Bandera,65.14,140.61,86.18,149.69,376.48,Single-ply,SBD,F
Girls,67.36,3,Julianna Morales,Natalia,61.78,136.08,72.57,149.69,358.34,Single-ply,SBD,F
Girls,67.36,4,Lauren Lara,San Antonio Brooks Academy,64.68,102.06,45.36,117.93,265.35,Single-ply,SBD,F
Girls,67.36,5,Uilani Koani Bonnelycke,Lytle,63.14,115.67,45.36,90.72,251.74,Single-ply,SBD,F
Girls,67.36,6,Cami Manriquez,Blanco,66.63,95.25,45.36,106.59,247.21,Single-ply,SBD,F
Girls,67.36,7,Khadyajah Jenkins,Universal City Randolph,64.09,90.72,45.36,108.86,244.94,Single-ply,SBD,F
Girls,67.36,8,Ally Elkins,Bandera,65.68,88.45,45.36,95.25,229.06,Single-ply,SBD,F
Girls,67.36,9,Jimena Alegria,Blanco,60.69,88.45,38.56,99.79,226.8,Single-ply,SBD,F
Girls,75.07,1,Robyn Young,Marion,74.57,140.61,63.5,170.1,374.21,Single-ply,SBD,F
Girls,75.07,2,Kyana Gayden,Universal City Randolph,74.66,127.01,54.43,154.22,335.66,Single-ply,SBD,F
Girls,75.07,3,Loren Chavez,San Antonio Brooks Academy,71.94,124.74,70.31,113.4,308.44,Single-ply,SBD,F
Girls,75.07,4,Karina Perez,San Antonio Brooks Academy,68.86,108.86,63.5,104.33,276.69,Single-ply,SBD,F
Girls,75.07,5,Samantha Lemus,Natalia,70.85,99.79,54.43,117.93,272.16,Single-ply,SBD,F
Girls,75.07,6,Marisa Rios,Lytle,73.98,113.4,54.43,104.33,272.16,Single-ply,SBD,F
Girls,75.07,7,Kristyn Rodriguez,Marion,74.62,81.65,45.36,108.86,235.87,Single-ply,SBD,F
Girls,75.07,DQ,Bryttney London,Universal City Randolph,69.67,,,,,Single-ply,SBD,F
Girls,82.33,1,Megan Martinez,San Antonio Brooks Academy,77.43,185.97,97.52,142.88,426.38,Single-ply,SBD,F
Girls,82.33,2,Ariana Arizola,Natalia,82.28,131.54,65.77,124.74,322.05,Single-ply,SBD,F
Girls,82.33,3,Natalia Ortiz,San Antonio Brooks Academy,77.61,117.93,65.77,124.74,308.44,Single-ply,SBD,F
Girls,82.33,4,Kimberly Butcher,San Antonio Holy Cross,75.43,117.93,58.97,129.27,306.17,Single-ply,SBD,F
Girls,82.33,5,Deja Morrow,Bandera,80.2,108.86,61.23,117.93,288.03,Single-ply,SBD,F
Girls,82.33,6,Alexsandra Degollado,Natalia,80.83,113.4,52.16,86.18,251.74,Single-ply,SBD,F
Girls,82.33,7,Bertina Andrade,Blanco,77.66,102.06,49.9,95.25,247.21,Single-ply,SBD,F
Girls,82.33,8,Kristen Center,Lytle,79.83,74.84,52.16,95.25,222.26,Single-ply,SBD,F
Girls,82.33,9,Jaida White,Universal City Randolph,79.42,74.84,45.36,79.38,199.58,Single-ply,SBD,F
Girls,90.04,1,Katelin Van Dong,Lytle,87.77,163.29,70.31,163.29,396.89,Single-ply,SBD,F
Girls,90.04,2,Evelyn Ramirez,Kyle Lehman,87.63,149.69,70.31,149.69,369.68,Single-ply,SBD,F
Girls,90.04,3,Gabby Martinez,Kyle Lehman,86.77,142.88,74.84,131.54,349.27,Single-ply,SBD,F
Girls,90.04,4,Crystal Sierra,San Antonio Kennedy,88.81,131.54,45.36,127.01,303.91,Single-ply,SBD,F
Girls,90.04,5,Leandra Sharp,Marion,85.68,88.45,38.56,99.79,226.8,Single-ply,SBD,F
Girls,90.04,6,Madison Bauwens,Marion,84.5,72.57,38.56,88.45,199.58,Single-ply,SBD,F
Girls,100.02,1,Samantha Heimer,San Antonio Brooks Academy,97.66,147.42,104.33,133.81,385.55,Single-ply,SBD,F
Girls,100.02,2,Jessica Soto,Lytle,95.21,176.9,77.11,127.01,381.02,Single-ply,SBD,F
Girls,100.02,3,Jasmine Munoz,Blanco,95.21,122.47,58.97,115.67,297.1,Single-ply,SBD,F
Girls,100.02,4,Sabrina Moreno,San Antonio Kennedy,91.13,74.84,38.56,102.06,215.46,Single-ply,SBD,F
Girls,100.02+,1,Mia Dolin,Kyle Lehman,120.47,156.49,68.04,145.15,369.68,Single-ply,SBD,F
Girls,100.02+,2,Seauanna Watson,Kyle Lehman,102.51,149.69,68.04,142.88,360.61,Single-ply,SBD,F
Girls,100.02+,3,Diane Muniz,San Antonio Holy Cross,102.51,136.08,65.77,92.99,294.84,Single-ply,SBD,F
Girls,100.02+,4,Natalie Ochoa,Marion,107.23,108.86,47.63,108.86,265.35,Single-ply,SBD,F
Girls,100.02+,5,Charity Holland,Universal City Randolph,103.33,83.91,61.23,113.4,258.55,Single-ply,SBD,F
