Division,WeightClassKg,Place,Name,Team,BodyweightKg,Best3SquatKg,Best3BenchKg,Best3DeadliftKg,TotalKg,Equipment,Event,Sex,BirthDate
Girls,44.23,1,Lexi Iglesias,Port Lavaca Calhoun,43.82,117.93,70.31,117.93,306.17,Single-ply,SBD,F,
Girls,47.85,1,Victoria Varela,Port Lavaca Calhoun,45.81,113.4,49.9,117.93,281.23,Single-ply,SBD,F,
Girls,51.94,1,Raelin Luna,Port Lavaca Calhoun,50.44,122.47,72.57,131.54,326.59,Single-ply,SBD,F,
Girls,51.94,2,Kay D'Leal,Corpus Christi Calallen,51.48,106.59,65.77,124.74,297.1,Single-ply,SBD,F,
Girls,56.02,1,Eh Nay Gay Hso,Port Lavaca Calhoun,55.97,167.83,63.5,145.15,376.48,Single-ply,SBD,F,
Girls,60.1,1,Geraldine Tafolla,Port Lavaca Calhoun,58.79,142.88,72.57,136.08,351.53,Single-ply,SBD,F,
Girls,60.1,2,Jasmine Earls,Corpus Christi Calallen,59.78,122.47,70.31,142.88,335.66,Single-ply,SBD,F,
Girls,60.1,3,Mercedes Chapa,Corpus Christi Calallen,58.97,90.72,45.36,104.33,240.4,Single-ply,SBD,F,
Girls,60.1,4,Illiana Hernandez,Gregory-Portland,59.96,86.18,56.7,95.25,238.14,Single-ply,SBD,F,
Girls,67.36,1,Jackie McClendon,Corpus Christi Calallen,64.41,145.15,56.7,142.88,344.73,Single-ply,SBD,F,
Girls,67.36,2,Hser Ther,Port Lavaca Calhoun,64.5,127.01,65.77,131.54,324.32,Single-ply,SBD,F,
Girls,67.36,3,Kelsey Chesson,Corpus Christi Calallen,65.23,129.27,61.23,127.01,317.51,Single-ply,SBD,F,
Girls,67.36,4,Abigail Nunez,Gregory-Portland,66.32,88.45,43.09,99.79,231.33,Single-ply,SBD,F,
Girls,75.07,1,Mikala Fellers,Gregory-Portland,72.57,111.13,49.9,127.01,288.03,Single-ply,SBD,F,
Girls,75.07,2,Karsyn Alexander,Corpus Christi Calallen,69.49,102.06,52.16,90.72,244.94,Single-ply,SBD,F,
Girls,75.07,3,Heally Simmons,Gregory-Portland,70.03,63.5,34.02,92.99,190.51,Single-ply,SBD,F,
Girls,75.07,4,Taelor Fritz,Gregory-Portland,68.4,56.7,38.56,90.72,185.97,Single-ply,SBD,F,
Girls,75.07,DQ,Madison Calderon,Corpus Christi Calallen,73.94,,,,,Single-ply,SBD,F,
Girls,82.33,1,Camdyn Grumbles,Gregory-Portland,78.47,120.2,45.36,127.01,292.57,Single-ply,SBD,F,
Girls,82.33,DQ,Kaitlin Tagle,Corpus Christi Calallen,81.19,117.93,54.43,,,Single-ply,SBD,F,
Girls,90.04,1,Ruth Garza,Gregory-Portland,84.01,113.4,58.97,117.93,290.3,Single-ply,SBD,F,
Girls,90.04,2,Skyla Martini,Gregory-Portland,85.82,77.11,43.09,90.72,210.92,Single-ply,SBD,F,
Girls,100.02,DQ,Caitlin Byrne,Gregory-Portland,97.25,142.88,,,,Single-ply,SBD,F,
Girls,117.71,1,Andria Fierros,Gregory-Portland,102.51,136.08,63.5,145.15,344.73,Single-ply,SBD,F,
Girls,117.71,2,Leah Solano,Gregory-Portland,100.24,99.79,47.63,117.93,265.35,Single-ply,SBD,F,
Girls,117.71+,1,Alayna Searcy,Port Lavaca Calhoun,131.27,235.87,106.59,174.63,517.1,Single-ply,SBD,F,
Girls,117.71+,2,Emily Jansen,Gregory-Portland,126.19,108.86,81.65,108.86,299.37,Single-ply,SBD,F,
